EESchema Schematic File Version 2
LIBS:mals_library
LIBS:power
LIBS:device
LIBS:transistors
LIBS:conn
LIBS:linear
LIBS:regul
LIBS:74xx
LIBS:cmos4000
LIBS:adc-dac
LIBS:memory
LIBS:xilinx
LIBS:special
LIBS:microcontrollers
LIBS:dsp
LIBS:microchip
LIBS:analog_switches
LIBS:motorola
LIBS:texas
LIBS:intel
LIBS:audio
LIBS:interface
LIBS:digital-audio
LIBS:philips
LIBS:display
LIBS:cypress
LIBS:siliconi
LIBS:opto
LIBS:atmel
LIBS:contrib
LIBS:valves
LIBS:Super 80 Reproduction-cache
EELAYER 27 0
EELAYER END
$Descr A3 16535 11693
encoding utf-8
Sheet 7 7
Title "Super 80 Reproduction"
Date "9 aug 2015"
Rev "0.1"
Comp "Malcolm Macleod"
Comment1 ""
Comment2 ""
Comment3 ""
Comment4 ""
$EndDescr
$Comp
L S80-Z80-CPU U46
U 1 1 55BB8BBE
P 3000 3300
F 0 "U46" H 3000 4750 50  0000 C CNN
F 1 "Z80 CPU" H 3000 4650 50  0000 C CNN
F 2 "~" H 3000 3100 60  0000 C CNN
F 3 "~" H 3000 3100 60  0000 C CNN
	1    3000 3300
	1    0    0    -1  
$EndComp
$Comp
L S80-U77-74LS367 U77
U 1 1 55BB94EF
P 6550 2300
F 0 "U77" H 6400 2700 50  0000 C CNN
F 1 "74LS367" H 6400 2600 50  0000 C CNN
F 2 "~" V 6450 2150 60  0000 C CNN
F 3 "~" V 6450 2150 60  0000 C CNN
	1    6550 2300
	1    0    0    -1  
$EndComp
$Comp
L R R53
U 1 1 55BBA137
P 4100 1700
F 0 "R53" H 4250 1650 50  0000 C CNN
F 1 "10K" H 4250 1750 50  0000 C CNN
F 2 "~" H 4100 1700 50  0000 C CNN
F 3 "~" H 4100 1700 60  0000 C CNN
	1    4100 1700
	-1   0    0    1   
$EndComp
$Comp
L R R52
U 1 1 55BBA13D
P 4550 1700
F 0 "R52" H 4700 1650 50  0000 C CNN
F 1 "10K" H 4700 1750 50  0000 C CNN
F 2 "~" H 4550 1700 50  0000 C CNN
F 3 "~" H 4550 1700 60  0000 C CNN
	1    4550 1700
	-1   0    0    1   
$EndComp
$Comp
L R R54
U 1 1 55BBA143
P 5000 1700
F 0 "R54" H 5150 1650 50  0000 C CNN
F 1 "10K" H 5150 1750 50  0000 C CNN
F 2 "~" H 5000 1700 50  0000 C CNN
F 3 "~" H 5000 1700 60  0000 C CNN
	1    5000 1700
	-1   0    0    1   
$EndComp
$Comp
L +5V #PWR091
U 1 1 55BBA14C
P 4100 1300
F 0 "#PWR091" H 4105 1390 50  0001 C CNN
F 1 "+5V" H 4100 1390 50  0000 C CNN
F 2 "~" H 4100 1300 50  0000 C CNN
F 3 "~" H 4100 1300 60  0000 C CNN
	1    4100 1300
	1    0    0    -1  
$EndComp
Wire Wire Line
	4100 1300 4100 1450
Wire Wire Line
	4100 1400 5450 1400
Wire Wire Line
	4550 1400 4550 1450
Connection ~ 4100 1400
Wire Wire Line
	5000 1400 5000 1450
Connection ~ 4550 1400
$Comp
L R R51
U 1 1 55BBA158
P 5450 1700
F 0 "R51" H 5600 1650 50  0000 C CNN
F 1 "10K" H 5600 1750 50  0000 C CNN
F 2 "~" H 5450 1700 50  0000 C CNN
F 3 "~" H 5450 1700 60  0000 C CNN
	1    5450 1700
	-1   0    0    1   
$EndComp
Wire Wire Line
	5450 1400 5450 1450
Text Label 3650 2100 0    50   ~ 0
IOREQ*
Text Label 3650 2200 0    50   ~ 0
RD*
Text Label 3650 2300 0    50   ~ 0
WR*
Text Label 3650 2400 0    50   ~ 0
MEMREQ*
Connection ~ 5000 1400
Wire Wire Line
	3650 2100 5700 2100
Wire Wire Line
	4100 1950 4100 2100
Connection ~ 4100 2100
Wire Wire Line
	3650 2200 5700 2200
Wire Wire Line
	4550 1950 4550 2600
Connection ~ 4550 2200
Wire Wire Line
	3650 2300 5700 2300
Wire Wire Line
	5000 1950 5000 2300
Connection ~ 5000 2300
Wire Wire Line
	3650 2400 5700 2400
Wire Wire Line
	5450 1950 5450 2400
Connection ~ 5450 2400
Wire Wire Line
	3650 2500 5700 2500
Wire Wire Line
	4550 2600 5700 2600
NoConn ~ 5700 2700
NoConn ~ 6900 2700
$Comp
L GND #PWR092
U 1 1 55BBBE03
P 6300 3050
F 0 "#PWR092" H 6300 3050 30  0001 C CNN
F 1 "GND" H 6300 2980 30  0001 C CNN
F 2 "~" H 6300 3050 60  0000 C CNN
F 3 "~" H 6300 3050 60  0000 C CNN
	1    6300 3050
	1    0    0    -1  
$EndComp
$Comp
L GND #PWR093
U 1 1 55BBBE17
P 7050 2700
F 0 "#PWR093" H 7050 2700 30  0001 C CNN
F 1 "GND" H 7050 2630 30  0001 C CNN
F 2 "~" H 7050 2700 60  0000 C CNN
F 3 "~" H 7050 2700 60  0000 C CNN
	1    7050 2700
	1    0    0    -1  
$EndComp
Wire Wire Line
	6900 2600 7050 2600
Wire Wire Line
	7050 2600 7050 2700
Wire Bus Line
	2050 4600 1850 4600
Text GLabel 1850 4600 0    50   BiDi ~ 0
A[0..15]
Text Label 2150 3000 0    50   ~ 0
A15
Text Label 2150 3100 0    50   ~ 0
A14
Text Label 2150 3200 0    50   ~ 0
A13
Text Label 2150 3300 0    50   ~ 0
A12
Text Label 2150 3400 0    50   ~ 0
A11
Text Label 2150 3500 0    50   ~ 0
A10
Text Label 2150 3600 0    50   ~ 0
A9
Text Label 2150 3700 0    50   ~ 0
A8
Text Label 2150 3800 0    50   ~ 0
A7
Text Label 2150 3900 0    50   ~ 0
A6
Text Label 2150 4000 0    50   ~ 0
A5
Text Label 2150 4100 0    50   ~ 0
A4
Text Label 2150 4200 0    50   ~ 0
A3
Text Label 2150 4300 0    50   ~ 0
A2
Text Label 2150 4400 0    50   ~ 0
A1
Text Label 2150 4500 0    50   ~ 0
A0
Entry Wire Line
	2050 3100 2150 3000
Entry Wire Line
	2050 3200 2150 3100
Entry Wire Line
	2050 3300 2150 3200
Entry Wire Line
	2050 3400 2150 3300
Entry Wire Line
	2050 3500 2150 3400
Entry Wire Line
	2050 3600 2150 3500
Entry Wire Line
	2050 3700 2150 3600
Entry Wire Line
	2050 3800 2150 3700
Text Label 2150 2800 0    50   ~ 0
D0
Text Label 2150 2700 0    50   ~ 0
D1
Text Label 2150 2600 0    50   ~ 0
D2
Text Label 2150 2500 0    50   ~ 0
D3
Text Label 2150 2400 0    50   ~ 0
D4
Text Label 2150 2300 0    50   ~ 0
D5
Text Label 2150 2200 0    50   ~ 0
D6
Text Label 2150 2100 0    50   ~ 0
D7
Wire Wire Line
	2150 2800 2350 2800
Wire Wire Line
	2150 2700 2350 2700
Wire Wire Line
	2150 2600 2350 2600
Wire Wire Line
	2150 2500 2350 2500
Wire Wire Line
	2150 2400 2350 2400
Wire Wire Line
	2150 2300 2350 2300
Wire Wire Line
	2150 2200 2350 2200
Wire Wire Line
	2150 2100 2350 2100
Text GLabel 1850 2900 0    50   BiDi ~ 0
D[0..7]
Entry Wire Line
	2050 3900 2150 3800
Entry Wire Line
	2050 4000 2150 3900
Entry Wire Line
	2050 4100 2150 4000
Entry Wire Line
	2050 4200 2150 4100
Entry Wire Line
	2050 4300 2150 4200
Entry Wire Line
	2050 4400 2150 4300
Entry Wire Line
	2050 4500 2150 4400
Entry Wire Line
	2050 4600 2150 4500
Wire Wire Line
	2150 3000 2350 3000
Wire Wire Line
	2150 3100 2350 3100
Wire Wire Line
	2150 3200 2350 3200
Wire Wire Line
	2150 3300 2350 3300
Wire Wire Line
	2150 3400 2350 3400
Wire Wire Line
	2150 3500 2350 3500
Wire Wire Line
	2150 3600 2350 3600
Wire Wire Line
	2150 3700 2350 3700
Wire Wire Line
	2150 3800 2350 3800
Wire Wire Line
	2150 3900 2350 3900
Wire Wire Line
	2150 4000 2350 4000
Wire Wire Line
	2150 4100 2350 4100
Wire Wire Line
	2150 4200 2350 4200
Wire Wire Line
	2150 4300 2350 4300
Wire Wire Line
	2150 4400 2350 4400
Wire Wire Line
	2150 4500 2350 4500
Entry Wire Line
	2050 2200 2150 2100
Entry Wire Line
	2050 2300 2150 2200
Entry Wire Line
	2050 2400 2150 2300
Entry Wire Line
	2050 2500 2150 2400
Entry Wire Line
	2050 2600 2150 2500
Entry Wire Line
	2050 2700 2150 2600
Entry Wire Line
	2050 2800 2150 2700
Entry Wire Line
	2050 2900 2150 2800
Wire Bus Line
	2050 2200 2050 2900
Wire Bus Line
	2050 2900 1850 2900
Wire Bus Line
	2050 3100 2050 4600
Text Label 6900 2100 0    50   ~ 0
IOREQ-BUFRD*
Text Label 6900 2200 0    50   ~ 0
RD-BUFRD*
Text Label 6900 2300 0    50   ~ 0
WR-BUFRD*
Text Label 6900 2400 0    50   ~ 0
MEMREQ-BUFRD*
Text GLabel 6400 950  2    50   Output ~ 0
IOREQ-BUFRD*
Text GLabel 6400 1100 2    50   Output ~ 0
RD-BUFRD*
Text GLabel 6400 1250 2    50   Output ~ 0
WR-BUFRD*
Text GLabel 6400 1400 2    50   Output ~ 0
MEMREQ-BUFRD*
Text GLabel 3650 3900 2    50   Input ~ 0
BUSREQ*
Text GLabel 3650 4350 2    50   Input ~ 0
NMI*
Text GLabel 3650 4500 2    50   Input ~ 0
CLK
Text GLabel 3650 4050 2    50   Input ~ 0
WAIT*
$Comp
L S80-U49-74LS30 U49
U 1 1 55BC4B3C
P 5550 3850
F 0 "U49" H 5700 4200 50  0000 C CNN
F 1 "74LS30" H 5700 4100 50  0000 C CNN
F 2 "~" H 5550 3850 60  0000 C CNN
F 3 "~" H 5550 3850 60  0000 C CNN
	1    5550 3850
	1    0    0    -1  
$EndComp
Wire Bus Line
	4650 5300 4450 5300
Text GLabel 4450 5300 0    50   BiDi ~ 0
A[0..15]
Text Label 4750 3500 0    50   ~ 0
A7
Text Label 4750 3600 0    50   ~ 0
A6
Text Label 4750 3700 0    50   ~ 0
A5
Text Label 4750 3800 0    50   ~ 0
A4
Text Label 4750 3900 0    50   ~ 0
A3
Entry Wire Line
	4650 3600 4750 3500
Entry Wire Line
	4650 3700 4750 3600
Entry Wire Line
	4650 3800 4750 3700
Entry Wire Line
	4650 3900 4750 3800
Entry Wire Line
	4650 4000 4750 3900
Wire Wire Line
	4750 3500 4950 3500
Wire Wire Line
	4750 3600 4950 3600
Wire Wire Line
	4750 3700 4950 3700
Wire Wire Line
	4750 3800 4950 3800
Wire Wire Line
	4750 3900 4950 3900
Text GLabel 3650 3600 2    50   Output ~ 0
RFSH*
Text GLabel 3650 4200 2    50   Output ~ 0
HALT*
Text GLabel 3650 3750 2    50   Input ~ 0
MRESET*
$Comp
L S80-74LS20 U50
U 1 1 55BC84F5
P 5550 4850
F 0 "U50" H 5650 4550 50  0000 C CNN
F 1 "74LS20" H 5650 4450 50  0000 C CNN
F 2 "~" H 5550 4850 60  0000 C CNN
F 3 "~" H 5550 4850 60  0000 C CNN
	1    5550 4850
	1    0    0    -1  
$EndComp
Text Label 4750 4800 0    50   ~ 0
A7
Text Label 4750 4900 0    50   ~ 0
A6
Text Label 4750 5000 0    50   ~ 0
A5
Entry Wire Line
	4650 4900 4750 4800
Entry Wire Line
	4650 5000 4750 4900
Entry Wire Line
	4650 5100 4750 5000
Wire Wire Line
	4750 4800 4950 4800
Wire Wire Line
	4750 4900 4950 4900
Wire Wire Line
	4750 5000 4950 5000
$Comp
L S80-U48-74LS27 U48
U 1 1 55BCA056
P 6550 4500
F 0 "U48" H 6600 4850 50  0000 C CNN
F 1 "74LS27" H 6600 4750 50  0000 C CNN
F 2 "~" H 6550 4500 60  0000 C CNN
F 3 "~" H 6550 4500 60  0000 C CNN
	1    6550 4500
	-1   0    0    -1  
$EndComp
Wire Wire Line
	4950 4700 4950 4500
Wire Wire Line
	4950 4500 5950 4500
Wire Wire Line
	7150 4350 7600 4350
Wire Wire Line
	7600 4350 7600 2100
Wire Wire Line
	7600 2100 6900 2100
$Comp
L GND #PWR094
U 1 1 55BCA121
P 7250 4750
F 0 "#PWR094" H 7250 4750 30  0001 C CNN
F 1 "GND" H 7250 4680 30  0001 C CNN
F 2 "~" H 7250 4750 60  0000 C CNN
F 3 "~" H 7250 4750 60  0000 C CNN
	1    7250 4750
	1    0    0    -1  
$EndComp
Wire Wire Line
	7250 4500 7250 4750
Wire Wire Line
	7150 4500 7250 4500
Wire Wire Line
	7150 4650 7250 4650
Connection ~ 7250 4650
Text GLabel 6150 4850 2    50   Output ~ 0
DECODEF*
$Comp
L S80-74LS04 U22
U 6 1 55BC4AF9
P 7250 5900
F 0 "U22" H 7300 6200 50  0000 C CNN
F 1 "74LS04" H 7300 6100 50  0000 C CNN
F 2 "~" H 7250 5900 60  0000 C CNN
F 3 "~" H 7250 5900 60  0000 C CNN
	6    7250 5900
	-1   0    0    -1  
$EndComp
Wire Wire Line
	6900 2200 7800 2200
Wire Wire Line
	7800 2200 7800 5900
Wire Wire Line
	7800 5900 7700 5900
$Comp
L R R13
U 1 1 55BC4BDA
P 6700 5550
F 0 "R13" H 6850 5500 50  0000 C CNN
F 1 "330" H 6850 5600 50  0000 C CNN
F 2 "~" H 6700 5550 50  0000 C CNN
F 3 "~" H 6700 5550 60  0000 C CNN
	1    6700 5550
	-1   0    0    1   
$EndComp
$Comp
L R R14
U 1 1 55BC4BE0
P 6250 5900
F 0 "R14" V 6450 5900 50  0000 C CNN
F 1 "33" V 6350 5900 50  0000 C CNN
F 2 "~" H 6250 5900 50  0000 C CNN
F 3 "~" H 6250 5900 60  0000 C CNN
	1    6250 5900
	0    1    -1   0   
$EndComp
$Comp
L +5V #PWR095
U 1 1 55BC4CE0
P 6700 5300
F 0 "#PWR095" H 6705 5390 50  0001 C CNN
F 1 "+5V" H 6700 5390 50  0000 C CNN
F 2 "~" H 6700 5300 50  0000 C CNN
F 3 "~" H 6700 5300 60  0000 C CNN
	1    6700 5300
	1    0    0    -1  
$EndComp
Wire Wire Line
	6500 5900 6800 5900
Wire Wire Line
	6700 5900 6700 5800
Connection ~ 6700 5900
Text GLabel 5850 5900 0    50   Output ~ 0
RAM-WR*
Wire Wire Line
	5850 5900 6000 5900
NoConn ~ 4950 4000
NoConn ~ 4950 4100
NoConn ~ 4950 4200
Wire Wire Line
	3650 3350 8700 3350
Wire Bus Line
	4650 3600 4650 5300
Wire Wire Line
	3650 3200 8700 3200
Wire Wire Line
	6150 3850 8700 3850
$Comp
L S80-Z80-PIO U47
U 1 1 55BD3071
P 9350 3600
F 0 "U47" H 9350 5350 50  0000 C CNN
F 1 "Z80 PIO" H 9350 5250 50  0000 C CNN
F 2 "~" H 9350 3400 60  0000 C CNN
F 3 "~" H 9350 3400 60  0000 C CNN
	1    9350 3600
	1    0    0    -1  
$EndComp
Wire Bus Line
	8450 5200 8250 5200
Text GLabel 8250 5200 0    50   BiDi ~ 0
A[0..15]
Text Label 8550 5000 0    50   ~ 0
A1
Text Label 8550 5100 0    50   ~ 0
A0
Entry Wire Line
	8450 5100 8550 5000
Entry Wire Line
	8450 5200 8550 5100
Wire Bus Line
	8450 5100 8450 5200
Wire Wire Line
	8550 5000 8700 5000
Wire Wire Line
	8550 5100 8700 5100
Text Label 8550 4100 0    50   ~ 0
D0
Text Label 8550 4200 0    50   ~ 0
D1
Text Label 8550 4300 0    50   ~ 0
D2
Text Label 8550 4400 0    50   ~ 0
D3
Text Label 8550 4500 0    50   ~ 0
D4
Text Label 8550 4600 0    50   ~ 0
D5
Text Label 8550 4700 0    50   ~ 0
D6
Text Label 8550 4800 0    50   ~ 0
D7
Text GLabel 8250 4900 0    50   BiDi ~ 0
D[0..7]
Entry Wire Line
	8450 4200 8550 4100
Entry Wire Line
	8450 4300 8550 4200
Entry Wire Line
	8450 4400 8550 4300
Entry Wire Line
	8450 4500 8550 4400
Entry Wire Line
	8450 4600 8550 4500
Entry Wire Line
	8450 4700 8550 4600
Entry Wire Line
	8450 4800 8550 4700
Entry Wire Line
	8450 4900 8550 4800
Wire Bus Line
	8450 4200 8450 4900
Wire Bus Line
	8450 4900 8250 4900
Wire Wire Line
	8550 4100 8700 4100
Wire Wire Line
	8550 4200 8700 4200
Wire Wire Line
	8550 4300 8700 4300
Wire Wire Line
	8550 4400 8700 4400
Wire Wire Line
	8550 4500 8700 4500
Wire Wire Line
	8550 4600 8700 4600
Wire Wire Line
	8550 4700 8700 4700
Wire Wire Line
	8550 4800 8700 4800
Text GLabel 8700 2750 0    50   Input ~ 0
CLK
Text Label 8700 2100 2    50   ~ 0
IOREQ*
Text Label 8700 2200 2    50   ~ 0
RD*
Text GLabel 8700 2600 0    50   Output ~ 0
IEO
NoConn ~ 10000 5100
NoConn ~ 10000 3500
NoConn ~ 10000 3600
NoConn ~ 10000 5000
$Comp
L S80-LINK JP3
U 1 1 55BDAF15
P 10250 2100
F 0 "JP3" H 10250 2300 50  0000 C CNN
F 1 "PRE-LINK" H 10250 2200 50  0000 C CNN
F 2 "~" H 10250 2100 60  0000 C CNN
F 3 "~" H 10250 2100 60  0000 C CNN
	1    10250 2100
	1    0    0    -1  
$EndComp
$Comp
L +5V #PWR096
U 1 1 55BDAF31
P 10650 2000
F 0 "#PWR096" H 10655 2090 50  0001 C CNN
F 1 "+5V" H 10650 2090 50  0000 C CNN
F 2 "~" H 10650 2000 50  0000 C CNN
F 3 "~" H 10650 2000 60  0000 C CNN
	1    10650 2000
	1    0    0    -1  
$EndComp
Wire Wire Line
	10000 2100 10650 2100
Wire Wire Line
	10650 2100 10650 2000
Connection ~ 10500 2100
$Comp
L S80-KEYSW-A KEY43
U 1 1 55BDF107
P 11800 1800
F 0 "KEY43" H 11800 2000 50  0001 C CNN
F 1 "S80-KEYSW-A" H 11800 1900 50  0001 C CNN
F 2 "~" V 11600 1750 50  0000 C CNN
F 3 "~" V 11600 1750 60  0000 C CNN
	1    11800 1800
	1    0    0    -1  
$EndComp
$Comp
L S80-KEYSW-A KEY38
U 1 1 55BDF114
P 12200 1800
F 0 "KEY38" H 12200 2000 50  0001 C CNN
F 1 "S80-KEYSW-A" H 12200 1900 50  0001 C CNN
F 2 "~" V 12000 1750 50  0000 C CNN
F 3 "~" V 12000 1750 60  0000 C CNN
	1    12200 1800
	1    0    0    -1  
$EndComp
$Comp
L S80-KEYSW-A KEY26
U 1 1 55BDF11A
P 12600 1800
F 0 "KEY26" H 12600 2000 50  0001 C CNN
F 1 "S80-KEYSW-A" H 12600 1900 50  0001 C CNN
F 2 "~" V 12400 1750 50  0000 C CNN
F 3 "~" V 12400 1750 60  0000 C CNN
	1    12600 1800
	1    0    0    -1  
$EndComp
$Comp
L S80-KEYSW-A KEY49
U 1 1 55BDF17D
P 13000 1800
F 0 "KEY49" H 13000 2000 50  0001 C CNN
F 1 "S80-KEYSW-A" H 13000 1900 50  0001 C CNN
F 2 "~" V 12800 1750 50  0000 C CNN
F 3 "~" V 12800 1750 60  0000 C CNN
	1    13000 1800
	1    0    0    -1  
$EndComp
$Comp
L S80-KEYSW-A KEY2
U 1 1 55BDF183
P 13400 1800
F 0 "KEY2" H 13400 2000 50  0001 C CNN
F 1 "S80-KEYSW-A" H 13400 1900 50  0001 C CNN
F 2 "~" V 13200 1750 50  0000 C CNN
F 3 "~" V 13200 1750 60  0000 C CNN
	1    13400 1800
	1    0    0    -1  
$EndComp
$Comp
L S80-KEYSW-A KEY10
U 1 1 55BDF189
P 13800 1800
F 0 "KEY10" H 13800 2000 50  0001 C CNN
F 1 "S80-KEYSW-A" H 13800 1900 50  0001 C CNN
F 2 "~" V 13600 1750 50  0000 C CNN
F 3 "~" V 13600 1750 60  0000 C CNN
	1    13800 1800
	1    0    0    -1  
$EndComp
$Comp
L S80-KEYSW-A KEY60
U 1 1 55BDF18F
P 14200 1800
F 0 "KEY60" H 14200 2000 50  0001 C CNN
F 1 "S80-KEYSW-A" H 14200 1900 50  0001 C CNN
F 2 "~" V 14000 1750 50  0000 C CNN
F 3 "~" V 14000 1750 60  0000 C CNN
	1    14200 1800
	1    0    0    -1  
$EndComp
$Comp
L S80-KEYSW-B KEY59
U 1 1 55BDF197
P 14650 1800
F 0 "KEY59" H 14650 2000 50  0001 C CNN
F 1 "S80-KEYSW-B" H 14650 1900 50  0001 C CNN
F 2 "~" V 14450 1750 50  0000 C CNN
F 3 "~" V 14450 1750 60  0000 C CNN
	1    14650 1800
	1    0    0    -1  
$EndComp
$Comp
L S80-KEYSW-A KEY33
U 1 1 55BDF1A4
P 11800 2100
F 0 "KEY33" H 11800 2300 50  0001 C CNN
F 1 "S80-KEYSW-A" H 11800 2200 50  0001 C CNN
F 2 "~" V 11600 2050 50  0000 C CNN
F 3 "~" V 11600 2050 60  0000 C CNN
	1    11800 2100
	1    0    0    -1  
$EndComp
$Comp
L S80-KEYSW-A KEY24
U 1 1 55BDF1AA
P 12200 2100
F 0 "KEY24" H 12200 2300 50  0001 C CNN
F 1 "S80-KEYSW-A" H 12200 2200 50  0001 C CNN
F 2 "~" V 12000 2050 50  0000 C CNN
F 3 "~" V 12000 2050 60  0000 C CNN
	1    12200 2100
	1    0    0    -1  
$EndComp
$Comp
L S80-KEYSW-A KEY17
U 1 1 55BDF1B0
P 12600 2100
F 0 "KEY17" H 12600 2300 50  0001 C CNN
F 1 "S80-KEYSW-A" H 12600 2200 50  0001 C CNN
F 2 "~" V 12400 2050 50  0000 C CNN
F 3 "~" V 12400 2050 60  0000 C CNN
	1    12600 2100
	1    0    0    -1  
$EndComp
$Comp
L S80-KEYSW-A KEY22
U 1 1 55BDF1B6
P 13000 2100
F 0 "KEY22" H 13000 2300 50  0001 C CNN
F 1 "S80-KEYSW-A" H 13000 2200 50  0001 C CNN
F 2 "~" V 12800 2050 50  0000 C CNN
F 3 "~" V 12800 2050 60  0000 C CNN
	1    13000 2100
	1    0    0    -1  
$EndComp
$Comp
L S80-KEYSW-A KEY3
U 1 1 55BDF1BC
P 13400 2100
F 0 "KEY3" H 13400 2300 50  0001 C CNN
F 1 "S80-KEYSW-A" H 13400 2200 50  0001 C CNN
F 2 "~" V 13200 2050 50  0000 C CNN
F 3 "~" V 13200 2050 60  0000 C CNN
	1    13400 2100
	1    0    0    -1  
$EndComp
$Comp
L S80-KEYSW-A KEY12
U 1 1 55BDF1C2
P 13800 2100
F 0 "KEY12" H 13800 2300 50  0001 C CNN
F 1 "S80-KEYSW-A" H 13800 2200 50  0001 C CNN
F 2 "~" V 13600 2050 50  0000 C CNN
F 3 "~" V 13600 2050 60  0000 C CNN
	1    13800 2100
	1    0    0    -1  
$EndComp
$Comp
L S80-KEYSW-A KEY15
U 1 1 55BDF1C8
P 14200 2100
F 0 "KEY15" H 14200 2300 50  0001 C CNN
F 1 "S80-KEYSW-A" H 14200 2200 50  0001 C CNN
F 2 "~" V 14000 2050 50  0000 C CNN
F 3 "~" V 14000 2050 60  0000 C CNN
	1    14200 2100
	1    0    0    -1  
$EndComp
$Comp
L S80-KEYSW-B KEY47
U 1 1 55BDF1CE
P 14650 2100
F 0 "KEY47" H 14650 2300 50  0001 C CNN
F 1 "S80-KEYSW-B" H 14650 2200 50  0001 C CNN
F 2 "~" V 14450 2050 50  0000 C CNN
F 3 "~" V 14450 2050 60  0000 C CNN
	1    14650 2100
	1    0    0    -1  
$EndComp
$Comp
L S80-KEYSW-A KEY52
U 1 1 55BDF1D4
P 11800 2400
F 0 "KEY52" H 11800 2600 50  0001 C CNN
F 1 "S80-KEYSW-A" H 11800 2500 50  0001 C CNN
F 2 "~" V 11600 2350 50  0000 C CNN
F 3 "~" V 11600 2350 60  0000 C CNN
	1    11800 2400
	1    0    0    -1  
$EndComp
$Comp
L S80-KEYSW-A KEY39
U 1 1 55BDF1DA
P 12200 2400
F 0 "KEY39" H 12200 2600 50  0001 C CNN
F 1 "S80-KEYSW-A" H 12200 2500 50  0001 C CNN
F 2 "~" V 12000 2350 50  0000 C CNN
F 3 "~" V 12000 2350 60  0000 C CNN
	1    12200 2400
	1    0    0    -1  
$EndComp
$Comp
L S80-KEYSW-A KEY20
U 1 1 55BDF1E0
P 12600 2400
F 0 "KEY20" H 12600 2600 50  0001 C CNN
F 1 "S80-KEYSW-A" H 12600 2500 50  0001 C CNN
F 2 "~" V 12400 2350 50  0000 C CNN
F 3 "~" V 12400 2350 60  0000 C CNN
	1    12600 2400
	1    0    0    -1  
$EndComp
$Comp
L S80-KEYSW-A KEY48
U 1 1 55BDF1E6
P 13000 2400
F 0 "KEY48" H 13000 2600 50  0001 C CNN
F 1 "S80-KEYSW-A" H 13000 2500 50  0001 C CNN
F 2 "~" V 12800 2350 50  0000 C CNN
F 3 "~" V 12800 2350 60  0000 C CNN
	1    13000 2400
	1    0    0    -1  
$EndComp
$Comp
L S80-KEYSW-A KEY4
U 1 1 55BDF1EC
P 13400 2400
F 0 "KEY4" H 13400 2600 50  0001 C CNN
F 1 "S80-KEYSW-A" H 13400 2500 50  0001 C CNN
F 2 "~" V 13200 2350 50  0000 C CNN
F 3 "~" V 13200 2350 60  0000 C CNN
	1    13400 2400
	1    0    0    -1  
$EndComp
$Comp
L S80-KEYSW-A KEY42
U 1 1 55BDF1F2
P 13800 2400
F 0 "KEY42" H 13800 2600 50  0001 C CNN
F 1 "S80-KEYSW-A" H 13800 2500 50  0001 C CNN
F 2 "~" V 13600 2350 50  0000 C CNN
F 3 "~" V 13600 2350 60  0000 C CNN
	1    13800 2400
	1    0    0    -1  
$EndComp
$Comp
L S80-KEYSW-A KEY16
U 1 1 55BDF1F8
P 14200 2400
F 0 "KEY16" H 14200 2600 50  0001 C CNN
F 1 "S80-KEYSW-A" H 14200 2500 50  0001 C CNN
F 2 "~" V 14000 2350 50  0000 C CNN
F 3 "~" V 14000 2350 60  0000 C CNN
	1    14200 2400
	1    0    0    -1  
$EndComp
$Comp
L S80-KEYSW-B KEY58
U 1 1 55BDF1FE
P 14875 5600
F 0 "KEY58" H 14875 5800 50  0001 C CNN
F 1 "S80-KEYSW-B" H 14875 5700 50  0001 C CNN
F 2 "~" V 14675 5550 50  0000 C CNN
F 3 "~" V 14675 5550 60  0000 C CNN
	1    14875 5600
	1    0    0    -1  
$EndComp
$Comp
L S80-KEYSW-A KEY50
U 1 1 55BDF204
P 11800 2700
F 0 "KEY50" H 11800 2900 50  0001 C CNN
F 1 "S80-KEYSW-A" H 11800 2800 50  0001 C CNN
F 2 "~" V 11600 2650 50  0000 C CNN
F 3 "~" V 11600 2650 60  0000 C CNN
	1    11800 2700
	1    0    0    -1  
$EndComp
$Comp
L S80-KEYSW-A KEY40
U 1 1 55BDF20A
P 12200 2700
F 0 "KEY40" H 12200 2900 50  0001 C CNN
F 1 "S80-KEYSW-A" H 12200 2800 50  0001 C CNN
F 2 "~" V 12000 2650 50  0000 C CNN
F 3 "~" V 12000 2650 60  0000 C CNN
	1    12200 2700
	1    0    0    -1  
$EndComp
$Comp
L S80-KEYSW-A KEY34
U 1 1 55BDF210
P 12600 2700
F 0 "KEY34" H 12600 2900 50  0001 C CNN
F 1 "S80-KEYSW-A" H 12600 2800 50  0001 C CNN
F 2 "~" V 12400 2650 50  0000 C CNN
F 3 "~" V 12400 2650 60  0000 C CNN
	1    12600 2700
	1    0    0    -1  
$EndComp
$Comp
L S80-KEYSW-A KEY27
U 1 1 55BDF216
P 13000 2700
F 0 "KEY27" H 13000 2900 50  0001 C CNN
F 1 "S80-KEYSW-A" H 13000 2800 50  0001 C CNN
F 2 "~" V 12800 2650 50  0000 C CNN
F 3 "~" V 12800 2650 60  0000 C CNN
	1    13000 2700
	1    0    0    -1  
$EndComp
$Comp
L S80-KEYSW-A KEY5
U 1 1 55BDF21C
P 13400 2700
F 0 "KEY5" H 13400 2900 50  0001 C CNN
F 1 "S80-KEYSW-A" H 13400 2800 50  0001 C CNN
F 2 "~" V 13200 2650 50  0000 C CNN
F 3 "~" V 13200 2650 60  0000 C CNN
	1    13400 2700
	1    0    0    -1  
$EndComp
$Comp
L S80-KEYSW-A KEY55
U 1 1 55BDF222
P 13800 2700
F 0 "KEY55" H 13800 2900 50  0001 C CNN
F 1 "S80-KEYSW-A" H 13800 2800 50  0001 C CNN
F 2 "~" V 13600 2650 50  0000 C CNN
F 3 "~" V 13600 2650 60  0000 C CNN
	1    13800 2700
	1    0    0    -1  
$EndComp
$Comp
L S80-KEYSW-A KEY29
U 1 1 55BDF228
P 14200 2700
F 0 "KEY29" H 14200 2900 50  0001 C CNN
F 1 "S80-KEYSW-A" H 14200 2800 50  0001 C CNN
F 2 "~" V 14000 2650 50  0000 C CNN
F 3 "~" V 14000 2650 60  0000 C CNN
	1    14200 2700
	1    0    0    -1  
$EndComp
$Comp
L S80-KEYSW-B KEY31
U 1 1 55BDF22E
P 14650 2700
F 0 "KEY31" H 14650 2900 50  0001 C CNN
F 1 "S80-KEYSW-B" H 14650 2800 50  0001 C CNN
F 2 "~" V 14450 2650 50  0000 C CNN
F 3 "~" V 14450 2650 60  0000 C CNN
	1    14650 2700
	1    0    0    -1  
$EndComp
$Comp
L S80-KEYSW-A KEY35
U 1 1 55BDF234
P 11800 3000
F 0 "KEY35" H 11800 3200 50  0001 C CNN
F 1 "S80-KEYSW-A" H 11800 3100 50  0001 C CNN
F 2 "~" V 11600 2950 50  0000 C CNN
F 3 "~" V 11600 2950 60  0000 C CNN
	1    11800 3000
	1    0    0    -1  
$EndComp
$Comp
L S80-KEYSW-A KEY41
U 1 1 55BDF23A
P 12200 3000
F 0 "KEY41" H 12200 3200 50  0001 C CNN
F 1 "S80-KEYSW-A" H 12200 3100 50  0001 C CNN
F 2 "~" V 12000 2950 50  0000 C CNN
F 3 "~" V 12000 2950 60  0000 C CNN
	1    12200 3000
	1    0    0    -1  
$EndComp
$Comp
L S80-KEYSW-A KEY21
U 1 1 55BDF240
P 12600 3000
F 0 "KEY21" H 12600 3200 50  0001 C CNN
F 1 "S80-KEYSW-A" H 12600 3100 50  0001 C CNN
F 2 "~" V 12400 2950 50  0000 C CNN
F 3 "~" V 12400 2950 60  0000 C CNN
	1    12600 3000
	1    0    0    -1  
$EndComp
$Comp
L S80-KEYSW-A KEY44
U 1 1 55BDF246
P 13000 3000
F 0 "KEY44" H 13000 3200 50  0001 C CNN
F 1 "S80-KEYSW-A" H 13000 3100 50  0001 C CNN
F 2 "~" V 12800 2950 50  0000 C CNN
F 3 "~" V 12800 2950 60  0000 C CNN
	1    13000 3000
	1    0    0    -1  
$EndComp
$Comp
L S80-KEYSW-A KEY6
U 1 1 55BDF24C
P 13400 3000
F 0 "KEY6" H 13400 3200 50  0001 C CNN
F 1 "S80-KEYSW-A" H 13400 3100 50  0001 C CNN
F 2 "~" V 13200 2950 50  0000 C CNN
F 3 "~" V 13200 2950 60  0000 C CNN
	1    13400 3000
	1    0    0    -1  
$EndComp
$Comp
L S80-KEYSW-A KEY46
U 1 1 55BDF252
P 13800 3000
F 0 "KEY46" H 13800 3200 50  0001 C CNN
F 1 "S80-KEYSW-A" H 13800 3100 50  0001 C CNN
F 2 "~" V 13600 2950 50  0000 C CNN
F 3 "~" V 13600 2950 60  0000 C CNN
	1    13800 3000
	1    0    0    -1  
$EndComp
$Comp
L S80-KEYSW-A KEY30
U 1 1 55BDF258
P 14200 3000
F 0 "KEY30" H 14200 3200 50  0001 C CNN
F 1 "S80-KEYSW-A" H 14200 3100 50  0001 C CNN
F 2 "~" V 14000 2950 50  0000 C CNN
F 3 "~" V 14000 2950 60  0000 C CNN
	1    14200 3000
	1    0    0    -1  
$EndComp
$Comp
L S80-KEYSW-A KEY19
U 1 1 55BDF264
P 11800 3300
F 0 "KEY19" H 11800 3500 50  0001 C CNN
F 1 "S80-KEYSW-A" H 11800 3400 50  0001 C CNN
F 2 "~" V 11600 3250 50  0000 C CNN
F 3 "~" V 11600 3250 60  0000 C CNN
	1    11800 3300
	1    0    0    -1  
$EndComp
$Comp
L S80-KEYSW-A KEY54
U 1 1 55BDF26A
P 12200 3300
F 0 "KEY54" H 12200 3500 50  0001 C CNN
F 1 "S80-KEYSW-A" H 12200 3400 50  0001 C CNN
F 2 "~" V 12000 3250 50  0000 C CNN
F 3 "~" V 12000 3250 60  0000 C CNN
	1    12200 3300
	1    0    0    -1  
$EndComp
$Comp
L S80-KEYSW-A KEY23
U 1 1 55BDF270
P 12600 3300
F 0 "KEY23" H 12600 3500 50  0001 C CNN
F 1 "S80-KEYSW-A" H 12600 3400 50  0001 C CNN
F 2 "~" V 12400 3250 50  0000 C CNN
F 3 "~" V 12400 3250 60  0000 C CNN
	1    12600 3300
	1    0    0    -1  
$EndComp
$Comp
L S80-KEYSW-A KEY28
U 1 1 55BDF276
P 13000 3300
F 0 "KEY28" H 13000 3500 50  0001 C CNN
F 1 "S80-KEYSW-A" H 13000 3400 50  0001 C CNN
F 2 "~" V 12800 3250 50  0000 C CNN
F 3 "~" V 12800 3250 60  0000 C CNN
	1    13000 3300
	1    0    0    -1  
$EndComp
$Comp
L S80-KEYSW-A KEY7
U 1 1 55BDF27C
P 13400 3300
F 0 "KEY7" H 13400 3500 50  0001 C CNN
F 1 "S80-KEYSW-A" H 13400 3400 50  0001 C CNN
F 2 "~" V 13200 3250 50  0000 C CNN
F 3 "~" V 13200 3250 60  0000 C CNN
	1    13400 3300
	1    0    0    -1  
$EndComp
$Comp
L S80-KEYSW-A KEY56
U 1 1 55BDF282
P 13800 3300
F 0 "KEY56" H 13800 3500 50  0001 C CNN
F 1 "S80-KEYSW-A" H 13800 3400 50  0001 C CNN
F 2 "~" V 13600 3250 50  0000 C CNN
F 3 "~" V 13600 3250 60  0000 C CNN
	1    13800 3300
	1    0    0    -1  
$EndComp
$Comp
L S80-KEYSW-A KEY1
U 1 1 55BDF288
P 14200 3300
F 0 "KEY1" H 14200 3500 50  0001 C CNN
F 1 "S80-KEYSW-A" H 14200 3400 50  0001 C CNN
F 2 "~" V 14000 3250 50  0000 C CNN
F 3 "~" V 14000 3250 60  0000 C CNN
	1    14200 3300
	1    0    0    -1  
$EndComp
$Comp
L S80-KEYSW-A KEY36
U 1 1 55BDF294
P 11800 3600
F 0 "KEY36" H 11800 3800 50  0001 C CNN
F 1 "S80-KEYSW-A" H 11800 3700 50  0001 C CNN
F 2 "~" V 11600 3550 50  0000 C CNN
F 3 "~" V 11600 3550 60  0000 C CNN
	1    11800 3600
	1    0    0    -1  
$EndComp
$Comp
L S80-KEYSW-A KEY53
U 1 1 55BDF29A
P 12200 3600
F 0 "KEY53" H 12200 3800 50  0001 C CNN
F 1 "S80-KEYSW-A" H 12200 3700 50  0001 C CNN
F 2 "~" V 12000 3550 50  0000 C CNN
F 3 "~" V 12000 3550 60  0000 C CNN
	1    12200 3600
	1    0    0    -1  
$EndComp
$Comp
L S80-KEYSW-A KEY51
U 1 1 55BDF2A0
P 12600 3600
F 0 "KEY51" H 12600 3800 50  0001 C CNN
F 1 "S80-KEYSW-A" H 12600 3700 50  0001 C CNN
F 2 "~" V 12400 3550 50  0000 C CNN
F 3 "~" V 12400 3550 60  0000 C CNN
	1    12600 3600
	1    0    0    -1  
$EndComp
$Comp
L S80-KEYSW-A KEY14
U 1 1 55BDF2A6
P 13000 3600
F 0 "KEY14" H 13000 3800 50  0001 C CNN
F 1 "S80-KEYSW-A" H 13000 3700 50  0001 C CNN
F 2 "~" V 12800 3550 50  0000 C CNN
F 3 "~" V 12800 3550 60  0000 C CNN
	1    13000 3600
	1    0    0    -1  
$EndComp
$Comp
L S80-KEYSW-A KEY8
U 1 1 55BDF2AC
P 13400 3600
F 0 "KEY8" H 13400 3800 50  0001 C CNN
F 1 "S80-KEYSW-A" H 13400 3700 50  0001 C CNN
F 2 "~" V 13200 3550 50  0000 C CNN
F 3 "~" V 13200 3550 60  0000 C CNN
	1    13400 3600
	1    0    0    -1  
$EndComp
$Comp
L S80-KEYSW-A KEY57
U 1 1 55BDF2B2
P 13800 3600
F 0 "KEY57" H 13800 3800 50  0001 C CNN
F 1 "S80-KEYSW-A" H 13800 3700 50  0001 C CNN
F 2 "~" V 13600 3550 50  0000 C CNN
F 3 "~" V 13600 3550 60  0000 C CNN
	1    13800 3600
	1    0    0    -1  
$EndComp
$Comp
L S80-KEYSW-A KEY45
U 1 1 55BDF2B8
P 14200 3600
F 0 "KEY45" H 14200 3800 50  0001 C CNN
F 1 "S80-KEYSW-A" H 14200 3700 50  0001 C CNN
F 2 "~" V 14000 3550 50  0000 C CNN
F 3 "~" V 14000 3550 60  0000 C CNN
	1    14200 3600
	1    0    0    -1  
$EndComp
$Comp
L S80-KEYSW-A KEY37
U 1 1 55BDF2C4
P 11800 3900
F 0 "KEY37" H 11800 4100 50  0001 C CNN
F 1 "S80-KEYSW-A" H 11800 4000 50  0001 C CNN
F 2 "~" V 11600 3850 50  0000 C CNN
F 3 "~" V 11600 3850 60  0000 C CNN
	1    11800 3900
	1    0    0    -1  
$EndComp
$Comp
L S80-KEYSW-A KEY25
U 1 1 55BDF2CA
P 12200 3900
F 0 "KEY25" H 12200 4100 50  0001 C CNN
F 1 "S80-KEYSW-A" H 12200 4000 50  0001 C CNN
F 2 "~" V 12000 3850 50  0000 C CNN
F 3 "~" V 12000 3850 60  0000 C CNN
	1    12200 3900
	1    0    0    -1  
$EndComp
$Comp
L S80-KEYSW-A KEY18
U 1 1 55BDF2D0
P 12600 3900
F 0 "KEY18" H 12600 4100 50  0001 C CNN
F 1 "S80-KEYSW-A" H 12600 4000 50  0001 C CNN
F 2 "~" V 12400 3850 50  0000 C CNN
F 3 "~" V 12400 3850 60  0000 C CNN
	1    12600 3900
	1    0    0    -1  
$EndComp
$Comp
L S80-KEYSW-A KEY13
U 1 1 55BDF2D6
P 13000 3900
F 0 "KEY13" H 13000 4100 50  0001 C CNN
F 1 "S80-KEYSW-A" H 13000 4000 50  0001 C CNN
F 2 "~" V 12800 3850 50  0000 C CNN
F 3 "~" V 12800 3850 60  0000 C CNN
	1    13000 3900
	1    0    0    -1  
$EndComp
$Comp
L S80-KEYSW-A KEY9
U 1 1 55BDF2DC
P 13400 3900
F 0 "KEY9" H 13400 4100 50  0001 C CNN
F 1 "S80-KEYSW-A" H 13400 4000 50  0001 C CNN
F 2 "~" V 13200 3850 50  0000 C CNN
F 3 "~" V 13200 3850 60  0000 C CNN
	1    13400 3900
	1    0    0    -1  
$EndComp
$Comp
L S80-KEYSW-A KEY11
U 1 1 55BDF2E2
P 13800 3900
F 0 "KEY11" H 13800 4100 50  0001 C CNN
F 1 "S80-KEYSW-A" H 13800 4000 50  0001 C CNN
F 2 "~" V 13600 3850 50  0000 C CNN
F 3 "~" V 13600 3850 60  0000 C CNN
	1    13800 3900
	1    0    0    -1  
$EndComp
$Comp
L S80-KEYSW-A KEY32
U 1 1 55BDF2E8
P 14200 3900
F 0 "KEY32" H 14200 4100 50  0001 C CNN
F 1 "S80-KEYSW-A" H 14200 4000 50  0001 C CNN
F 2 "~" V 14000 3850 50  0000 C CNN
F 3 "~" V 14000 3850 60  0000 C CNN
	1    14200 3900
	1    0    0    -1  
$EndComp
Wire Wire Line
	10000 3300 10950 3300
Wire Wire Line
	10950 3900 14200 3900
Connection ~ 11800 3900
Connection ~ 12200 3900
Connection ~ 12600 3900
Connection ~ 13000 3900
Connection ~ 13400 3900
Connection ~ 13800 3900
Wire Wire Line
	11050 3600 14200 3600
Connection ~ 13800 3600
Connection ~ 13400 3600
Connection ~ 13000 3600
Connection ~ 12600 3600
Connection ~ 12200 3600
Wire Wire Line
	10000 3200 11050 3200
Connection ~ 11800 3600
Wire Wire Line
	10000 3100 11150 3100
Wire Wire Line
	11150 3300 14200 3300
Connection ~ 11800 3300
Connection ~ 12200 3300
Connection ~ 12600 3300
Connection ~ 13000 3300
Connection ~ 13400 3300
Connection ~ 13800 3300
Wire Wire Line
	10000 3000 14200 3000
Connection ~ 11800 3000
Connection ~ 12200 3000
Connection ~ 12600 3000
Connection ~ 13000 3000
Connection ~ 13400 3000
Connection ~ 13800 3000
Wire Wire Line
	11150 2700 14650 2700
Connection ~ 14200 2700
Connection ~ 13800 2700
Connection ~ 13400 2700
Connection ~ 13000 2700
Connection ~ 12600 2700
Connection ~ 12200 2700
Wire Wire Line
	10000 2600 10850 2600
Wire Wire Line
	10850 2600 10850 1800
Wire Wire Line
	10850 1800 14650 1800
Wire Wire Line
	10000 2700 10950 2700
Wire Wire Line
	10950 2700 10950 2100
Wire Wire Line
	10000 2800 11050 2800
Wire Wire Line
	10000 2900 11150 2900
Wire Wire Line
	11150 2900 11150 2700
Connection ~ 11800 2700
Connection ~ 12200 2400
Connection ~ 12600 2400
Connection ~ 13000 2400
Connection ~ 13400 2400
Connection ~ 13800 2400
Connection ~ 11800 2100
Connection ~ 12200 2100
Connection ~ 12600 2100
Connection ~ 13000 2100
Connection ~ 13400 2100
Connection ~ 13800 2100
Connection ~ 14200 2100
Connection ~ 11800 1800
Connection ~ 12200 1800
Connection ~ 12600 1800
Connection ~ 13000 1800
Connection ~ 13400 1800
Connection ~ 13800 1800
Connection ~ 14200 1800
Wire Wire Line
	12000 4100 10000 4100
Wire Wire Line
	12000 1500 12000 4100
Connection ~ 12000 3750
Connection ~ 12000 3450
Connection ~ 12000 3150
Connection ~ 12000 2850
Connection ~ 12000 2550
Connection ~ 12000 2250
Connection ~ 12000 1950
Wire Wire Line
	12400 4200 10000 4200
Wire Wire Line
	12400 1500 12400 4200
Connection ~ 12400 3750
Connection ~ 12400 3450
Connection ~ 12400 3150
Connection ~ 12400 2850
Connection ~ 12400 2550
Connection ~ 12400 2250
Connection ~ 12400 1950
Wire Wire Line
	12800 1500 12800 4300
Connection ~ 12800 1950
Connection ~ 12800 2250
Connection ~ 12800 2550
Connection ~ 12800 2850
Connection ~ 12800 3150
Connection ~ 12800 3450
Wire Wire Line
	12800 4300 10000 4300
Connection ~ 12800 3750
Wire Wire Line
	13200 4400 10000 4400
Wire Wire Line
	13200 1500 13200 4400
Connection ~ 13200 3750
Connection ~ 13200 3450
Connection ~ 13200 3150
Connection ~ 13200 2850
Connection ~ 13200 2550
Connection ~ 13200 2250
Connection ~ 13200 1950
Wire Wire Line
	13600 4500 10000 4500
Wire Wire Line
	13600 1500 13600 4500
Connection ~ 13600 3750
Connection ~ 13600 3450
Connection ~ 13600 3150
Connection ~ 13600 2850
Connection ~ 13600 2550
Connection ~ 13600 2250
Connection ~ 13600 1950
Wire Wire Line
	14000 4600 10000 4600
Wire Wire Line
	14000 1500 14000 4600
Connection ~ 14000 3750
Connection ~ 14000 3450
Connection ~ 14000 3150
Connection ~ 14000 2850
Connection ~ 14000 2550
Connection ~ 14000 2250
Connection ~ 14000 1950
Wire Wire Line
	14400 4700 10000 4700
Wire Wire Line
	14400 1500 14400 4700
Connection ~ 14400 3750
Connection ~ 14400 3450
Connection ~ 14400 3150
Connection ~ 14400 2850
Connection ~ 14400 2550
Connection ~ 14400 2250
Connection ~ 14400 1950
Wire Wire Line
	14900 4800 10000 4800
Wire Wire Line
	14900 1500 14900 4800
Connection ~ 14900 2550
Connection ~ 14900 1950
Wire Wire Line
	11150 3100 11150 3300
Wire Wire Line
	11050 3200 11050 3600
Wire Wire Line
	10950 3300 10950 3900
Text Label 10000 2600 0    50   ~ 0
PA0
Text Label 10000 2700 0    50   ~ 0
PA1
Text Label 10000 2800 0    50   ~ 0
PA2
Text Label 10000 2900 0    50   ~ 0
PA3
Text Label 10000 3000 0    50   ~ 0
PA4
Text Label 10000 3100 0    50   ~ 0
PA5
Text Label 10000 3200 0    50   ~ 0
PA6
Text Label 10000 3300 0    50   ~ 0
PA7
Text Label 10000 4100 0    50   ~ 0
PB0
Text Label 10000 4200 0    50   ~ 0
PB1
Text Label 10000 4300 0    50   ~ 0
PB2
Text Label 10000 4400 0    50   ~ 0
PB3
Text Label 10000 4500 0    50   ~ 0
PB4
Text Label 10000 4600 0    50   ~ 0
PB5
Text Label 10000 4700 0    50   ~ 0
PB6
Text Label 10000 4800 0    50   ~ 0
PB7
$Comp
L R R63
U 1 1 55BE6309
P 12000 1250
F 0 "R63" H 12150 1200 50  0000 C CNN
F 1 "4.7K" H 12150 1300 50  0000 C CNN
F 2 "~" H 12000 1250 50  0000 C CNN
F 3 "~" H 12000 1250 60  0000 C CNN
	1    12000 1250
	-1   0    0    1   
$EndComp
$Comp
L R R56
U 1 1 55BE630F
P 12400 1250
F 0 "R56" H 12550 1200 50  0000 C CNN
F 1 "4.7K" H 12550 1300 50  0000 C CNN
F 2 "~" H 12400 1250 50  0000 C CNN
F 3 "~" H 12400 1250 60  0000 C CNN
	1    12400 1250
	-1   0    0    1   
$EndComp
$Comp
L R R57
U 1 1 55BE6315
P 12800 1250
F 0 "R57" H 12950 1200 50  0000 C CNN
F 1 "4.7K" H 12950 1300 50  0000 C CNN
F 2 "~" H 12800 1250 50  0000 C CNN
F 3 "~" H 12800 1250 60  0000 C CNN
	1    12800 1250
	-1   0    0    1   
$EndComp
$Comp
L +5V #PWR097
U 1 1 55BE631B
P 12000 850
F 0 "#PWR097" H 12005 940 50  0001 C CNN
F 1 "+5V" H 12000 940 50  0000 C CNN
F 2 "~" H 12000 850 50  0000 C CNN
F 3 "~" H 12000 850 60  0000 C CNN
	1    12000 850 
	1    0    0    -1  
$EndComp
Wire Wire Line
	12000 850  12000 1000
Connection ~ 12000 950 
$Comp
L R R58
U 1 1 55BE6327
P 13200 1250
F 0 "R58" H 13350 1200 50  0000 C CNN
F 1 "4.7K" H 13350 1300 50  0000 C CNN
F 2 "~" H 13200 1250 50  0000 C CNN
F 3 "~" H 13200 1250 60  0000 C CNN
	1    13200 1250
	-1   0    0    1   
$EndComp
$Comp
L R R59
U 1 1 55BE636B
P 13600 1250
F 0 "R59" H 13750 1200 50  0000 C CNN
F 1 "4.7K" H 13750 1300 50  0000 C CNN
F 2 "~" H 13600 1250 50  0000 C CNN
F 3 "~" H 13600 1250 60  0000 C CNN
	1    13600 1250
	-1   0    0    1   
$EndComp
$Comp
L R R60
U 1 1 55BE6371
P 14000 1250
F 0 "R60" H 14150 1200 50  0000 C CNN
F 1 "4.7K" H 14150 1300 50  0000 C CNN
F 2 "~" H 14000 1250 50  0000 C CNN
F 3 "~" H 14000 1250 60  0000 C CNN
	1    14000 1250
	-1   0    0    1   
$EndComp
$Comp
L R R61
U 1 1 55BE6377
P 14400 1250
F 0 "R61" H 14550 1200 50  0000 C CNN
F 1 "4.7K" H 14550 1300 50  0000 C CNN
F 2 "~" H 14400 1250 50  0000 C CNN
F 3 "~" H 14400 1250 60  0000 C CNN
	1    14400 1250
	-1   0    0    1   
$EndComp
$Comp
L R R62
U 1 1 55BE637D
P 14900 1250
F 0 "R62" H 15050 1200 50  0000 C CNN
F 1 "4.7K" H 15050 1300 50  0000 C CNN
F 2 "~" H 14900 1250 50  0000 C CNN
F 3 "~" H 14900 1250 60  0000 C CNN
	1    14900 1250
	-1   0    0    1   
$EndComp
Connection ~ 12000 1650
Connection ~ 12400 1650
Connection ~ 12800 1650
Connection ~ 13200 1650
Connection ~ 13600 1650
Connection ~ 14000 1650
Connection ~ 14400 1650
Connection ~ 14900 1650
Wire Wire Line
	12000 950  14900 950 
Wire Wire Line
	12400 950  12400 1000
Wire Wire Line
	12800 950  12800 1000
Connection ~ 12400 950 
Wire Wire Line
	13200 950  13200 1000
Connection ~ 12800 950 
Wire Wire Line
	13600 950  13600 1000
Connection ~ 13200 950 
Wire Wire Line
	14000 950  14000 1000
Connection ~ 13600 950 
Wire Wire Line
	14400 950  14400 1000
Connection ~ 14000 950 
Wire Wire Line
	14900 950  14900 1000
Connection ~ 14400 950 
Text Notes 11730 1700 0    100  ~ 0
@
Text Notes 12140 1720 0    100  ~ 0
H
Text Notes 12550 1720 0    100  ~ 0
P
Text Notes 12950 1720 0    100  ~ 0
X
Text Notes 13350 1720 0    100  ~ 0
1
Text Notes 13750 1720 0    100  ~ 0
9
Text Notes 14050 1720 0    100  ~ 0
SPC
Text Notes 14460 1720 0    100  ~ 0
REPT
Text Notes 11750 2020 0    100  ~ 0
A
Text Notes 11740 2320 0    100  ~ 0
B
Text Notes 11740 2620 0    100  ~ 0
C
Text Notes 11750 2920 0    100  ~ 0
D
Text Notes 11750 3220 0    100  ~ 0
E
Text Notes 11750 3520 0    100  ~ 0
F
Text Notes 11740 3820 0    100  ~ 0
G
Text Notes 12170 2020 0    100  ~ 0
I
Text Notes 12160 2320 0    100  ~ 0
J
Text Notes 12150 2620 0    100  ~ 0
K
Text Notes 12150 2920 0    100  ~ 0
L
Text Notes 12140 3220 0    100  ~ 0
M
Text Notes 12140 3520 0    100  ~ 0
N
Text Notes 12140 3820 0    100  ~ 0
O
Text Notes 12540 2020 0    100  ~ 0
Q
Text Notes 12550 2320 0    100  ~ 0
R
Text Notes 12550 2620 0    100  ~ 0
S
Text Notes 12560 2920 0    100  ~ 0
T
Text Notes 12540 3220 0    100  ~ 0
U
Text Notes 12550 3520 0    100  ~ 0
V
Text Notes 12540 3820 0    100  ~ 0
W
Text Notes 12950 2020 0    100  ~ 0
Y
Text Notes 12950 2320 0    100  ~ 0
Z
Text Notes 12960 2610 0    100  ~ 0
[
Text Notes 12960 2910 0    100  ~ 0
\
Text Notes 12970 3210 0    100  ~ 0
]
Text Notes 12965 3560 0    100  ~ 0
^
Text Notes 12930 3810 0    100  ~ 0
-
Text Notes 13350 2020 0    100  ~ 0
2
Text Notes 13350 2320 0    100  ~ 0
3
Text Notes 13350 2620 0    100  ~ 0
4
Text Notes 13350 2920 0    100  ~ 0
5
Text Notes 13350 3220 0    100  ~ 0
6
Text Notes 13350 3520 0    100  ~ 0
7
Text Notes 13350 3820 0    100  ~ 0
8
Text Notes 13770 2000 0    100  ~ 0
:
Text Notes 13770 2300 0    100  ~ 0
;
Text Notes 13770 2610 0    100  ~ 0
,
Text Notes 13650 2920 0    100  ~ 0
BRK
Text Notes 13770 3210 0    100  ~ 0
.
Text Notes 13740 3510 0    100  ~ 0
/
Text Notes 13750 3820 0    100  ~ 0
0
Text Notes 14050 2020 0    100  ~ 0
B/S
Text Notes 14070 2320 0    100  ~ 0
TAB
Text Notes 14060 2620 0    100  ~ 0
L/F
Text Notes 14060 2920 0    100  ~ 0
RET
Text Notes 14050 3220 0    100  ~ 0
ESC
Text Notes 14050 3520 0    100  ~ 0
DEL
Text Notes 14050 3820 0    100  ~ 0
LOK
Text Notes 14520 2045 0    60   ~ 0
SHIFT
Text Notes 14460 2620 0    100  ~ 0
CTRL
Text GLabel 4700 3050 2    50   Output ~ 0
M1*
Wire Wire Line
	4700 3050 4550 3050
Wire Wire Line
	4550 3050 4550 3350
Connection ~ 4550 3350
Text GLabel 4050 3050 2    50   Input ~ 0
INT*
Wire Wire Line
	4050 3050 3900 3050
Wire Wire Line
	3900 3050 3900 3200
Connection ~ 3900 3200
Text GLabel 6400 800  2    50   Output ~ 0
BUSAK*
Text Label 3650 2500 0    50   ~ 0
BUSAK*
$Comp
L S80-2516-2532 U26
U 1 1 55BD6F46
P 9400 9300
F 0 "U26" H 10000 10100 50  0000 C CNN
F 1 "2516 or 2532" H 10000 10000 50  0000 C CNN
F 2 "" H 9400 9100 60  0000 C CNN
F 3 "" H 9400 9100 60  0000 C CNN
	1    9400 9300
	1    0    0    -1  
$EndComp
$Comp
L S80-2516-2532 U33
U 1 1 55BD6F52
P 11450 9300
F 0 "U33" H 12050 10100 50  0000 C CNN
F 1 "2532" H 12050 10000 50  0000 C CNN
F 2 "" H 11450 9100 60  0000 C CNN
F 3 "" H 11450 9100 60  0000 C CNN
	1    11450 9300
	1    0    0    -1  
$EndComp
$Comp
L S80-2516-2532 U42
U 1 1 55BD6F58
P 13500 9300
F 0 "U42" H 14100 10100 50  0000 C CNN
F 1 "2532" H 14100 10000 50  0000 C CNN
F 2 "" H 13500 9100 60  0000 C CNN
F 3 "" H 13500 9100 60  0000 C CNN
	1    13500 9300
	1    0    0    -1  
$EndComp
$Comp
L S80-U32-74LS138 U32
U 1 1 55BD6F5E
P 9300 7150
F 0 "U32" H 9300 7750 50  0000 C CNN
F 1 "74LS138" H 9300 7650 50  0000 C CNN
F 2 "~" H 9300 7150 60  0000 C CNN
F 3 "~" H 9300 7150 60  0000 C CNN
	1    9300 7150
	1    0    0    -1  
$EndComp
Wire Wire Line
	9400 7700 13750 7700
Wire Wire Line
	13650 7700 13650 8450
Wire Wire Line
	9300 7700 9300 7800
Wire Wire Line
	9300 7800 11700 7800
Wire Wire Line
	11600 7800 11600 8450
Wire Wire Line
	9200 7700 9200 7900
Wire Wire Line
	9200 7900 9650 7900
Wire Wire Line
	9550 7900 9550 8450
Text Label 8550 8400 0    50   ~ 0
A11
Text Label 8550 8900 0    50   ~ 0
A1
Text Label 8550 9000 0    50   ~ 0
A2
Text Label 8550 9100 0    50   ~ 0
A3
Text Label 8550 9200 0    50   ~ 0
A4
Text Label 8550 9300 0    50   ~ 0
A5
Text Label 8550 9400 0    50   ~ 0
A6
Text Label 8550 9500 0    50   ~ 0
A7
Text Label 8550 9600 0    50   ~ 0
A8
Text Label 8550 9700 0    50   ~ 0
A9
Text Label 8550 9800 0    50   ~ 0
A10
Text Label 10600 8800 0    50   ~ 0
A0
Text Label 10600 8900 0    50   ~ 0
A1
Text Label 10600 9000 0    50   ~ 0
A2
Text Label 10600 9100 0    50   ~ 0
A3
Text Label 10600 9200 0    50   ~ 0
A4
Text Label 10600 9300 0    50   ~ 0
A5
Text Label 10600 9400 0    50   ~ 0
A6
Text Label 10600 9500 0    50   ~ 0
A7
Text Label 10600 9600 0    50   ~ 0
A8
Text Label 10600 9700 0    50   ~ 0
A9
Text Label 10600 9800 0    50   ~ 0
A10
Entry Wire Line
	8450 8500 8550 8400
Entry Wire Line
	8450 9000 8550 8900
Entry Wire Line
	8450 9100 8550 9000
Entry Wire Line
	8450 9200 8550 9100
Entry Wire Line
	8450 9300 8550 9200
Entry Wire Line
	8450 9400 8550 9300
Entry Wire Line
	8450 9500 8550 9400
Entry Wire Line
	8450 9600 8550 9500
Entry Wire Line
	8450 9700 8550 9600
Entry Wire Line
	8450 9800 8550 9700
Entry Wire Line
	8450 9900 8550 9800
Entry Wire Line
	10500 8900 10600 8800
Entry Wire Line
	10500 9000 10600 8900
Entry Wire Line
	10500 9100 10600 9000
Entry Wire Line
	10500 9200 10600 9100
Entry Wire Line
	10500 9300 10600 9200
Entry Wire Line
	10500 9400 10600 9300
Entry Wire Line
	10500 9500 10600 9400
Entry Wire Line
	10500 9600 10600 9500
Entry Wire Line
	10500 9700 10600 9600
Entry Wire Line
	10500 9800 10600 9700
Entry Wire Line
	10500 9900 10600 9800
Text Label 12650 8800 0    50   ~ 0
A0
Text Label 12650 8900 0    50   ~ 0
A1
Text Label 12650 9000 0    50   ~ 0
A2
Text Label 12650 9100 0    50   ~ 0
A3
Text Label 12650 9200 0    50   ~ 0
A4
Text Label 12650 9300 0    50   ~ 0
A5
Text Label 12650 9400 0    50   ~ 0
A6
Text Label 12650 9500 0    50   ~ 0
A7
Text Label 12650 9600 0    50   ~ 0
A8
Text Label 12650 9700 0    50   ~ 0
A9
Text Label 12650 9800 0    50   ~ 0
A10
Entry Wire Line
	12550 8900 12650 8800
Entry Wire Line
	12550 9000 12650 8900
Entry Wire Line
	12550 9100 12650 9000
Entry Wire Line
	12550 9200 12650 9100
Entry Wire Line
	12550 9300 12650 9200
Entry Wire Line
	12550 9400 12650 9300
Entry Wire Line
	12550 9500 12650 9400
Entry Wire Line
	12550 9600 12650 9500
Entry Wire Line
	12550 9700 12650 9600
Entry Wire Line
	12550 9800 12650 9700
Entry Wire Line
	12550 9900 12650 9800
$Comp
L +5V #PWR098
U 1 1 55BD6FB0
P 8650 10000
F 0 "#PWR098" H 8655 10090 50  0001 C CNN
F 1 "+5V" H 8650 10090 50  0000 C CNN
F 2 "~" H 8650 10000 50  0000 C CNN
F 3 "~" H 8650 10000 60  0000 C CNN
	1    8650 10000
	1    0    0    -1  
$EndComp
$Comp
L +5V #PWR099
U 1 1 55BD6FB6
P 10700 10000
F 0 "#PWR099" H 10705 10090 50  0001 C CNN
F 1 "+5V" H 10700 10090 50  0000 C CNN
F 2 "~" H 10700 10000 50  0000 C CNN
F 3 "~" H 10700 10000 60  0000 C CNN
	1    10700 10000
	1    0    0    -1  
$EndComp
$Comp
L +5V #PWR0100
U 1 1 55BD6FBC
P 12750 10000
F 0 "#PWR0100" H 12755 10090 50  0001 C CNN
F 1 "+5V" H 12750 10090 50  0000 C CNN
F 2 "~" H 12750 10000 50  0000 C CNN
F 3 "~" H 12750 10000 60  0000 C CNN
	1    12750 10000
	1    0    0    -1  
$EndComp
Wire Wire Line
	8550 8900 8700 8900
Wire Wire Line
	8550 9000 8700 9000
Wire Wire Line
	8550 9100 8700 9100
Wire Wire Line
	8550 9200 8700 9200
Wire Wire Line
	8550 9300 8700 9300
Wire Wire Line
	8550 9400 8700 9400
Wire Wire Line
	8550 9500 8700 9500
Wire Wire Line
	8550 9600 8700 9600
Wire Wire Line
	8550 9700 8700 9700
Wire Wire Line
	8550 9800 8700 9800
Wire Wire Line
	10600 8800 10750 8800
Wire Wire Line
	10600 8900 10750 8900
Wire Wire Line
	10600 9000 10750 9000
Wire Wire Line
	10600 9100 10750 9100
Wire Wire Line
	10600 9200 10750 9200
Wire Wire Line
	10600 9300 10750 9300
Wire Wire Line
	10600 9400 10750 9400
Wire Wire Line
	10600 9500 10750 9500
Wire Wire Line
	10600 9600 10750 9600
Wire Wire Line
	10600 9700 10750 9700
Wire Wire Line
	10600 9800 10750 9800
Wire Wire Line
	12650 8800 12800 8800
Wire Wire Line
	12650 8900 12800 8900
Wire Wire Line
	12650 9000 12800 9000
Wire Wire Line
	12650 9100 12800 9100
Wire Wire Line
	12650 9200 12800 9200
Wire Wire Line
	12650 9300 12800 9300
Wire Wire Line
	12650 9400 12800 9400
Wire Wire Line
	12650 9500 12800 9500
Wire Wire Line
	12650 9600 12800 9600
Wire Wire Line
	12650 9700 12800 9700
Wire Wire Line
	12650 9800 12800 9800
Wire Wire Line
	8650 10000 8700 10000
Wire Wire Line
	10700 10000 10750 10000
Wire Wire Line
	12750 10000 12800 10000
Text GLabel 9650 7900 2    50   Output ~ 0
ROM0*
Text GLabel 11700 7800 2    50   Output ~ 0
ROM1*
Text GLabel 13750 7700 2    50   Output ~ 0
ROM2*
Connection ~ 13650 7700
Connection ~ 11600 7800
Connection ~ 9550 7900
NoConn ~ 9900 6800
NoConn ~ 9900 6900
NoConn ~ 9900 7000
NoConn ~ 9900 7100
NoConn ~ 9900 7200
Text Label 8550 8800 0    50   ~ 0
A0
Entry Wire Line
	8450 8900 8550 8800
Wire Wire Line
	8550 8800 8700 8800
Text Label 8550 7300 0    50   ~ 0
A13
Entry Wire Line
	8450 7400 8550 7300
Wire Wire Line
	8550 7300 8700 7300
Entry Wire Line
	8450 7300 8550 7200
Wire Wire Line
	8550 7200 8700 7200
Text GLabel 8350 10200 0    50   BiDi ~ 0
A[0..15]
Wire Bus Line
	12550 10200 8350 10200
Wire Bus Line
	10500 8900 10500 10200
Wire Bus Line
	12550 8900 12550 10200
Text Label 12150 8800 0    50   ~ 0
D0
Text Label 12150 8900 0    50   ~ 0
D1
Text Label 12150 9000 0    50   ~ 0
D2
Text Label 12150 9100 0    50   ~ 0
D3
Text Label 12150 9200 0    50   ~ 0
D4
Text Label 12150 9300 0    50   ~ 0
D5
Text Label 12150 9400 0    50   ~ 0
D6
Text Label 12150 9500 0    50   ~ 0
D7
Entry Wire Line
	12250 8800 12350 8900
Entry Wire Line
	12250 8900 12350 9000
Entry Wire Line
	12250 9000 12350 9100
Entry Wire Line
	12250 9100 12350 9200
Entry Wire Line
	12250 9200 12350 9300
Entry Wire Line
	12250 9300 12350 9400
Entry Wire Line
	12250 9400 12350 9500
Entry Wire Line
	12250 9500 12350 9600
Wire Wire Line
	12150 8800 12250 8800
Wire Wire Line
	12150 8900 12250 8900
Wire Wire Line
	12150 9000 12250 9000
Wire Wire Line
	12150 9100 12250 9100
Wire Wire Line
	12150 9200 12250 9200
Wire Wire Line
	12150 9300 12250 9300
Wire Wire Line
	12150 9400 12250 9400
Wire Wire Line
	12150 9500 12250 9500
Text Label 10100 8800 0    50   ~ 0
D0
Text Label 10100 8900 0    50   ~ 0
D1
Text Label 10100 9000 0    50   ~ 0
D2
Text Label 10100 9100 0    50   ~ 0
D3
Text Label 10100 9200 0    50   ~ 0
D4
Text Label 10100 9300 0    50   ~ 0
D5
Text Label 10100 9400 0    50   ~ 0
D6
Text Label 10100 9500 0    50   ~ 0
D7
Entry Wire Line
	10200 8800 10300 8900
Entry Wire Line
	10200 8900 10300 9000
Entry Wire Line
	10200 9000 10300 9100
Entry Wire Line
	10200 9100 10300 9200
Entry Wire Line
	10200 9200 10300 9300
Entry Wire Line
	10200 9300 10300 9400
Entry Wire Line
	10200 9400 10300 9500
Entry Wire Line
	10200 9500 10300 9600
Wire Wire Line
	10100 8800 10200 8800
Wire Wire Line
	10100 8900 10200 8900
Wire Wire Line
	10100 9000 10200 9000
Wire Wire Line
	10100 9100 10200 9100
Wire Wire Line
	10100 9200 10200 9200
Wire Wire Line
	10100 9300 10200 9300
Wire Wire Line
	10100 9400 10200 9400
Wire Wire Line
	10100 9500 10200 9500
Text Label 14200 8800 0    50   ~ 0
D0
Text Label 14200 8900 0    50   ~ 0
D1
Text Label 14200 9000 0    50   ~ 0
D2
Text Label 14200 9100 0    50   ~ 0
D3
Text Label 14200 9200 0    50   ~ 0
D4
Text Label 14200 9300 0    50   ~ 0
D5
Text Label 14200 9400 0    50   ~ 0
D6
Text Label 14200 9500 0    50   ~ 0
D7
Entry Wire Line
	14300 8800 14400 8900
Entry Wire Line
	14300 8900 14400 9000
Entry Wire Line
	14300 9000 14400 9100
Entry Wire Line
	14300 9100 14400 9200
Entry Wire Line
	14300 9200 14400 9300
Entry Wire Line
	14300 9300 14400 9400
Entry Wire Line
	14300 9400 14400 9500
Entry Wire Line
	14300 9500 14400 9600
Wire Wire Line
	14200 8800 14300 8800
Wire Wire Line
	14200 8900 14300 8900
Wire Wire Line
	14200 9000 14300 9000
Wire Wire Line
	14200 9100 14300 9100
Wire Wire Line
	14200 9200 14300 9200
Wire Wire Line
	14200 9300 14300 9300
Wire Wire Line
	14200 9400 14300 9400
Wire Wire Line
	14200 9500 14300 9500
Text GLabel 8350 10400 0    50   BiDi ~ 0
D[0..7]
Wire Bus Line
	14400 10400 8350 10400
Wire Bus Line
	10300 8900 10300 10400
Wire Bus Line
	12350 8900 12350 10400
Wire Bus Line
	14400 8900 14400 10400
Text GLabel 8600 6800 0    50   Input ~ 0
RD-BUFRD*
Wire Wire Line
	8600 6800 8700 6800
Wire Wire Line
	8000 6900 8700 6900
$Comp
L 74LS00 U37
U 2 1 55BD704C
P 7350 7000
F 0 "U37" H 7750 7300 50  0000 C CNN
F 1 "74LS00" H 7750 7200 50  0000 C CNN
F 2 "~" H 7350 7000 60  0000 C CNN
F 3 "~" H 7350 7000 60  0000 C CNN
	2    7350 7000
	1    0    0    -1  
$EndComp
Wire Wire Line
	7950 7000 8700 7000
$Comp
L 74LS02 U3
U 4 1 55BD7053
P 5800 7550
F 0 "U3" H 6050 7200 50  0000 C CNN
F 1 "74LS02" H 6050 7300 50  0000 C CNN
F 2 "~" H 5800 7550 60  0000 C CNN
F 3 "~" H 5800 7550 60  0000 C CNN
	4    5800 7550
	1    0    0    1   
$EndComp
$Comp
L 74LS02 U3
U 3 1 55BD7059
P 5800 8700
F 0 "U3" H 6000 9050 50  0000 C CNN
F 1 "74LS02" H 6000 8950 50  0000 C CNN
F 2 "~" H 5800 8700 60  0000 C CNN
F 3 "~" H 5800 8700 60  0000 C CNN
	3    5800 8700
	1    0    0    -1  
$EndComp
Wire Wire Line
	5200 8600 5200 8300
Wire Wire Line
	5200 8300 6400 7850
Wire Wire Line
	6400 7850 6400 7550
Wire Wire Line
	5200 7650 5200 7850
Wire Wire Line
	5200 7850 6400 8300
Wire Wire Line
	6400 8300 6400 8700
Wire Wire Line
	6750 7100 6750 8700
Wire Wire Line
	6400 8700 7000 8700
Connection ~ 6750 8700
Connection ~ 6400 8700
Wire Wire Line
	8400 7100 8700 7100
Text GLabel 4900 8800 0    50   Input ~ 0
MRESET
Wire Wire Line
	4900 8800 5200 8800
$Comp
L 74LS00 U37
U 1 1 55BD706C
P 3400 6900
F 0 "U37" H 3800 7200 50  0000 C CNN
F 1 "74LS00" H 3800 7100 50  0000 C CNN
F 2 "~" H 3400 6900 60  0000 C CNN
F 3 "~" H 3400 6900 60  0000 C CNN
	1    3400 6900
	1    0    0    -1  
$EndComp
$Comp
L 74LS02 U3
U 2 1 55BD7072
P 4600 7450
F 0 "U3" H 4750 7800 50  0000 C CNN
F 1 "74LS02" H 4750 7700 50  0000 C CNN
F 2 "~" H 4600 7450 60  0000 C CNN
F 3 "~" H 4600 7450 60  0000 C CNN
	2    4600 7450
	1    0    0    -1  
$EndComp
Wire Wire Line
	4000 7350 4000 6900
Connection ~ 4000 6900
Wire Wire Line
	4000 6900 6750 6900
Text GLabel 4000 7550 0    50   Input ~ 0
M1*
Text Label 2650 7000 0    50   ~ 0
A14
Entry Wire Line
	2550 7100 2650 7000
Wire Wire Line
	2650 7000 2800 7000
Text Label 2650 6800 0    50   ~ 0
A15
Entry Wire Line
	2550 6900 2650 6800
Wire Wire Line
	2650 6800 2800 6800
Text GLabel 2450 7200 0    50   BiDi ~ 0
A[14..15]
Wire Bus Line
	2550 7200 2450 7200
Wire Bus Line
	2550 6900 2550 7200
Wire Wire Line
	9200 8400 13350 8400
Connection ~ 11300 8400
Connection ~ 9250 8400
Wire Wire Line
	11300 8450 11300 8400
Wire Wire Line
	13350 8400 13350 8450
$Comp
L GND #PWR0101
U 1 1 55BD708E
P 8150 6600
F 0 "#PWR0101" H 8150 6600 30  0001 C CNN
F 1 "GND" H 8150 6530 30  0001 C CNN
F 2 "~" H 8150 6600 60  0000 C CNN
F 3 "~" H 8150 6600 60  0000 C CNN
	1    8150 6600
	1    0    0    -1  
$EndComp
Wire Wire Line
	8150 6600 8150 6500
Wire Wire Line
	8150 6500 8000 6500
Wire Wire Line
	8000 6500 8000 6900
Text GLabel 8400 7100 0    50   Input ~ 0
MEM
Text GLabel 5450 6550 2    50   Output ~ 0
C000-FFFF*
Wire Wire Line
	5450 6550 5100 6550
Wire Wire Line
	5100 6550 5100 6900
Connection ~ 5100 6900
Text GLabel 7000 8700 2    50   Output ~ 0
SOD*
Text Notes 9750 8150 0    50   ~ 0
2516: PCB TRACE IN, JP1 OUT\n2732: PCB TRACE CUT, JP1 IN
Wire Bus Line
	8450 7300 8450 10200
Text Label 8550 7200 0    50   ~ 0
A12
$Comp
L S80-LINK JP1
U 1 1 55BD8F45
P 8950 8400
F 0 "JP1" H 8950 8500 50  0000 C CNN
F 1 "S80-LINK" H 8950 8300 50  0001 C CNN
F 2 "~" H 8950 8400 60  0000 C CNN
F 3 "~" H 8950 8400 60  0000 C CNN
	1    8950 8400
	-1   0    0    -1  
$EndComp
Wire Wire Line
	8550 8400 8700 8400
Wire Notes Line
	9200 8100 8850 8100
Wire Notes Line
	8850 8100 8850 7950
Wire Wire Line
	9550 8100 9250 8100
Wire Wire Line
	9250 8100 9250 8450
Connection ~ 9550 8100
Text Notes 8650 7800 0    50   ~ 0
CUTABLE
Wire Notes Line
	9200 8100 9150 8050
Wire Notes Line
	9200 8100 9150 8150
Text Notes 8700 7900 0    50   ~ 0
TRACE
$Comp
L S80-KEYBD-CONN J6
U 1 1 55BDD3B5
P 12450 6250
F 0 "J6" H 12400 7300 50  0000 C CNN
F 1 "KEYBOARD CONNECTOR" H 12450 7200 50  0000 C CNN
F 2 "~" H 12250 7200 60  0000 C CNN
F 3 "~" H 12250 7200 60  0000 C CNN
	1    12450 6250
	1    0    0    -1  
$EndComp
Text Label 13050 5450 0    50   ~ 0
PB4
Text Label 13050 5550 0    50   ~ 0
PA7
Text Label 13050 5750 0    50   ~ 0
PA0
Text Label 13050 5850 0    50   ~ 0
PB1
Text Label 13050 5950 0    50   ~ 0
PB2
Text Label 13050 6050 0    50   ~ 0
PB3
Text Label 13050 6150 0    50   ~ 0
PB5
Text Label 13050 6250 0    50   ~ 0
PB6
Text Label 13050 6350 0    50   ~ 0
PB7
Text Label 13050 6450 0    50   ~ 0
PA1
Text Label 13050 6550 0    50   ~ 0
PB0
Text Label 13050 6650 0    50   ~ 0
PA2
Text Label 13050 6750 0    50   ~ 0
PA3
Text Label 13050 6850 0    50   ~ 0
PA4
Text Label 13050 6950 0    50   ~ 0
PA5
Text Label 13050 7050 0    50   ~ 0
PA6
NoConn ~ 13050 5650
Text Label 11850 5450 2    50   ~ 0
PB4
Text Label 11850 5550 2    50   ~ 0
PA7
Text Label 11850 5750 2    50   ~ 0
PA0
Text Label 11850 5850 2    50   ~ 0
PB1
Text Label 11850 5950 2    50   ~ 0
PB2
Text Label 11850 6050 2    50   ~ 0
PB3
Text Label 11850 6150 2    50   ~ 0
PB5
Text Label 11850 6250 2    50   ~ 0
PB6
Text Label 11850 6350 2    50   ~ 0
PB7
Text Label 11850 6450 2    50   ~ 0
PA1
Text Label 11850 6550 2    50   ~ 0
PB0
Text Label 11850 6650 2    50   ~ 0
PA2
Text Label 11850 6750 2    50   ~ 0
PA3
Text Label 11850 6850 2    50   ~ 0
PA4
Text Label 11850 6950 2    50   ~ 0
PA5
Text Label 11850 7050 2    50   ~ 0
PA6
NoConn ~ 11850 5650
$Comp
L S80-KEYSW-A KEY100
U 1 1 55BFD6A1
P 14025 5600
AR Path="/55BB5AC1/55BFD6A1" Ref="KEY100"  Part="1" 
AR Path="/55B04158/55BFD6A1" Ref="KEY106"  Part="1" 
F 0 "KEY100" H 14025 5800 50  0001 C CNN
F 1 "S80-KEYSW-A" H 14025 5700 50  0001 C CNN
F 2 "~" V 13825 5550 50  0000 C CNN
F 3 "~" V 13825 5550 60  0000 C CNN
	1    14025 5600
	1    0    0    -1  
$EndComp
Text Notes 13675 5750 0    50   ~ 0
DUMMY KEY TO LEFT\nOF RIGHT SHIFT KEY
NoConn ~ 14025 5600
NoConn ~ 14225 5450
Text Notes 14545 1955 0    60   ~ 0
LEFT
Text Notes 14740 5455 0    60   ~ 0
RIGHT
Text Notes 14745 5545 0    60   ~ 0
SHIFT
Wire Wire Line
	11050 2800 11050 2400
Connection ~ 11800 2400
Wire Wire Line
	11050 2400 14200 2400
Wire Wire Line
	10950 2100 14650 2100
Text Label 14775 5675 2    50   ~ 0
PA1
Text Label 15200 5450 0    50   ~ 0
PB7
Wire Wire Line
	14775 5675 14875 5675
Wire Wire Line
	14875 5675 14875 5600
Wire Wire Line
	15125 5450 15200 5450
$EndSCHEMATC
