EESchema Schematic File Version 2
LIBS:mals_library
LIBS:power
LIBS:device
LIBS:transistors
LIBS:conn
LIBS:linear
LIBS:regul
LIBS:74xx
LIBS:cmos4000
LIBS:adc-dac
LIBS:memory
LIBS:xilinx
LIBS:special
LIBS:microcontrollers
LIBS:dsp
LIBS:microchip
LIBS:analog_switches
LIBS:motorola
LIBS:texas
LIBS:intel
LIBS:audio
LIBS:interface
LIBS:digital-audio
LIBS:philips
LIBS:display
LIBS:cypress
LIBS:siliconi
LIBS:opto
LIBS:atmel
LIBS:contrib
LIBS:valves
LIBS:Super 80 Reproduction-cache
EELAYER 27 0
EELAYER END
$Descr A3 16535 11693
encoding utf-8
Sheet 4 7
Title "Super 80 Reproduction"
Date "9 aug 2015"
Rev "0.1"
Comp "Malcolm Macleod"
Comment1 ""
Comment2 ""
Comment3 ""
Comment4 ""
$EndDescr
$Comp
L R R67
U 1 1 559AC51D
P 3250 2800
F 0 "R67" H 3050 2750 50  0000 C CNN
F 1 "27K" H 3050 2850 50  0000 C CNN
F 2 "~" H 3250 2800 50  0000 C CNN
F 3 "~" H 3250 2800 60  0000 C CNN
	1    3250 2800
	1    0    0    1   
$EndComp
$Comp
L R R9
U 1 1 559AC543
P 3550 2800
F 0 "R9" H 3750 2750 50  0000 C CNN
F 1 "270K" H 3750 2850 50  0000 C CNN
F 2 "~" H 3550 2800 50  0000 C CNN
F 3 "~" H 3550 2800 60  0000 C CNN
	1    3550 2800
	1    0    0    1   
$EndComp
$Comp
L R R66
U 1 1 559AC562
P 1700 1350
F 0 "R66" V 1900 1350 50  0000 C CNN
F 1 "22K" V 1800 1350 50  0000 C CNN
F 2 "~" H 1700 1350 50  0000 C CNN
F 3 "~" H 1700 1350 60  0000 C CNN
	1    1700 1350
	0    -1   -1   0   
$EndComp
$Comp
L R R69
U 1 1 559AC58B
P 4450 1600
F 0 "R69" H 4300 1550 50  0000 C CNN
F 1 "68K" H 4300 1650 50  0000 C CNN
F 2 "~" H 4450 1600 50  0000 C CNN
F 3 "~" H 4450 1600 60  0000 C CNN
	1    4450 1600
	1    0    0    1   
$EndComp
$Comp
L R R68
U 1 1 559AC591
P 4850 1850
F 0 "R68" V 5050 1850 50  0000 C CNN
F 1 "47K" V 4950 1850 50  0000 C CNN
F 2 "~" H 4850 1850 50  0000 C CNN
F 3 "~" H 4850 1850 60  0000 C CNN
	1    4850 1850
	0    -1   -1   0   
$EndComp
Wire Wire Line
	4150 1850 4600 1850
Connection ~ 4450 1850
$Comp
L GND #PWR023
U 1 1 559AC72B
P 3250 3100
F 0 "#PWR023" H 3250 3100 30  0001 C CNN
F 1 "GND" H 3250 3030 30  0001 C CNN
F 2 "~" H 3250 3100 60  0000 C CNN
F 3 "~" H 3250 3100 60  0000 C CNN
	1    3250 3100
	1    0    0    -1  
$EndComp
$Comp
L GND #PWR024
U 1 1 559AC738
P 3550 3100
F 0 "#PWR024" H 3550 3100 30  0001 C CNN
F 1 "GND" H 3550 3030 30  0001 C CNN
F 2 "~" H 3550 3100 60  0000 C CNN
F 3 "~" H 3550 3100 60  0000 C CNN
	1    3550 3100
	1    0    0    -1  
$EndComp
Wire Wire Line
	3250 3100 3250 3050
Wire Wire Line
	3550 3100 3550 3050
$Comp
L C C56
U 1 1 559AF4F9
P 2150 1350
F 0 "C56" V 2450 1300 50  0000 L CNN
F 1 "0.1uF" V 2350 1250 50  0000 L CNN
F 2 "~" H 2100 1350 50  0000 C CNN
F 3 "~" H 2150 1350 60  0000 C CNN
	1    2150 1350
	0    1    -1   0   
$EndComp
$Comp
L C C57
U 1 1 559AF670
P 2450 1850
F 0 "C57" H 2050 1800 50  0000 L CNN
F 1 "0.01uF" H 2000 1900 50  0000 L CNN
F 2 "~" H 2400 1850 50  0000 C CNN
F 3 "~" H 2450 1850 60  0000 C CNN
	1    2450 1850
	1    0    0    1   
$EndComp
$Comp
L S80-U79-4046 U79
U 1 1 559AFA4B
P 3400 1700
F 0 "U79" H 3400 2300 50  0000 C CNN
F 1 "4046" H 3400 2200 50  0000 C CNN
F 2 "~" H 3350 1700 60  0000 C CNN
F 3 "~" H 3350 1700 60  0000 C CNN
	1    3400 1700
	1    0    0    -1  
$EndComp
Wire Wire Line
	4150 1350 4450 1350
Wire Wire Line
	2450 1650 2650 1650
Wire Wire Line
	2450 2050 2650 2050
$Comp
L C C59
U 1 1 559AFD87
P 5250 2200
F 0 "C59" H 4850 2250 50  0000 L CNN
F 1 "0.01uF" H 4800 2150 50  0000 L CNN
F 2 "~" H 5200 2200 50  0000 C CNN
F 3 "~" H 5250 2200 60  0000 C CNN
	1    5250 2200
	1    0    0    -1  
$EndComp
$Comp
L S80-POT POT1
U 1 1 559B0594
P 5800 2300
F 0 "POT1" V 5750 2100 50  0000 C CNN
F 1 "20K" V 5850 2100 50  0000 C CNN
F 2 "~" H 5800 2300 60  0000 C CNN
F 3 "~" H 5800 2300 60  0000 C CNN
	1    5800 2300
	0    1    1    0   
$EndComp
Wire Wire Line
	2650 1550 2450 1550
Wire Wire Line
	2450 1550 2450 1450
Wire Wire Line
	2450 1450 2650 1450
Wire Wire Line
	5250 2000 5250 1850
Wire Wire Line
	5100 1850 6300 1850
Connection ~ 5250 1850
$Comp
L GND #PWR025
U 1 1 559B0694
P 2450 2300
F 0 "#PWR025" H 2450 2300 30  0001 C CNN
F 1 "GND" H 2450 2230 30  0001 C CNN
F 2 "~" H 2450 2300 60  0000 C CNN
F 3 "~" H 2450 2300 60  0000 C CNN
	1    2450 2300
	1    0    0    -1  
$EndComp
Wire Wire Line
	2650 2150 2450 2150
Wire Wire Line
	2450 2150 2450 2300
Wire Wire Line
	2350 1350 2650 1350
$Comp
L S80-CASS J2
U 1 1 559B0CD8
P 1050 3650
F 0 "J2" H 1100 3150 50  0000 C CNN
F 1 "7 PIN HEADER" H 1050 3250 50  0000 C CNN
F 2 "" H 1050 3650 60  0000 C CNN
F 3 "" H 1050 3650 60  0000 C CNN
	1    1050 3650
	-1   0    0    1   
$EndComp
Wire Wire Line
	1450 3400 1450 1350
$Comp
L GND #PWR026
U 1 1 559B0D39
P 5800 2800
F 0 "#PWR026" H 5800 2800 30  0001 C CNN
F 1 "GND" H 5800 2730 30  0001 C CNN
F 2 "~" H 5800 2800 60  0000 C CNN
F 3 "~" H 5800 2800 60  0000 C CNN
	1    5800 2800
	1    0    0    -1  
$EndComp
$Comp
L +5V #PWR027
U 1 1 559B0EFF
P 5800 2050
F 0 "#PWR027" H 5805 2140 50  0001 C CNN
F 1 "+5V" H 5800 2140 50  0000 C CNN
F 2 "~" H 5800 2050 50  0000 C CNN
F 3 "~" H 5800 2050 60  0000 C CNN
	1    5800 2050
	1    0    0    -1  
$EndComp
$Comp
L GND #PWR028
U 1 1 559B0F2A
P 5250 2500
F 0 "#PWR028" H 5250 2500 30  0001 C CNN
F 1 "GND" H 5250 2430 30  0001 C CNN
F 2 "~" H 5250 2500 60  0000 C CNN
F 3 "~" H 5250 2500 60  0000 C CNN
	1    5250 2500
	1    0    0    -1  
$EndComp
Wire Wire Line
	6150 2050 6150 2300
Wire Wire Line
	6150 2300 5950 2300
$Comp
L C C6
U 1 1 559B0F4F
P 6150 2500
F 0 "C6" H 6350 2500 50  0000 L CNN
F 1 "0.1uF" H 6300 2400 50  0000 L CNN
F 2 "~" H 6100 2500 50  0000 C CNN
F 3 "~" H 6150 2500 60  0000 C CNN
	1    6150 2500
	1    0    0    -1  
$EndComp
Wire Wire Line
	5800 2550 5800 2800
Wire Wire Line
	5250 2500 5250 2400
Wire Wire Line
	5800 2700 6800 2700
Connection ~ 5800 2700
Connection ~ 6150 2300
Wire Wire Line
	6150 2050 6300 2050
$Comp
L S80-U1-LM311 U1
U 1 1 559B2B0F
P 6800 1950
F 0 "U1" H 6950 2250 50  0000 C CNN
F 1 "LM311" H 6950 2150 50  0000 C CNN
F 2 "" H 6800 1950 60  0000 C CNN
F 3 "" H 6800 1950 60  0000 C CNN
	1    6800 1950
	1    0    0    -1  
$EndComp
$Comp
L R R6
U 1 1 559B2B1C
P 8100 1400
F 0 "R6" H 7950 1350 50  0000 C CNN
F 1 "4.7K" H 7950 1450 50  0000 C CNN
F 2 "~" H 8100 1400 50  0000 C CNN
F 3 "~" H 8100 1400 60  0000 C CNN
	1    8100 1400
	1    0    0    1   
$EndComp
$Comp
L R R5
U 1 1 559B2B2D
P 8500 1400
F 0 "R5" H 8350 1350 50  0000 C CNN
F 1 "4.7K" H 8350 1450 50  0000 C CNN
F 2 "~" H 8500 1400 50  0000 C CNN
F 3 "~" H 8500 1400 60  0000 C CNN
	1    8500 1400
	1    0    0    1   
$EndComp
$Comp
L R R4
U 1 1 559B2B33
P 8900 1400
F 0 "R4" H 8750 1350 50  0000 C CNN
F 1 "4.7K" H 8750 1450 50  0000 C CNN
F 2 "~" H 8900 1400 50  0000 C CNN
F 3 "~" H 8900 1400 60  0000 C CNN
	1    8900 1400
	1    0    0    1   
$EndComp
$Comp
L R R3
U 1 1 559B2B39
P 9300 1400
F 0 "R3" H 9150 1350 50  0000 C CNN
F 1 "4.7K" H 9150 1450 50  0000 C CNN
F 2 "~" H 9300 1400 50  0000 C CNN
F 3 "~" H 9300 1400 60  0000 C CNN
	1    9300 1400
	1    0    0    1   
$EndComp
$Comp
L R R2
U 1 1 559B2B3F
P 9700 1400
F 0 "R2" H 9550 1350 50  0000 C CNN
F 1 "4.7K" H 9550 1450 50  0000 C CNN
F 2 "~" H 9700 1400 50  0000 C CNN
F 3 "~" H 9700 1400 60  0000 C CNN
	1    9700 1400
	1    0    0    1   
$EndComp
Wire Wire Line
	7300 1950 9900 1950
Text Label 8250 2050 0    50   ~ 0
TEST*
Text Label 8250 2150 0    50   ~ 0
JP BASIC*
Text Label 8250 2250 0    50   ~ 0
32K*
Text Label 8250 2350 0    50   ~ 0
48K*
$Comp
L GND #PWR029
U 1 1 559B33F8
P 7600 2450
F 0 "#PWR029" H 7600 2450 30  0001 C CNN
F 1 "GND" H 7600 2380 30  0001 C CNN
F 2 "~" H 7600 2450 60  0000 C CNN
F 3 "~" H 7600 2450 60  0000 C CNN
	1    7600 2450
	1    0    0    -1  
$EndComp
Wire Wire Line
	7600 2050 7600 2450
Wire Wire Line
	7600 2050 7750 2050
Wire Wire Line
	7600 2150 7750 2150
Connection ~ 7600 2150
Wire Wire Line
	7600 2250 7750 2250
Connection ~ 7600 2250
Wire Wire Line
	7600 2350 7750 2350
Connection ~ 7600 2350
$Comp
L +5V #PWR030
U 1 1 559B36B1
P 6700 1000
F 0 "#PWR030" H 6705 1090 50  0001 C CNN
F 1 "+5V" H 6700 1090 50  0000 C CNN
F 2 "~" H 6700 1000 50  0000 C CNN
F 3 "~" H 6700 1000 60  0000 C CNN
	1    6700 1000
	1    0    0    -1  
$EndComp
Wire Wire Line
	6700 1000 6700 1550
Wire Wire Line
	6700 1050 9700 1050
Connection ~ 6700 1050
Wire Wire Line
	8500 1050 8500 1150
Wire Wire Line
	8900 1050 8900 1150
Connection ~ 8500 1050
Wire Wire Line
	9300 1050 9300 1150
Connection ~ 8900 1050
Wire Wire Line
	9700 1050 9700 1150
Connection ~ 9300 1050
Wire Wire Line
	6700 2700 6700 2350
Connection ~ 6150 2700
Wire Wire Line
	6800 2700 6800 2350
Connection ~ 6700 2700
Text Label 9900 2450 2    50   ~ 0
PORT-7
Text Label 9900 2550 2    50   ~ 0
PORT-8
$Comp
L GND #PWR031
U 1 1 559B4418
P 2000 3850
F 0 "#PWR031" H 2000 3850 30  0001 C CNN
F 1 "GND" H 2000 3780 30  0001 C CNN
F 2 "~" H 2000 3850 60  0000 C CNN
F 3 "~" H 2000 3850 60  0000 C CNN
	1    2000 3850
	1    0    0    -1  
$EndComp
Wire Wire Line
	1450 3700 2000 3700
Wire Wire Line
	2000 3500 2000 3850
Wire Wire Line
	1450 3500 2000 3500
Connection ~ 2000 3700
Text Label 11300 1950 0    50   ~ 0
D0
Text Label 11300 2150 0    50   ~ 0
D5
Text Label 11300 2350 0    50   ~ 0
D7
Text Label 11300 2450 0    50   ~ 0
D1
Text Label 11300 2550 0    50   ~ 0
D2
Text Label 11300 2250 0    50   ~ 0
D6
Text Label 11300 2050 0    50   ~ 0
D4
$Comp
L S80-U18-74LS174 U18
U 1 1 559BA3EC
P 5700 4150
F 0 "U18" H 5700 4900 50  0000 C CNN
F 1 "74LS174" H 5700 4800 50  0000 C CNN
F 2 "~" H 5700 3950 60  0000 C CNN
F 3 "~" H 5700 3950 60  0000 C CNN
	1    5700 4150
	1    0    0    -1  
$EndComp
$Comp
L R R7
U 1 1 559BA3F9
P 4650 3600
F 0 "R7" V 4850 3600 50  0000 C CNN
F 1 "100K" V 4750 3600 50  0000 C CNN
F 2 "~" H 4650 3600 50  0000 C CNN
F 3 "~" H 4650 3600 60  0000 C CNN
	1    4650 3600
	0    1    -1   0   
$EndComp
$Comp
L C C8
U 1 1 559BA3FF
P 4200 3850
F 0 "C8" H 3900 3800 50  0000 L CNN
F 1 "0.01uF" H 3800 3900 50  0000 L CNN
F 2 "~" H 4150 3850 50  0000 C CNN
F 3 "~" H 4200 3850 60  0000 C CNN
	1    4200 3850
	1    0    0    1   
$EndComp
$Comp
L R R10
U 1 1 559BA405
P 3800 3600
F 0 "R10" V 4000 3600 50  0000 C CNN
F 1 "10K" V 3900 3600 50  0000 C CNN
F 2 "~" H 3800 3600 50  0000 C CNN
F 3 "~" H 3800 3600 60  0000 C CNN
	1    3800 3600
	0    1    -1   0   
$EndComp
$Comp
L R R11
U 1 1 559BA40B
P 3450 3850
F 0 "R11" H 3250 3800 50  0000 C CNN
F 1 "100R" H 3250 3900 50  0000 C CNN
F 2 "~" H 3450 3850 50  0000 C CNN
F 3 "~" H 3450 3850 60  0000 C CNN
	1    3450 3850
	1    0    0    1   
$EndComp
$Comp
L C C10
U 1 1 559BA41B
P 3100 3600
F 0 "C10" V 3400 3550 50  0000 L CNN
F 1 "0.1uF" V 3300 3500 50  0000 L CNN
F 2 "~" H 3050 3600 50  0000 C CNN
F 3 "~" H 3100 3600 60  0000 C CNN
	1    3100 3600
	0    -1   -1   0   
$EndComp
$Comp
L BD140 Q2
U 1 1 559BA423
P 4100 4750
F 0 "Q2" H 4400 4700 50  0000 C CNN
F 1 "BC327" H 4400 4800 50  0000 C CNN
F 2 "~" H 4100 4750 60  0000 C CNN
F 3 "~" H 4100 4750 60  0000 C CNN
	1    4100 4750
	-1   0    0    1   
$EndComp
$Comp
L R R8
U 1 1 559BA430
P 4650 4750
F 0 "R8" V 4750 4600 50  0000 C CNN
F 1 "150R" V 4750 4850 50  0000 C CNN
F 2 "~" H 4650 4750 50  0000 C CNN
F 3 "~" H 4650 4750 60  0000 C CNN
	1    4650 4750
	0    1    -1   0   
$EndComp
$Comp
L R R12
U 1 1 559BA44A
P 4700 4450
F 0 "R12" V 4800 4600 50  0000 C CNN
F 1 "180R" V 4800 4350 50  0000 C CNN
F 2 "~" H 4700 4450 50  0000 C CNN
F 3 "~" H 4700 4450 60  0000 C CNN
	1    4700 4450
	0    -1   -1   0   
$EndComp
$Comp
L LED LED1
U 1 1 559BA452
P 4250 4450
F 0 "LED1" H 4250 4550 50  0000 C CNN
F 1 "5MM RED LED" H 4250 4350 50  0001 C CNN
F 2 "~" H 4150 4450 50  0000 C CNN
F 3 "~" H 4250 4450 60  0000 C CNN
	1    4250 4450
	1    0    0    -1  
$EndComp
$Comp
L S80-RELAY RELAY1
U 1 1 559BB20F
P 2950 4700
F 0 "RELAY1" H 2950 4200 50  0000 C CNN
F 1 "14-PIN DIL 5V SPDT RELAY" H 2950 4100 50  0001 C CNN
F 2 "~" H 2950 4700 60  0000 C CNN
F 3 "~" H 2950 4700 60  0000 C CNN
	1    2950 4700
	-1   0    0    -1  
$EndComp
$Comp
L DIODE CR9
U 1 1 559BB25D
P 3650 5200
F 0 "CR9" V 3700 4950 50  0000 C CNN
F 1 "1N914" V 3600 4950 50  0000 C CNN
F 2 "~" H 3550 5200 50  0000 C CNN
F 3 "~" H 3650 5200 60  0000 C CNN
	1    3650 5200
	0    -1   -1   0   
$EndComp
$Comp
L GND #PWR032
U 1 1 559BB26A
P 3450 5500
F 0 "#PWR032" H 3450 5500 30  0001 C CNN
F 1 "GND" H 3450 5430 30  0001 C CNN
F 2 "~" H 3450 5500 60  0000 C CNN
F 3 "~" H 3450 5500 60  0000 C CNN
	1    3450 5500
	1    0    0    -1  
$EndComp
Wire Wire Line
	3350 4950 4000 4950
Wire Wire Line
	3450 5050 3450 5500
Wire Wire Line
	3450 5450 3650 5450
Wire Wire Line
	3650 5450 3650 5400
Wire Wire Line
	3650 4950 3650 5000
Wire Wire Line
	3350 5050 3450 5050
Connection ~ 3450 5450
$Comp
L +5V #PWR033
U 1 1 559BB48B
P 4000 4350
F 0 "#PWR033" H 4005 4440 50  0001 C CNN
F 1 "+5V" H 4000 4440 50  0000 C CNN
F 2 "~" H 4000 4350 50  0000 C CNN
F 3 "~" H 4000 4350 60  0000 C CNN
	1    4000 4350
	1    0    0    -1  
$EndComp
Wire Wire Line
	4000 4350 4000 4550
Wire Wire Line
	4000 4450 4050 4450
Connection ~ 4000 4450
Wire Wire Line
	4950 4450 5000 4450
Wire Wire Line
	4900 4750 5000 4750
Wire Wire Line
	4300 4750 4400 4750
Wire Wire Line
	1450 4000 1700 4000
Wire Wire Line
	1450 3900 1800 3900
Wire Wire Line
	1450 3600 2900 3600
$Comp
L GND #PWR034
U 1 1 559BBCFC
P 3450 4150
F 0 "#PWR034" H 3450 4150 30  0001 C CNN
F 1 "GND" H 3450 4080 30  0001 C CNN
F 2 "~" H 3450 4150 60  0000 C CNN
F 3 "~" H 3450 4150 60  0000 C CNN
	1    3450 4150
	1    0    0    -1  
$EndComp
Wire Wire Line
	3300 3600 3550 3600
Wire Wire Line
	3450 4150 3450 4100
Connection ~ 3450 3600
$Comp
L GND #PWR035
U 1 1 559BBE61
P 4200 4150
F 0 "#PWR035" H 4200 4150 30  0001 C CNN
F 1 "GND" H 4200 4080 30  0001 C CNN
F 2 "~" H 4200 4150 60  0000 C CNN
F 3 "~" H 4200 4150 60  0000 C CNN
	1    4200 4150
	1    0    0    -1  
$EndComp
Wire Wire Line
	4200 4150 4200 4050
Wire Wire Line
	4050 3600 4400 3600
Wire Wire Line
	4200 3600 4200 3650
Connection ~ 4200 3600
Wire Wire Line
	4900 3600 5000 3600
Text GLabel 5000 3800 0    50   Output ~ 0
VDU-ENABLE
Text Label 4650 4000 0    50   ~ 0
PORT-6
Text Label 4650 4200 0    50   ~ 0
PORT-5
Wire Wire Line
	4650 4200 5000 4200
Wire Wire Line
	4650 4000 5000 4000
$Comp
L S80-PORT J3
U 1 1 559BD34E
P 1050 5700
F 0 "J3" H 1050 6400 50  0000 C CNN
F 1 "10 PIN HEADER" H 1050 6300 50  0000 C CNN
F 2 "" H 1050 5700 60  0000 C CNN
F 3 "" H 1050 5700 60  0000 C CNN
	1    1050 5700
	1    0    0    -1  
$EndComp
$Comp
L -16V #PWR036
U 1 1 559BD5C8
P 1650 5150
F 0 "#PWR036" H 1655 5240 50  0001 C CNN
F 1 "-16V" H 1650 5240 50  0000 C CNN
F 2 "~" H 1650 5150 50  0000 C CNN
F 3 "~" H 1650 5150 60  0000 C CNN
	1    1650 5150
	1    0    0    -1  
$EndComp
Wire Wire Line
	1450 5250 1650 5250
Wire Wire Line
	1650 5250 1650 5150
NoConn ~ 1450 6050
NoConn ~ 1450 6150
NoConn ~ 2550 4550
NoConn ~ 2550 4750
NoConn ~ 6900 2350
NoConn ~ 7300 2050
NoConn ~ 4150 1450
NoConn ~ 4150 1950
NoConn ~ 4150 2050
NoConn ~ 4150 2150
$Comp
L +16V #PWR037
U 1 1 559BDDAF
P 1950 5150
F 0 "#PWR037" H 1955 5240 50  0001 C CNN
F 1 "+16V" H 1950 5240 50  0000 C CNN
F 2 "~" H 1950 5150 50  0000 C CNN
F 3 "~" H 1950 5150 60  0000 C CNN
	1    1950 5150
	1    0    0    -1  
$EndComp
Wire Wire Line
	1450 5450 1950 5450
Wire Wire Line
	1950 5450 1950 5150
$Comp
L GND #PWR038
U 1 1 559BDE37
P 1950 6100
F 0 "#PWR038" H 1950 6100 30  0001 C CNN
F 1 "GND" H 1950 6030 30  0001 C CNN
F 2 "~" H 1950 6100 60  0000 C CNN
F 3 "~" H 1950 6100 60  0000 C CNN
	1    1950 6100
	1    0    0    -1  
$EndComp
Text Label 1800 5650 2    50   ~ 0
PORT-5
Text Label 1800 5750 2    50   ~ 0
PORT-6
Text Label 1800 5850 2    50   ~ 0
PORT-7
Text Label 1800 5950 2    50   ~ 0
PORT-8
Wire Wire Line
	1450 5650 1800 5650
Wire Wire Line
	1800 5750 1450 5750
Wire Wire Line
	1450 5850 1800 5850
Wire Wire Line
	1800 5950 1450 5950
Wire Wire Line
	1450 5550 1950 5550
Wire Wire Line
	1950 5550 1950 6100
Text GLabel 10400 1450 0    50   Input ~ 0
INPORT*
$Comp
L S80-74LS04 U22
U 3 1 559BE824
P 6350 5250
F 0 "U22" H 6450 5550 50  0000 C CNN
F 1 "74LS04" H 6450 5450 50  0000 C CNN
F 2 "~" H 6350 5250 60  0000 C CNN
F 3 "~" H 6350 5250 60  0000 C CNN
	3    6350 5250
	-1   0    0    -1  
$EndComp
Wire Wire Line
	5850 5100 5850 5250
Text GLabel 6800 5250 2    50   Input ~ 0
6LATCH*
NoConn ~ 5600 5100
Text Label 6600 3600 2    50   ~ 0
D0
Text Label 6600 3750 2    50   ~ 0
D2
Text Label 6600 4050 2    50   ~ 0
D3
Text Label 6600 4250 2    50   ~ 0
D4
Text Label 6600 4450 2    50   ~ 0
D5
Text Label 6600 4750 2    50   ~ 0
D1
Wire Wire Line
	6400 3600 6600 3600
Wire Wire Line
	6600 3750 6400 3750
Wire Wire Line
	6400 4050 6600 4050
Wire Wire Line
	6600 4250 6400 4250
Wire Wire Line
	6400 4450 6600 4450
Wire Wire Line
	6600 4750 6400 4750
$Comp
L S80-DIPSW-ABCD SW1
U 1 1 559D1359
P 8000 2200
F 0 "SW1" H 8000 1900 50  0000 C CNN
F 1 "4-WAY DIP SWITCH" H 8050 1800 50  0001 C CNN
F 2 "~" V 8000 2200 60  0000 C CNN
F 3 "~" V 8000 2200 60  0000 C CNN
	1    8000 2200
	1    0    0    -1  
$EndComp
$Comp
L S80-U10-81LS95 U10
U 1 1 559D4575
P 10600 2300
F 0 "U10" H 11000 2950 50  0000 C CNN
F 1 "81LS95" H 11000 2850 50  0000 C CNN
F 2 "~" H 10600 2250 60  0000 C CNN
F 3 "~" H 10600 2250 60  0000 C CNN
	1    10600 2300
	1    0    0    -1  
$EndComp
Wire Wire Line
	10400 1450 10700 1450
Wire Wire Line
	10500 1450 10500 1550
Wire Wire Line
	10700 1450 10700 1550
Connection ~ 10500 1450
Wire Wire Line
	8100 1650 8100 1950
Connection ~ 8100 1950
Wire Wire Line
	8100 1050 8100 1150
Connection ~ 8100 1050
Wire Wire Line
	8200 2050 9900 2050
Wire Wire Line
	8500 2050 8500 1650
Connection ~ 8500 2050
Wire Wire Line
	8200 2150 9900 2150
Wire Wire Line
	8900 2150 8900 1650
Connection ~ 8900 2150
Wire Wire Line
	8200 2250 9900 2250
Wire Wire Line
	9300 2250 9300 1650
Connection ~ 9300 2250
Wire Wire Line
	8200 2350 9900 2350
Wire Wire Line
	9700 2350 9700 1650
Connection ~ 9700 2350
NoConn ~ 9900 2650
NoConn ~ 11300 2650
Text Notes 900  4200 0    50   ~ 0
CASSETTE
Text Notes 1000 6350 0    50   ~ 0
PORT
Text GLabel 6800 3400 2    50   BiDi ~ 0
D[0..7]
Entry Wire Line
	6600 3600 6700 3500
Entry Wire Line
	6600 3750 6700 3650
Entry Wire Line
	6600 4050 6700 3950
Entry Wire Line
	6600 4250 6700 4150
Entry Wire Line
	6600 4450 6700 4350
Wire Bus Line
	6700 3400 6700 4650
Wire Bus Line
	6700 3400 6800 3400
Entry Wire Line
	6600 4750 6700 4650
Text GLabel 11700 1750 2    50   BiDi ~ 0
D[0..7]
Entry Wire Line
	11500 1950 11600 1850
Wire Bus Line
	11600 1750 11700 1750
Entry Wire Line
	11500 2050 11600 1950
Entry Wire Line
	11500 2150 11600 2050
Entry Wire Line
	11500 2250 11600 2150
Entry Wire Line
	11500 2350 11600 2250
Entry Wire Line
	11500 2450 11600 2350
Entry Wire Line
	11500 2550 11600 2450
Wire Wire Line
	11300 1950 11500 1950
Wire Wire Line
	11300 2050 11500 2050
Wire Wire Line
	11300 2150 11500 2150
Wire Wire Line
	11300 2250 11500 2250
Wire Wire Line
	11300 2350 11500 2350
Wire Wire Line
	11300 2450 11500 2450
Wire Wire Line
	11300 2550 11500 2550
Wire Bus Line
	11600 1750 11600 2450
$Comp
L S80-U41-74LS139 U41
U 1 1 55A73AB9
P 5600 8050
F 0 "U41" H 5600 8600 50  0000 C CNN
F 1 "74LS139" H 5600 8500 50  0000 C CNN
F 2 "~" H 5600 8050 60  0000 C CNN
F 3 "~" H 5600 8050 60  0000 C CNN
	1    5600 8050
	1    0    0    -1  
$EndComp
Connection ~ 3650 4950
Wire Wire Line
	1800 3900 1800 4650
Wire Wire Line
	1800 4650 2550 4650
Wire Wire Line
	2550 4850 1700 4850
Wire Wire Line
	1700 4850 1700 4000
Wire Wire Line
	5850 5250 5900 5250
Text GLabel 2200 8150 0    50   Input ~ 0
IOREQ-BUFRD*
Wire Wire Line
	2200 8300 2350 8300
Text GLabel 2200 8300 0    50   Input ~ 0
DECODEF*
Wire Wire Line
	2200 8150 2350 8150
Text Label 2200 8000 2    50   ~ 0
A3
Wire Wire Line
	2200 8000 2350 8000
$Comp
L GND #PWR039
U 1 1 55A83B04
P 3450 8550
F 0 "#PWR039" H 3450 8550 30  0001 C CNN
F 1 "GND" H 3450 8480 30  0001 C CNN
F 2 "~" H 3450 8550 60  0000 C CNN
F 3 "~" H 3450 8550 60  0000 C CNN
	1    3450 8550
	1    0    0    -1  
$EndComp
Wire Wire Line
	3450 8550 3450 8300
Wire Wire Line
	3450 8300 3550 8300
Wire Wire Line
	3550 8450 3450 8450
Connection ~ 3450 8450
Text Label 4750 7800 2    50   ~ 0
A1
Text Label 4750 7950 2    50   ~ 0
A0
Text GLabel 6450 7750 2    50   Input ~ 0
6LATCH*
Text GLabel 6450 8150 2    50   Input ~ 0
INPORT*
Text GLabel 6450 7950 2    50   Input ~ 0
VDUCONF*
NoConn ~ 6450 8350
$Comp
L S80-U48-74LS27 U48
U 3 1 55BC98A2
P 2950 8150
F 0 "U48" H 3000 8500 50  0000 C CNN
F 1 "74LS27" H 3000 8400 50  0000 C CNN
F 2 "~" H 2950 8150 60  0000 C CNN
F 3 "~" H 2950 8150 60  0000 C CNN
	3    2950 8150
	1    0    0    -1  
$EndComp
$Comp
L S80-U48-74LS27 U48
U 2 1 55BC9917
P 4150 8300
F 0 "U48" H 4200 8650 50  0000 C CNN
F 1 "74LS27" H 4200 8550 50  0000 C CNN
F 2 "~" H 4150 8300 60  0000 C CNN
F 3 "~" H 4150 8300 60  0000 C CNN
	2    4150 8300
	1    0    0    -1  
$EndComp
Text GLabel 15400 1000 0    50   Input ~ 0
A[0..3]
$EndSCHEMATC
