EESchema Schematic File Version 2
LIBS:mals_library
LIBS:power
LIBS:device
LIBS:transistors
LIBS:conn
LIBS:linear
LIBS:regul
LIBS:74xx
LIBS:cmos4000
LIBS:adc-dac
LIBS:memory
LIBS:xilinx
LIBS:special
LIBS:microcontrollers
LIBS:dsp
LIBS:microchip
LIBS:analog_switches
LIBS:motorola
LIBS:texas
LIBS:intel
LIBS:audio
LIBS:interface
LIBS:digital-audio
LIBS:philips
LIBS:display
LIBS:cypress
LIBS:siliconi
LIBS:opto
LIBS:atmel
LIBS:contrib
LIBS:valves
LIBS:Super 80 Reproduction-cache
EELAYER 27 0
EELAYER END
$Descr A4 11693 8268
encoding utf-8
Sheet 6 7
Title "Super 80 Reproduction"
Date "9 aug 2015"
Rev "0.1"
Comp "Malcolm Macleod"
Comment1 ""
Comment2 ""
Comment3 ""
Comment4 ""
$EndDescr
$Comp
L C C20
U 1 1 55B04168
P 3300 6750
F 0 "C20" H 3350 6950 50  0000 L CNN
F 1 "0.1uF" H 3350 6850 50  0000 L CNN
F 2 "~" H 3250 6750 50  0000 C CNN
F 3 "~" H 3300 6750 60  0000 C CNN
	1    3300 6750
	1    0    0    -1  
$EndComp
$Comp
L C C21
U 1 1 55B0419B
P 3700 6750
F 0 "C21" H 3500 6550 50  0000 L CNN
F 1 "0.1uF" H 3450 6650 50  0000 L CNN
F 2 "~" H 3650 6750 50  0000 C CNN
F 3 "~" H 3700 6750 60  0000 C CNN
	1    3700 6750
	-1   0    0    1   
$EndComp
$Comp
L C C22
U 1 1 55B041E9
P 4100 6750
F 0 "C22" H 3900 6550 50  0000 L CNN
F 1 "0.1uF" H 3850 6650 50  0000 L CNN
F 2 "~" H 4050 6750 50  0000 C CNN
F 3 "~" H 4100 6750 60  0000 C CNN
	1    4100 6750
	-1   0    0    1   
$EndComp
$Comp
L C C63
U 1 1 55B04201
P 6500 6750
F 0 "C63" H 6300 6550 50  0000 L CNN
F 1 "0.1uF" H 6250 6650 50  0000 L CNN
F 2 "~" H 6450 6750 50  0000 C CNN
F 3 "~" H 6500 6750 60  0000 C CNN
	1    6500 6750
	-1   0    0    1   
$EndComp
$Comp
L C C64
U 1 1 55B04219
P 6900 6750
F 0 "C64" H 6950 6950 50  0000 L CNN
F 1 "0.1uF" H 6950 6850 50  0000 L CNN
F 2 "~" H 6850 6750 50  0000 C CNN
F 3 "~" H 6900 6750 60  0000 C CNN
	1    6900 6750
	1    0    0    -1  
$EndComp
$Comp
L +5V #PWR070
U 1 1 55B04233
P 900 6400
F 0 "#PWR070" H 905 6490 50  0001 C CNN
F 1 "+5V" H 900 6490 50  0000 C CNN
F 2 "~" H 900 6400 50  0000 C CNN
F 3 "~" H 900 6400 60  0000 C CNN
	1    900  6400
	1    0    0    -1  
$EndComp
$Comp
L GND #PWR071
U 1 1 55B048BC
P 900 7150
F 0 "#PWR071" H 900 7150 30  0001 C CNN
F 1 "GND" H 900 7080 30  0001 C CNN
F 2 "~" H 900 7150 60  0000 C CNN
F 3 "~" H 900 7150 60  0000 C CNN
	1    900  7150
	1    0    0    -1  
$EndComp
Wire Wire Line
	900  6950 900  7150
Wire Wire Line
	900  7050 6900 7050
Wire Wire Line
	1300 7050 1300 6950
Connection ~ 900  7050
Wire Wire Line
	1700 7050 1700 6950
Connection ~ 1300 7050
Wire Wire Line
	3300 7050 3300 6950
Connection ~ 1700 7050
Wire Wire Line
	3700 7050 3700 6950
Connection ~ 3300 7050
Wire Wire Line
	900  6400 900  6550
Wire Wire Line
	900  6450 6900 6450
Wire Wire Line
	1300 6450 1300 6550
Connection ~ 900  6450
Wire Wire Line
	1700 6450 1700 6550
Connection ~ 1300 6450
Wire Wire Line
	3300 6450 3300 6550
Connection ~ 1700 6450
Wire Wire Line
	3700 6450 3700 6550
Connection ~ 3300 6450
$Comp
L GND #PWR072
U 1 1 55B1C4D1
P 1850 1550
F 0 "#PWR072" H 1850 1550 30  0001 C CNN
F 1 "GND" H 1850 1480 30  0001 C CNN
F 2 "~" H 1850 1550 60  0000 C CNN
F 3 "~" H 1850 1550 60  0000 C CNN
	1    1850 1550
	1    0    0    -1  
$EndComp
$Comp
L C C39
U 1 1 55B1C4DF
P 4000 1150
F 0 "C39" H 4150 1150 50  0000 L CNN
F 1 "0.1uF" H 4150 1050 50  0000 L CNN
F 2 "~" H 3950 1150 50  0000 C CNN
F 3 "~" H 4000 1150 60  0000 C CNN
	1    4000 1150
	1    0    0    -1  
$EndComp
$Comp
L CAP_POLARISED C38
U 1 1 55B1C537
P 4000 1750
F 0 "C38" H 4150 1750 50  0000 L CNN
F 1 "15uF TANT" H 4050 1650 50  0000 L CNN
F 2 "~" H 3950 1750 50  0000 C CNN
F 3 "~" H 4000 1750 60  0000 C CNN
	1    4000 1750
	1    0    0    -1  
$EndComp
Wire Wire Line
	2200 1350 2200 1550
Connection ~ 2200 1450
Wire Wire Line
	1850 1450 1850 1550
$Comp
L +12V #PWR073
U 1 1 55B1C5CD
P 2200 800
F 0 "#PWR073" H 2205 890 50  0001 C CNN
F 1 "+12V" H 2200 890 50  0000 C CNN
F 2 "~" H 2200 800 50  0000 C CNN
F 3 "~" H 2200 800 60  0000 C CNN
	1    2200 800 
	1    0    0    -1  
$EndComp
$Comp
L -5V #PWR074
U 1 1 55B1CC57
P 2200 2100
F 0 "#PWR074" H 2205 2190 50  0001 C CNN
F 1 "-5V" H 2200 2190 50  0000 C CNN
F 2 "~" H 2200 2100 50  0000 C CNN
F 3 "~" H 2200 2100 60  0000 C CNN
	1    2200 2100
	1    0    0    1   
$EndComp
Wire Wire Line
	2200 800  2200 950 
Wire Wire Line
	2200 1950 2200 2100
$Comp
L CAP_POLARISED C37
U 1 1 55B1CCB9
P 3400 1150
F 0 "C37" H 3550 1150 50  0000 L CNN
F 1 "1.5uF TANT" H 3450 1050 50  0000 L CNN
F 2 "~" H 3350 1150 50  0000 C CNN
F 3 "~" H 3400 1150 60  0000 C CNN
	1    3400 1150
	1    0    0    -1  
$EndComp
$Comp
L C C36
U 1 1 55B1CCD1
P 3400 1750
F 0 "C36" H 3550 1750 50  0000 L CNN
F 1 "0.1uF" H 3550 1650 50  0000 L CNN
F 2 "~" H 3350 1750 50  0000 C CNN
F 3 "~" H 3400 1750 60  0000 C CNN
	1    3400 1750
	1    0    0    -1  
$EndComp
$Comp
L C C35
U 1 1 55B1D340
P 2800 1150
F 0 "C35" H 2950 1150 50  0000 L CNN
F 1 "0.1uF" H 2950 1050 50  0000 L CNN
F 2 "~" H 2750 1150 50  0000 C CNN
F 3 "~" H 2800 1150 60  0000 C CNN
	1    2800 1150
	1    0    0    -1  
$EndComp
$Comp
L CAP_POLARISED C34
U 1 1 55B1D358
P 2800 1750
F 0 "C34" H 2950 1750 50  0000 L CNN
F 1 "15uF TANT" H 2850 1650 50  0000 L CNN
F 2 "~" H 2750 1750 50  0000 C CNN
F 3 "~" H 2800 1750 60  0000 C CNN
	1    2800 1750
	1    0    0    -1  
$EndComp
$Comp
L CAP_POLARISED C33
U 1 1 55B1D370
P 2200 1150
F 0 "C33" H 2350 1150 50  0000 L CNN
F 1 "1.5uF TANT" H 2250 1050 50  0000 L CNN
F 2 "~" H 2150 1150 50  0000 C CNN
F 3 "~" H 2200 1150 60  0000 C CNN
	1    2200 1150
	1    0    0    -1  
$EndComp
$Comp
L C C32
U 1 1 55B1D388
P 2200 1750
F 0 "C32" H 2350 1750 50  0000 L CNN
F 1 "0.1uF" H 2350 1650 50  0000 L CNN
F 2 "~" H 2150 1750 50  0000 C CNN
F 3 "~" H 2200 1750 60  0000 C CNN
	1    2200 1750
	1    0    0    -1  
$EndComp
Wire Wire Line
	2200 850  8800 850 
Wire Wire Line
	2800 850  2800 950 
Connection ~ 2200 850 
Wire Wire Line
	3400 850  3400 950 
Connection ~ 2800 850 
Wire Wire Line
	4000 850  4000 950 
Connection ~ 3400 850 
Wire Wire Line
	2200 2050 8800 2050
Wire Wire Line
	2800 2050 2800 1950
Connection ~ 2200 2050
Wire Wire Line
	3400 2050 3400 1950
Connection ~ 2800 2050
Wire Wire Line
	4000 2050 4000 1950
Connection ~ 3400 2050
Wire Wire Line
	2800 1350 2800 1550
Connection ~ 2800 1450
Wire Wire Line
	3400 1350 3400 1550
Connection ~ 3400 1450
Wire Wire Line
	4000 1350 4000 1550
Connection ~ 4000 1450
Wire Wire Line
	1850 1450 8800 1450
$Comp
L CAP_POLARISED C46
U 1 1 55B1DC17
P 6400 1150
F 0 "C46" H 6550 1150 50  0000 L CNN
F 1 "1.5uF TANT" H 6450 1050 50  0000 L CNN
F 2 "~" H 6350 1150 50  0000 C CNN
F 3 "~" H 6400 1150 60  0000 C CNN
	1    6400 1150
	1    0    0    -1  
$EndComp
$Comp
L C C47
U 1 1 55B1DC1D
P 6400 1750
F 0 "C47" H 6550 1750 50  0000 L CNN
F 1 "0.1uF" H 6550 1650 50  0000 L CNN
F 2 "~" H 6350 1750 50  0000 C CNN
F 3 "~" H 6400 1750 60  0000 C CNN
	1    6400 1750
	1    0    0    -1  
$EndComp
$Comp
L C C44
U 1 1 55B1DC23
P 5800 1150
F 0 "C44" H 5950 1150 50  0000 L CNN
F 1 "0.1uF" H 5950 1050 50  0000 L CNN
F 2 "~" H 5750 1150 50  0000 C CNN
F 3 "~" H 5800 1150 60  0000 C CNN
	1    5800 1150
	1    0    0    -1  
$EndComp
$Comp
L CAP_POLARISED C45
U 1 1 55B1DC29
P 5800 1750
F 0 "C45" H 5950 1750 50  0000 L CNN
F 1 "15uF TANT" H 5850 1650 50  0000 L CNN
F 2 "~" H 5750 1750 50  0000 C CNN
F 3 "~" H 5800 1750 60  0000 C CNN
	1    5800 1750
	1    0    0    -1  
$EndComp
$Comp
L CAP_POLARISED C42
U 1 1 55B1DC2F
P 5200 1150
F 0 "C42" H 5350 1150 50  0000 L CNN
F 1 "1.5uF TANT" H 5250 1050 50  0000 L CNN
F 2 "~" H 5150 1150 50  0000 C CNN
F 3 "~" H 5200 1150 60  0000 C CNN
	1    5200 1150
	1    0    0    -1  
$EndComp
$Comp
L C C43
U 1 1 55B1DC35
P 5200 1750
F 0 "C43" H 5350 1750 50  0000 L CNN
F 1 "0.1uF" H 5350 1650 50  0000 L CNN
F 2 "~" H 5150 1750 50  0000 C CNN
F 3 "~" H 5200 1750 60  0000 C CNN
	1    5200 1750
	1    0    0    -1  
$EndComp
Wire Wire Line
	4600 850  4600 950 
Wire Wire Line
	5200 850  5200 950 
Connection ~ 4600 850 
Wire Wire Line
	5800 850  5800 950 
Connection ~ 5200 850 
Wire Wire Line
	4600 2050 4600 1950
Wire Wire Line
	5200 2050 5200 1950
Connection ~ 4600 2050
Wire Wire Line
	5800 2050 5800 1950
Connection ~ 5200 2050
Wire Wire Line
	4600 1350 4600 1550
Connection ~ 4600 1450
Wire Wire Line
	5200 1350 5200 1550
Connection ~ 5200 1450
Wire Wire Line
	5800 1350 5800 1550
Connection ~ 5800 1450
$Comp
L C C40
U 1 1 55B1DCC6
P 4600 1150
F 0 "C40" H 4750 1150 50  0000 L CNN
F 1 "0.1uF" H 4750 1050 50  0000 L CNN
F 2 "~" H 4550 1150 50  0000 C CNN
F 3 "~" H 4600 1150 60  0000 C CNN
	1    4600 1150
	1    0    0    -1  
$EndComp
$Comp
L CAP_POLARISED C41
U 1 1 55B1DCCC
P 4600 1750
F 0 "C41" H 4750 1750 50  0000 L CNN
F 1 "15uF TANT" H 4650 1650 50  0000 L CNN
F 2 "~" H 4550 1750 50  0000 C CNN
F 3 "~" H 4600 1750 60  0000 C CNN
	1    4600 1750
	1    0    0    -1  
$EndComp
Wire Wire Line
	6400 1350 6400 1550
Connection ~ 6400 1450
Wire Wire Line
	6400 850  6400 950 
Connection ~ 5800 850 
Wire Wire Line
	6400 2050 6400 1950
Connection ~ 5800 2050
Connection ~ 4000 850 
Connection ~ 4000 2050
$Comp
L CAP_POLARISED C49
U 1 1 55B1F0FB
P 7000 1150
F 0 "C49" H 7150 1150 50  0000 L CNN
F 1 "1.5uF TANT" H 7050 1050 50  0000 L CNN
F 2 "~" H 6950 1150 50  0000 C CNN
F 3 "~" H 7000 1150 60  0000 C CNN
	1    7000 1150
	1    0    0    -1  
$EndComp
$Comp
L C C48
U 1 1 55B1F101
P 7000 1750
F 0 "C48" H 7150 1750 50  0000 L CNN
F 1 "0.1uF" H 7150 1650 50  0000 L CNN
F 2 "~" H 6950 1750 50  0000 C CNN
F 3 "~" H 7000 1750 60  0000 C CNN
	1    7000 1750
	1    0    0    -1  
$EndComp
Wire Wire Line
	7000 1350 7000 1550
Connection ~ 7000 1450
$Comp
L C C51
U 1 1 55B1F13F
P 7600 1150
F 0 "C51" H 7750 1150 50  0000 L CNN
F 1 "0.1uF" H 7750 1050 50  0000 L CNN
F 2 "~" H 7550 1150 50  0000 C CNN
F 3 "~" H 7600 1150 60  0000 C CNN
	1    7600 1150
	1    0    0    -1  
$EndComp
$Comp
L CAP_POLARISED C50
U 1 1 55B1F145
P 7600 1750
F 0 "C50" H 7750 1750 50  0000 L CNN
F 1 "15uF TANT" H 7650 1650 50  0000 L CNN
F 2 "~" H 7550 1750 50  0000 C CNN
F 3 "~" H 7600 1750 60  0000 C CNN
	1    7600 1750
	1    0    0    -1  
$EndComp
Wire Wire Line
	7600 1350 7600 1550
Connection ~ 7600 1450
$Comp
L CAP_POLARISED C53
U 1 1 55B1F18D
P 8200 1150
F 0 "C53" H 8350 1150 50  0000 L CNN
F 1 "1.5uF TANT" H 8250 1050 50  0000 L CNN
F 2 "~" H 8150 1150 50  0000 C CNN
F 3 "~" H 8200 1150 60  0000 C CNN
	1    8200 1150
	1    0    0    -1  
$EndComp
$Comp
L C C52
U 1 1 55B1F193
P 8200 1750
F 0 "C52" H 8350 1750 50  0000 L CNN
F 1 "0.1uF" H 8350 1650 50  0000 L CNN
F 2 "~" H 8150 1750 50  0000 C CNN
F 3 "~" H 8200 1750 60  0000 C CNN
	1    8200 1750
	1    0    0    -1  
$EndComp
Wire Wire Line
	8200 1350 8200 1550
Connection ~ 8200 1450
$Comp
L C C55
U 1 1 55B1F19D
P 8800 1150
F 0 "C55" H 8950 1150 50  0000 L CNN
F 1 "0.1uF" H 8950 1050 50  0000 L CNN
F 2 "~" H 8750 1150 50  0000 C CNN
F 3 "~" H 8800 1150 60  0000 C CNN
	1    8800 1150
	1    0    0    -1  
$EndComp
$Comp
L CAP_POLARISED C54
U 1 1 55B1F1A3
P 8800 1750
F 0 "C54" H 8950 1750 50  0000 L CNN
F 1 "15uF TANT" H 8850 1650 50  0000 L CNN
F 2 "~" H 8750 1750 50  0000 C CNN
F 3 "~" H 8800 1750 60  0000 C CNN
	1    8800 1750
	1    0    0    -1  
$EndComp
Wire Wire Line
	8800 1350 8800 1550
Connection ~ 8800 1450
Wire Wire Line
	7000 850  7000 950 
Connection ~ 6400 850 
Wire Wire Line
	7600 850  7600 950 
Connection ~ 7000 850 
Wire Wire Line
	8200 850  8200 950 
Connection ~ 7600 850 
Wire Wire Line
	8800 850  8800 950 
Connection ~ 8200 850 
Wire Wire Line
	7000 2050 7000 1950
Connection ~ 6400 2050
Wire Wire Line
	7600 2050 7600 1950
Connection ~ 7000 2050
Wire Wire Line
	8200 2050 8200 1950
Connection ~ 7600 2050
Wire Wire Line
	8800 2050 8800 1950
Connection ~ 8200 2050
$Comp
L C C62
U 1 1 55B21993
P 6100 6750
F 0 "C62" H 5900 6550 50  0000 L CNN
F 1 "0.1uF" H 5850 6650 50  0000 L CNN
F 2 "~" H 6050 6750 50  0000 C CNN
F 3 "~" H 6100 6750 60  0000 C CNN
	1    6100 6750
	-1   0    0    1   
$EndComp
Wire Wire Line
	2900 6550 2900 6450
Connection ~ 2900 6450
Wire Wire Line
	2900 6950 2900 7050
Connection ~ 2900 7050
$Comp
L C C25
U 1 1 55B22072
P 4900 6750
F 0 "C25" H 4950 6950 50  0000 L CNN
F 1 "0.1uF" H 4950 6850 50  0000 L CNN
F 2 "~" H 4850 6750 50  0000 C CNN
F 3 "~" H 4900 6750 60  0000 C CNN
	1    4900 6750
	1    0    0    -1  
$EndComp
Wire Wire Line
	2100 6550 2100 6450
Connection ~ 2100 6450
Wire Wire Line
	2100 6950 2100 7050
Connection ~ 2100 7050
$Comp
L DIODE CR7
U 1 1 55B25009
P 4350 2600
F 0 "CR7" H 4200 2700 50  0000 C CNN
F 1 "1N4001" H 4500 2700 50  0000 C CNN
F 2 "~" H 4250 2600 50  0000 C CNN
F 3 "~" H 4350 2600 60  0000 C CNN
	1    4350 2600
	1    0    0    -1  
$EndComp
$Comp
L DIODE CR8
U 1 1 55B25016
P 4350 3000
F 0 "CR8" H 4500 3100 50  0000 C CNN
F 1 "1N4001" H 4200 3100 50  0000 C CNN
F 2 "~" H 4250 3000 50  0000 C CNN
F 3 "~" H 4350 3000 60  0000 C CNN
	1    4350 3000
	-1   0    0    -1  
$EndComp
$Comp
L DIODE CR6
U 1 1 55B2501C
P 4350 3400
F 0 "CR6" H 4200 3500 50  0000 C CNN
F 1 "1N4001" H 4500 3500 50  0000 C CNN
F 2 "~" H 4250 3400 50  0000 C CNN
F 3 "~" H 4350 3400 60  0000 C CNN
	1    4350 3400
	1    0    0    -1  
$EndComp
$Comp
L DIODE CR5
U 1 1 55B25022
P 4350 3800
F 0 "CR5" H 4500 3900 50  0000 C CNN
F 1 "1N4001" H 4200 3900 50  0000 C CNN
F 2 "~" H 4250 3800 50  0000 C CNN
F 3 "~" H 4350 3800 60  0000 C CNN
	1    4350 3800
	-1   0    0    -1  
$EndComp
Wire Wire Line
	4950 2550 4950 3400
Wire Wire Line
	4550 2600 6150 2600
Connection ~ 4850 3800
Connection ~ 4950 2600
Wire Wire Line
	4050 3000 4050 2600
Connection ~ 4050 2600
$Comp
L S80-TRANSFORMER-HDR J1
U 1 1 55B2577D
P 2750 2950
F 0 "J1" H 2850 3500 50  0000 C CNN
F 1 "8 PIN HEADER" H 2850 3400 50  0000 C CNN
F 2 "~" H 2850 2850 60  0000 C CNN
F 3 "~" H 2850 2850 60  0000 C CNN
	1    2750 2950
	-1   0    0    -1  
$EndComp
Wire Wire Line
	3750 2900 3750 3800
$Comp
L GND #PWR075
U 1 1 55B2592B
P 3300 2800
F 0 "#PWR075" H 3300 2800 30  0001 C CNN
F 1 "GND" H 3300 2730 30  0001 C CNN
F 2 "~" H 3300 2800 60  0000 C CNN
F 3 "~" H 3300 2800 60  0000 C CNN
	1    3300 2800
	1    0    0    -1  
$EndComp
Wire Wire Line
	3050 2700 3300 2700
Wire Wire Line
	3300 2700 3300 2800
Wire Wire Line
	3050 2800 3150 2800
Wire Wire Line
	3150 2800 3150 2700
Connection ~ 3150 2700
Text Notes 2400 3500 0    50   ~ 0
TRANSFORMER
$Comp
L CAP_POLARISED C4
U 1 1 55B25A3D
P 5350 3500
F 0 "C4" H 5500 3500 50  0000 L CNN
F 1 "1000uF" H 5400 3400 50  0000 L CNN
F 2 "~" H 5300 3500 50  0000 C CNN
F 3 "~" H 5350 3500 60  0000 C CNN
	1    5350 3500
	1    0    0    -1  
$EndComp
Wire Wire Line
	4050 3000 4150 3000
Wire Wire Line
	3750 3800 4150 3800
Wire Wire Line
	4150 3400 4050 3400
Wire Wire Line
	4050 3400 4050 3800
Connection ~ 4050 3800
Wire Wire Line
	4950 3400 4550 3400
Wire Wire Line
	4550 3000 4850 3000
Wire Wire Line
	4850 3000 4850 3850
Wire Wire Line
	4550 3800 6150 3800
Wire Wire Line
	5350 3800 5350 3700
Wire Wire Line
	5350 2600 5350 2700
Wire Wire Line
	5350 3100 5350 3300
$Comp
L CAP_POLARISED C2
U 1 1 55B2605E
P 5350 2900
F 0 "C2" H 5500 2900 50  0000 L CNN
F 1 "1000uF" H 5400 2800 50  0000 L CNN
F 2 "~" H 5300 2900 50  0000 C CNN
F 3 "~" H 5350 2900 60  0000 C CNN
	1    5350 2900
	1    0    0    -1  
$EndComp
Wire Wire Line
	3050 2600 4150 2600
Wire Wire Line
	3050 2900 3750 2900
$Comp
L CAP_POLARISED C31
U 1 1 55B2617F
P 5950 2900
F 0 "C31" H 6100 2900 50  0000 L CNN
F 1 "10uF" H 6100 2800 50  0000 L CNN
F 2 "~" H 5900 2900 50  0000 C CNN
F 3 "~" H 5950 2900 60  0000 C CNN
	1    5950 2900
	1    0    0    -1  
$EndComp
$Comp
L 7805 U80
U 1 1 55B265C6
P 6550 2600
F 0 "U80" H 6650 2350 50  0000 C CNN
F 1 "7812T" H 6550 2750 50  0000 C CNN
F 2 "~" H 6550 2550 60  0000 C CNN
F 3 "~" H 6550 2550 60  0000 C CNN
	1    6550 2600
	1    0    0    -1  
$EndComp
$Comp
L CAP_POLARISED C30
U 1 1 55B265E5
P 7150 2900
F 0 "C30" H 7300 3050 50  0000 L CNN
F 1 "10uF" H 7300 2950 50  0000 L CNN
F 2 "~" H 7100 2900 50  0000 C CNN
F 3 "~" H 7150 2900 60  0000 C CNN
	1    7150 2900
	1    0    0    -1  
$EndComp
Wire Wire Line
	5350 3200 7450 3200
Wire Wire Line
	5950 3200 5950 3100
Connection ~ 5350 3200
Wire Wire Line
	6550 2900 6550 3500
Connection ~ 5950 3200
Wire Wire Line
	7150 3100 7150 3300
Connection ~ 6550 3200
Wire Wire Line
	5950 2600 5950 2700
Connection ~ 5350 2600
Connection ~ 5950 2600
Wire Wire Line
	6950 2600 7450 2600
Wire Wire Line
	7150 2550 7150 2700
$Comp
L 7905 U2
U 1 1 55B264F9
P 6550 3800
F 0 "U2" H 6650 4050 50  0000 C CNN
F 1 "7905T" H 6550 3650 50  0000 C CNN
F 2 "~" H 6550 3850 60  0000 C CNN
F 3 "~" H 6550 3850 60  0000 C CNN
	1    6550 3800
	1    0    0    -1  
$EndComp
$Comp
L CAP_POLARISED C5
U 1 1 55B26506
P 7150 3500
F 0 "C5" H 7300 3500 50  0000 L CNN
F 1 "10uF" H 7300 3400 50  0000 L CNN
F 2 "~" H 7100 3500 50  0000 C CNN
F 3 "~" H 7150 3500 60  0000 C CNN
	1    7150 3500
	1    0    0    -1  
$EndComp
Connection ~ 5350 3800
Wire Wire Line
	6950 3800 7450 3800
Wire Wire Line
	7150 3700 7150 3850
Connection ~ 7150 3200
$Comp
L GND #PWR076
U 1 1 55B2678B
P 7450 3300
F 0 "#PWR076" H 7450 3300 30  0001 C CNN
F 1 "GND" H 7450 3230 30  0001 C CNN
F 2 "~" H 7450 3300 60  0000 C CNN
F 3 "~" H 7450 3300 60  0000 C CNN
	1    7450 3300
	1    0    0    -1  
$EndComp
Wire Wire Line
	7450 3150 7450 3300
$Comp
L -5V #PWR077
U 1 1 55B26822
P 7150 3850
F 0 "#PWR077" H 7155 3940 50  0001 C CNN
F 1 "-5V" H 7150 3940 50  0000 C CNN
F 2 "~" H 7150 3850 50  0000 C CNN
F 3 "~" H 7150 3850 60  0000 C CNN
	1    7150 3850
	1    0    0    1   
$EndComp
$Comp
L +12V #PWR078
U 1 1 55B26828
P 7150 2550
F 0 "#PWR078" H 7155 2640 50  0001 C CNN
F 1 "+12V" H 7150 2640 50  0000 C CNN
F 2 "~" H 7150 2550 50  0000 C CNN
F 3 "~" H 7150 2550 60  0000 C CNN
	1    7150 2550
	1    0    0    -1  
$EndComp
Connection ~ 7150 2600
Connection ~ 7150 3800
Text GLabel 7450 2600 2    50   Output ~ 0
VDD
Text GLabel 7450 3800 2    50   Output ~ 0
VBB
Text Notes 3050 2600 2    50   ~ 0
W
Text Notes 3050 2700 2    50   ~ 0
V
Text Notes 3050 2800 2    50   ~ 0
U
Text Notes 3050 2900 2    50   ~ 0
X
Text Notes 3050 3100 2    50   ~ 0
Y
Text Notes 3050 3200 2    50   ~ 0
Z
Text Notes 3050 3300 2    50   ~ 0
G
$Comp
L DIODE CR3
U 1 1 55B28865
P 4350 4350
F 0 "CR3" H 4200 4450 50  0000 C CNN
F 1 "MUR420G" H 4500 4450 50  0000 C CNN
F 2 "~" H 4250 4350 50  0000 C CNN
F 3 "~" H 4350 4350 60  0000 C CNN
	1    4350 4350
	1    0    0    -1  
$EndComp
$Comp
L DIODE CR4
U 1 1 55B2886B
P 4350 4650
F 0 "CR4" H 4500 4750 50  0000 C CNN
F 1 "MUR420G" H 4200 4750 50  0000 C CNN
F 2 "~" H 4250 4650 50  0000 C CNN
F 3 "~" H 4350 4650 60  0000 C CNN
	1    4350 4650
	-1   0    0    -1  
$EndComp
$Comp
L DIODE CR2
U 1 1 55B28871
P 4350 4950
F 0 "CR2" H 4200 5050 50  0000 C CNN
F 1 "MUR420G" H 4500 5050 50  0000 C CNN
F 2 "~" H 4250 4950 50  0000 C CNN
F 3 "~" H 4350 4950 60  0000 C CNN
	1    4350 4950
	1    0    0    -1  
$EndComp
$Comp
L DIODE CR1
U 1 1 55B28877
P 4350 5250
F 0 "CR1" H 4500 5350 50  0000 C CNN
F 1 "MUR420G" H 4200 5350 50  0000 C CNN
F 2 "~" H 4250 5250 50  0000 C CNN
F 3 "~" H 4350 5250 60  0000 C CNN
	1    4350 5250
	-1   0    0    -1  
$EndComp
Connection ~ 4950 4350
Wire Wire Line
	4050 4650 4050 4350
Connection ~ 4050 4350
Wire Wire Line
	5350 4350 5350 4450
Wire Wire Line
	5350 5250 5350 4850
$Comp
L CAP_POLARISED C1
U 1 1 55B28895
P 5350 4650
F 0 "C1" H 5500 4650 50  0000 L CNN
F 1 "5600uF" H 5400 4550 50  0000 L CNN
F 2 "~" H 5300 4650 50  0000 C CNN
F 3 "~" H 5350 4650 60  0000 C CNN
	1    5350 4650
	1    0    0    -1  
$EndComp
Wire Wire Line
	3550 4350 4150 4350
$Comp
L CAP_POLARISED C3
U 1 1 55B2889C
P 5950 4650
F 0 "C3" H 6100 4650 50  0000 L CNN
F 1 "5600uF" H 6000 4550 50  0000 L CNN
F 2 "~" H 5900 4650 50  0000 C CNN
F 3 "~" H 5950 4650 60  0000 C CNN
	1    5950 4650
	1    0    0    -1  
$EndComp
$Comp
L 7805 U81
U 1 1 55B288A2
P 7150 4350
F 0 "U81" H 7250 4100 50  0000 C CNN
F 1 "7805T" H 7150 4500 50  0000 C CNN
F 2 "~" H 7150 4300 60  0000 C CNN
F 3 "~" H 7150 4300 60  0000 C CNN
	1    7150 4350
	1    0    0    -1  
$EndComp
$Comp
L CAP_POLARISED C28
U 1 1 55B288A8
P 7750 4650
F 0 "C28" H 7900 4650 50  0000 L CNN
F 1 "10uF" H 7900 4550 50  0000 L CNN
F 2 "~" H 7700 4650 50  0000 C CNN
F 3 "~" H 7750 4650 60  0000 C CNN
	1    7750 4650
	1    0    0    -1  
$EndComp
Wire Wire Line
	5350 4950 8050 4950
Wire Wire Line
	5950 4950 5950 4850
Connection ~ 5350 4950
Connection ~ 5950 4950
Connection ~ 7150 4950
Wire Wire Line
	5950 4350 5950 4450
Connection ~ 5350 4350
Connection ~ 5950 4350
Wire Wire Line
	7550 4350 8050 4350
Wire Wire Line
	7750 4300 7750 4450
Connection ~ 7750 4950
$Comp
L GND #PWR079
U 1 1 55B288CA
P 8050 5050
F 0 "#PWR079" H 8050 5050 30  0001 C CNN
F 1 "GND" H 8050 4980 30  0001 C CNN
F 2 "~" H 8050 5050 60  0000 C CNN
F 3 "~" H 8050 5050 60  0000 C CNN
	1    8050 5050
	1    0    0    -1  
$EndComp
Wire Wire Line
	8050 4950 8050 5050
Connection ~ 7750 4350
Text GLabel 8050 4350 2    50   Output ~ 0
VCC
Wire Wire Line
	4150 4650 4050 4650
Wire Wire Line
	4150 4950 4050 4950
Wire Wire Line
	4050 4950 4050 5250
Wire Wire Line
	3050 3100 3550 3100
Wire Wire Line
	3550 3100 3550 4350
Wire Wire Line
	3050 3200 3450 3200
Wire Wire Line
	3450 3200 3450 5250
Wire Wire Line
	3450 5250 4150 5250
Connection ~ 4050 5250
Wire Wire Line
	4550 4650 4850 4650
Wire Wire Line
	4850 4650 4850 5950
Wire Wire Line
	4950 4950 4550 4950
Wire Wire Line
	4550 5250 5350 5250
Connection ~ 4850 5250
Wire Wire Line
	4550 4350 6750 4350
Wire Wire Line
	7150 4650 7150 4950
Wire Wire Line
	7750 4850 7750 4950
$Comp
L +5V #PWR080
U 1 1 55B2987D
P 7750 4300
F 0 "#PWR080" H 7755 4390 50  0001 C CNN
F 1 "+5V" H 7750 4390 50  0000 C CNN
F 2 "~" H 7750 4300 50  0000 C CNN
F 3 "~" H 7750 4300 60  0000 C CNN
	1    7750 4300
	1    0    0    -1  
$EndComp
$Comp
L CAP_POLARISED C27
U 1 1 55B2988D
P 6550 5650
F 0 "C27" H 6700 5650 50  0000 L CNN
F 1 "10uF" H 6700 5550 50  0000 L CNN
F 2 "~" H 6500 5650 50  0000 C CNN
F 3 "~" H 6550 5650 60  0000 C CNN
	1    6550 5650
	1    0    0    -1  
$EndComp
$Comp
L 7805 U82
U 1 1 55B29893
P 7150 5350
F 0 "U82" H 7250 5100 50  0000 C CNN
F 1 "7805T" H 7150 5500 50  0000 C CNN
F 2 "~" H 7150 5300 60  0000 C CNN
F 3 "~" H 7150 5300 60  0000 C CNN
	1    7150 5350
	1    0    0    -1  
$EndComp
$Comp
L CAP_POLARISED C26
U 1 1 55B29899
P 7750 5650
F 0 "C26" H 7900 5650 50  0000 L CNN
F 1 "10uF" H 7900 5550 50  0000 L CNN
F 2 "~" H 7700 5650 50  0000 C CNN
F 3 "~" H 7750 5650 60  0000 C CNN
	1    7750 5650
	1    0    0    -1  
$EndComp
Wire Wire Line
	4850 5950 8050 5950
Connection ~ 7150 5950
Wire Wire Line
	7550 5350 8050 5350
Wire Wire Line
	7750 5300 7750 5450
Connection ~ 7750 5950
$Comp
L GND #PWR081
U 1 1 55B298A8
P 8050 6050
F 0 "#PWR081" H 8050 6050 30  0001 C CNN
F 1 "GND" H 8050 5980 30  0001 C CNN
F 2 "~" H 8050 6050 60  0000 C CNN
F 3 "~" H 8050 6050 60  0000 C CNN
	1    8050 6050
	1    0    0    -1  
$EndComp
Wire Wire Line
	8050 5950 8050 6050
Connection ~ 7750 5350
Text GLabel 8050 5350 2    50   Output ~ 0
VCC
Wire Wire Line
	4950 5350 6750 5350
Wire Wire Line
	7150 5650 7150 5950
Wire Wire Line
	7750 5850 7750 5950
$Comp
L +5V #PWR082
U 1 1 55B298B4
P 7750 5300
F 0 "#PWR082" H 7755 5390 50  0001 C CNN
F 1 "+5V" H 7750 5390 50  0000 C CNN
F 2 "~" H 7750 5300 50  0000 C CNN
F 3 "~" H 7750 5300 60  0000 C CNN
	1    7750 5300
	1    0    0    -1  
$EndComp
Connection ~ 4950 4950
$Comp
L CAP_POLARISED C29
U 1 1 55B29B8F
P 6550 4650
F 0 "C29" H 6700 4650 50  0000 L CNN
F 1 "10uF" H 6700 4550 50  0000 L CNN
F 2 "~" H 6500 4650 50  0000 C CNN
F 3 "~" H 6550 4650 60  0000 C CNN
	1    6550 4650
	1    0    0    -1  
$EndComp
Wire Wire Line
	6550 4450 6550 4350
Connection ~ 6550 4350
Wire Wire Line
	6550 4850 6550 4950
Connection ~ 6550 4950
Wire Wire Line
	6550 5450 6550 5350
Connection ~ 6550 5350
Wire Wire Line
	6550 5850 6550 5950
Connection ~ 6550 5950
$Comp
L GND #PWR083
U 1 1 55B2B040
P 3300 3400
F 0 "#PWR083" H 3300 3400 30  0001 C CNN
F 1 "GND" H 3300 3330 30  0001 C CNN
F 2 "~" H 3300 3400 60  0000 C CNN
F 3 "~" H 3300 3400 60  0000 C CNN
	1    3300 3400
	1    0    0    -1  
$EndComp
Wire Wire Line
	3050 3300 3300 3300
Wire Wire Line
	3300 3300 3300 3400
Text Notes 2950 3600 2    50   ~ 0
0.156" SPACING
$Comp
L C C58
U 1 1 55B64014
P 5700 6750
F 0 "C58" H 5750 6950 50  0000 L CNN
F 1 "0.1uF" H 5750 6850 50  0000 L CNN
F 2 "~" H 5650 6750 50  0000 C CNN
F 3 "~" H 5700 6750 60  0000 C CNN
	1    5700 6750
	1    0    0    -1  
$EndComp
Wire Wire Line
	2500 6550 2500 6450
Wire Wire Line
	2500 6950 2500 7050
Connection ~ 2500 6450
Connection ~ 2500 7050
$Comp
L C C9
U 1 1 55B8BE49
P 1300 6750
F 0 "C9" H 1100 6550 50  0000 L CNN
F 1 "0.1uF" H 1050 6650 50  0000 L CNN
F 2 "~" H 1250 6750 50  0000 C CNN
F 3 "~" H 1300 6750 60  0000 C CNN
	1    1300 6750
	-1   0    0    1   
$EndComp
Text Notes 1350 6900 0    50   ~ 0
(U1)
Wire Wire Line
	4100 6450 4100 6550
Connection ~ 3700 6450
Wire Wire Line
	4100 7050 4100 6950
Connection ~ 3700 7050
$Comp
L C C7
U 1 1 55B8CD31
P 900 6750
F 0 "C7" H 700 6550 50  0000 L CNN
F 1 "0.1uF" H 650 6650 50  0000 L CNN
F 2 "~" H 850 6750 50  0000 C CNN
F 3 "~" H 900 6750 60  0000 C CNN
	1    900  6750
	-1   0    0    1   
$EndComp
Text Notes 950  6900 0    50   ~ 0
(U10)
Wire Wire Line
	4500 6450 4500 6550
Connection ~ 4100 6450
Wire Wire Line
	4500 7050 4500 6950
Connection ~ 4100 7050
$Comp
L C C11
U 1 1 55BA04CE
P 1700 6750
F 0 "C11" H 1750 6550 50  0000 L CNN
F 1 "0.1uF" H 1750 6650 50  0000 L CNN
F 2 "~" H 1650 6750 50  0000 C CNN
F 3 "~" H 1700 6750 60  0000 C CNN
	1    1700 6750
	1    0    0    1   
$EndComp
Text Notes 1750 6900 0    50   ~ 0
(U11)
Wire Wire Line
	4900 6450 4900 6550
Connection ~ 4500 6450
Wire Wire Line
	4900 7050 4900 6950
Connection ~ 4500 7050
$Comp
L C C15
U 1 1 55BA21B3
P 2100 6750
F 0 "C15" H 2150 6550 50  0000 L CNN
F 1 "0.1uF" H 2150 6650 50  0000 L CNN
F 2 "~" H 2050 6750 50  0000 C CNN
F 3 "~" H 2100 6750 60  0000 C CNN
	1    2100 6750
	1    0    0    1   
$EndComp
Text Notes 2150 6900 0    50   ~ 0
(U6)
Wire Wire Line
	5300 6450 5300 6550
Connection ~ 4900 6450
Wire Wire Line
	5300 7050 5300 6950
Connection ~ 4900 7050
$Comp
L C C16
U 1 1 55BA294F
P 2500 6750
F 0 "C16" H 2550 6550 50  0000 L CNN
F 1 "0.1uF" H 2550 6650 50  0000 L CNN
F 2 "~" H 2450 6750 50  0000 C CNN
F 3 "~" H 2500 6750 60  0000 C CNN
	1    2500 6750
	1    0    0    1   
$EndComp
Text Notes 2550 6900 0    50   ~ 0
(U15)
Wire Wire Line
	5700 6450 5700 6550
Connection ~ 5300 6450
Wire Wire Line
	5700 7050 5700 6950
Connection ~ 5300 7050
Wire Wire Line
	6100 6450 6100 6550
Connection ~ 5700 6450
Wire Wire Line
	6100 7050 6100 6950
Connection ~ 5700 7050
$Comp
L C C18
U 1 1 55BA3A05
P 2900 6750
F 0 "C18" H 2950 6550 50  0000 L CNN
F 1 "0.1uF" H 2950 6650 50  0000 L CNN
F 2 "~" H 2850 6750 50  0000 C CNN
F 3 "~" H 2900 6750 60  0000 C CNN
	1    2900 6750
	1    0    0    1   
$EndComp
Text Notes 2950 6900 0    50   ~ 0
(U8)
$Comp
L +8V #PWR084
U 1 1 55BC9B34
P 4950 4300
F 0 "#PWR084" H 4955 4390 50  0001 C CNN
F 1 "+8V" H 4950 4390 50  0000 C CNN
F 2 "~" H 4950 4300 50  0000 C CNN
F 3 "~" H 4950 4300 60  0000 C CNN
	1    4950 4300
	1    0    0    -1  
$EndComp
Wire Wire Line
	4950 4300 4950 5350
$Comp
L PWR_FLAG #FLG085
U 1 1 55BCABE4
P 5350 4350
F 0 "#FLG085" H 5350 4445 30  0001 C CNN
F 1 "PWR_FLAG" H 5350 4530 30  0000 C CNN
F 2 "~" H 5350 4350 60  0000 C CNN
F 3 "~" H 5350 4350 60  0000 C CNN
	1    5350 4350
	1    0    0    -1  
$EndComp
$Comp
L -16V #PWR086
U 1 1 55BCB34C
P 4850 3850
F 0 "#PWR086" H 4855 3940 50  0001 C CNN
F 1 "-16V" H 4850 3940 50  0000 C CNN
F 2 "~" H 4850 3850 50  0000 C CNN
F 3 "~" H 4850 3850 60  0000 C CNN
	1    4850 3850
	-1   0    0    1   
$EndComp
$Comp
L +16V #PWR087
U 1 1 55BCC2A5
P 4950 2550
F 0 "#PWR087" H 4955 2640 50  0001 C CNN
F 1 "+16V" H 4950 2640 50  0000 C CNN
F 2 "~" H 4950 2550 50  0000 C CNN
F 3 "~" H 4950 2550 60  0000 C CNN
	1    4950 2550
	1    0    0    -1  
$EndComp
$Comp
L PWR_FLAG #FLG088
U 1 1 55BCCBD6
P 5350 2600
F 0 "#FLG088" H 5350 2695 30  0001 C CNN
F 1 "PWR_FLAG" H 5350 2780 30  0000 C CNN
F 2 "~" H 5350 2600 60  0000 C CNN
F 3 "~" H 5350 2600 60  0000 C CNN
	1    5350 2600
	1    0    0    -1  
$EndComp
$Comp
L PWR_FLAG #FLG089
U 1 1 55BCCBDC
P 5350 3800
F 0 "#FLG089" H 5350 3895 30  0001 C CNN
F 1 "PWR_FLAG" H 5350 3980 30  0000 C CNN
F 2 "~" H 5350 3800 60  0000 C CNN
F 3 "~" H 5350 3800 60  0000 C CNN
	1    5350 3800
	1    0    0    1   
$EndComp
$Comp
L PWR_FLAG #FLG090
U 1 1 55BED467
P 7450 3150
F 0 "#FLG090" H 7450 3245 30  0001 C CNN
F 1 "PWR_FLAG" H 7450 3330 30  0000 C CNN
F 2 "~" H 7450 3150 60  0000 C CNN
F 3 "~" H 7450 3150 60  0000 C CNN
	1    7450 3150
	1    0    0    -1  
$EndComp
Connection ~ 7450 3200
$Comp
L C C23
U 1 1 55BEBAF4
P 4500 6750
F 0 "C23" H 4550 6950 50  0000 L CNN
F 1 "0.1uF" H 4550 6850 50  0000 L CNN
F 2 "~" H 4450 6750 50  0000 C CNN
F 3 "~" H 4500 6750 60  0000 C CNN
	1    4500 6750
	1    0    0    -1  
$EndComp
Text Notes 4550 6900 0    50   ~ 0
(U76)
Wire Wire Line
	6500 6450 6500 6550
Connection ~ 6100 6450
Wire Wire Line
	6500 7050 6500 6950
Connection ~ 6100 7050
Wire Wire Line
	6900 6450 6900 6550
Connection ~ 6500 6450
Wire Wire Line
	6900 7050 6900 6950
Connection ~ 6500 7050
$Comp
L C C24
U 1 1 55BEBDE4
P 5300 6750
F 0 "C24" H 5100 6550 50  0000 L CNN
F 1 "0.1uF" H 5050 6650 50  0000 L CNN
F 2 "~" H 5250 6750 50  0000 C CNN
F 3 "~" H 5300 6750 60  0000 C CNN
	1    5300 6750
	-1   0    0    1   
$EndComp
Text Notes 5350 6900 0    50   ~ 0
(U49)
Text Notes 3350 6900 0    50   ~ 0
(U35)
Text Notes 3750 6900 0    50   ~ 0
(U31)
Text Notes 4150 6900 0    50   ~ 0
(U45)
Text Notes 4950 6900 0    50   ~ 0
(U77)
Text Notes 5750 6900 0    50   ~ 0
(U79)
Text Notes 6150 6900 0    50   ~ 0
(U32)
Text Notes 6550 6900 0    50   ~ 0
(U43)
Text Notes 6950 6900 0    50   ~ 0
(U29)
$EndSCHEMATC
