EESchema Schematic File Version 2
LIBS:mals_library
LIBS:power
LIBS:device
LIBS:transistors
LIBS:conn
LIBS:linear
LIBS:regul
LIBS:74xx
LIBS:cmos4000
LIBS:adc-dac
LIBS:memory
LIBS:xilinx
LIBS:special
LIBS:microcontrollers
LIBS:dsp
LIBS:microchip
LIBS:analog_switches
LIBS:motorola
LIBS:texas
LIBS:intel
LIBS:audio
LIBS:interface
LIBS:digital-audio
LIBS:philips
LIBS:display
LIBS:cypress
LIBS:siliconi
LIBS:opto
LIBS:atmel
LIBS:contrib
LIBS:valves
LIBS:Super 80 Reproduction-cache
EELAYER 27 0
EELAYER END
$Descr A3 16535 11693
encoding utf-8
Sheet 3 7
Title "Super 80 Reproduction"
Date "9 aug 2015"
Rev "0.1"
Comp "Malcolm Macleod"
Comment1 ""
Comment2 ""
Comment3 ""
Comment4 ""
$EndDescr
$Comp
L S80-S100 J5
U 1 1 559C64B3
P 11600 2650
F 0 "J5" H 11600 4150 50  0000 C CNN
F 1 "S-100 CONNECTOR" H 11600 4050 50  0000 C CNN
F 2 "~" H 11400 4000 60  0000 C CNN
F 3 "~" H 11400 4000 60  0000 C CNN
	1    11600 2650
	1    0    0    -1  
$EndComp
$Comp
L -16V #PWR06
U 1 1 559C6581
P 12650 1400
F 0 "#PWR06" H 12655 1490 50  0001 C CNN
F 1 "-16V" H 12650 1490 50  0000 C CNN
F 2 "~" H 12650 1400 50  0000 C CNN
F 3 "~" H 12650 1400 60  0000 C CNN
	1    12650 1400
	1    0    0    -1  
$EndComp
$Comp
L +16V #PWR07
U 1 1 559C6589
P 10550 1400
F 0 "#PWR07" H 10555 1490 50  0001 C CNN
F 1 "+16V" H 10550 1490 50  0000 C CNN
F 2 "~" H 10550 1400 50  0000 C CNN
F 3 "~" H 10550 1400 60  0000 C CNN
	1    10550 1400
	1    0    0    -1  
$EndComp
$Comp
L GND #PWR08
U 1 1 559C6591
P 10700 6450
F 0 "#PWR08" H 10700 6450 30  0001 C CNN
F 1 "GND" H 10700 6380 30  0001 C CNN
F 2 "~" H 10700 6450 60  0000 C CNN
F 3 "~" H 10700 6450 60  0000 C CNN
	1    10700 6450
	1    0    0    -1  
$EndComp
Wire Wire Line
	10700 6450 10700 6350
Wire Wire Line
	10700 6350 11000 6350
$Comp
L GND #PWR09
U 1 1 559C6599
P 12500 6450
F 0 "#PWR09" H 12500 6450 30  0001 C CNN
F 1 "GND" H 12500 6380 30  0001 C CNN
F 2 "~" H 12500 6450 60  0000 C CNN
F 3 "~" H 12500 6450 60  0000 C CNN
	1    12500 6450
	1    0    0    -1  
$EndComp
Wire Wire Line
	12200 6350 12500 6350
Wire Wire Line
	12500 6350 12500 6450
$Comp
L 74LS14 U16
U 2 1 559C65A1
P 7500 1950
F 0 "U16" H 7650 2050 50  0000 C CNN
F 1 "74LS14" H 7700 1850 50  0000 C CNN
F 2 "~" H 7500 1950 60  0000 C CNN
F 3 "~" H 7500 1950 60  0000 C CNN
	2    7500 1950
	1    0    0    -1  
$EndComp
$Comp
L 74LS14 U16
U 3 1 559C65A7
P 7500 2550
F 0 "U16" H 7650 2650 50  0000 C CNN
F 1 "74LS14" H 7700 2450 50  0000 C CNN
F 2 "~" H 7500 2550 60  0000 C CNN
F 3 "~" H 7500 2550 60  0000 C CNN
	3    7500 2550
	1    0    0    -1  
$EndComp
$Comp
L 74LS05 U9
U 6 1 559C65AD
P 8400 1950
F 0 "U9" H 8595 2065 50  0000 C CNN
F 1 "74LS05" H 8590 1825 50  0000 C CNN
F 2 "~" H 8400 1950 60  0000 C CNN
F 3 "~" H 8400 1950 60  0000 C CNN
	6    8400 1950
	1    0    0    -1  
$EndComp
$Comp
L 74LS05 U9
U 5 1 559C65B3
P 8400 2550
F 0 "U9" H 8595 2665 50  0000 C CNN
F 1 "74LS05" H 8590 2425 50  0000 C CNN
F 2 "~" H 8400 2550 60  0000 C CNN
F 3 "~" H 8400 2550 60  0000 C CNN
	5    8400 2550
	1    0    0    -1  
$EndComp
$Comp
L R R38
U 1 1 559C65B9
P 9100 1600
F 0 "R38" H 8950 1550 50  0000 C CNN
F 1 "1K" H 8950 1650 50  0000 C CNN
F 2 "~" H 9100 1600 50  0000 C CNN
F 3 "~" H 9100 1600 60  0000 C CNN
	1    9100 1600
	1    0    0    1   
$EndComp
$Comp
L R R37
U 1 1 559C65BF
P 9500 1600
F 0 "R37" H 9350 1550 50  0000 C CNN
F 1 "1K" H 9350 1650 50  0000 C CNN
F 2 "~" H 9500 1600 50  0000 C CNN
F 3 "~" H 9500 1600 60  0000 C CNN
	1    9500 1600
	1    0    0    1   
$EndComp
Wire Wire Line
	8850 1950 9750 1950
Wire Wire Line
	9100 1950 9100 1850
Connection ~ 9100 1950
Wire Wire Line
	8850 2550 9750 2550
Wire Wire Line
	9500 2550 9500 1850
Connection ~ 9500 2550
$Comp
L S80-RESET-SW SW3
U 1 1 559C68ED
P 2050 2250
F 0 "SW3" V 2050 2650 50  0000 C CNN
F 1 "PCB MOM SW 2-PIN" V 1900 2800 50  0001 C CNN
F 2 "~" H 2050 2250 60  0000 C CNN
F 3 "~" H 2050 2250 60  0000 C CNN
	1    2050 2250
	0    -1   -1   0   
$EndComp
$Comp
L R R36
U 1 1 559C68FA
P 2600 1500
F 0 "R36" H 2400 1450 50  0000 C CNN
F 1 "4.7K" H 2400 1550 50  0000 C CNN
F 2 "~" H 2600 1500 50  0000 C CNN
F 3 "~" H 2600 1500 60  0000 C CNN
	1    2600 1500
	1    0    0    1   
$EndComp
$Comp
L C C61
U 1 1 559C6902
P 2600 2250
F 0 "C61" H 2350 2050 50  0000 L CNN
F 1 "0.1uF" H 2300 2150 50  0000 L CNN
F 2 "~" H 2550 2250 50  0000 C CNN
F 3 "~" H 2600 2250 60  0000 C CNN
	1    2600 2250
	1    0    0    1   
$EndComp
$Comp
L 74LS14 U16
U 6 1 559C6C37
P 3200 2300
F 0 "U16" V 3250 2550 50  0000 C CNN
F 1 "74LS14" V 3350 2550 50  0000 C CNN
F 2 "~" H 3200 2300 60  0000 C CNN
F 3 "~" H 3200 2300 60  0000 C CNN
	6    3200 2300
	0    1    1    0   
$EndComp
$Comp
L 74LS14 U16
U 1 1 559C6C74
P 4550 1850
F 0 "U16" H 4750 1650 50  0000 C CNN
F 1 "74LS14" H 4750 1750 50  0000 C CNN
F 2 "~" H 4550 1850 60  0000 C CNN
F 3 "~" H 4550 1850 60  0000 C CNN
	1    4550 1850
	-1   0    0    1   
$EndComp
$Comp
L 74LS05 U9
U 3 1 559C6C7A
P 3650 1850
F 0 "U9" H 3850 1650 50  0000 C CNN
F 1 "74LS05" H 3840 1725 50  0000 C CNN
F 2 "~" H 3650 1850 60  0000 C CNN
F 3 "~" H 3650 1850 60  0000 C CNN
	3    3650 1850
	-1   0    0    1   
$EndComp
Wire Wire Line
	1500 1850 3200 1850
Wire Wire Line
	2600 1750 2600 2050
Connection ~ 2600 1850
Connection ~ 2050 1850
Connection ~ 3200 1850
Text Label 1500 1850 2    50   ~ 0
S100-RESET*
$Comp
L 74LS05 U9
U 4 1 559C7393
P 2550 3150
F 0 "U9" H 2750 2950 50  0000 C CNN
F 1 "74LS05" H 2740 3025 50  0000 C CNN
F 2 "~" H 2550 3150 60  0000 C CNN
F 3 "~" H 2550 3150 60  0000 C CNN
	4    2550 3150
	-1   0    0    1   
$EndComp
$Comp
L 74LS05 U9
U 1 1 559C76AB
P 2550 3600
F 0 "U9" H 2750 3400 50  0000 C CNN
F 1 "74LS05" H 2740 3475 50  0000 C CNN
F 2 "~" H 2550 3600 60  0000 C CNN
F 3 "~" H 2550 3600 60  0000 C CNN
	1    2550 3600
	-1   0    0    1   
$EndComp
$Comp
L GND #PWR010
U 1 1 559C79D7
P 2050 2750
F 0 "#PWR010" H 2050 2750 30  0001 C CNN
F 1 "GND" H 2050 2680 30  0001 C CNN
F 2 "~" H 2050 2750 60  0000 C CNN
F 3 "~" H 2050 2750 60  0000 C CNN
	1    2050 2750
	1    0    0    -1  
$EndComp
Wire Wire Line
	2050 2750 2050 2650
Wire Wire Line
	2050 2650 2600 2650
Wire Wire Line
	2600 2650 2600 2450
Connection ~ 2050 2650
Text Label 1500 3150 2    50   ~ 0
S100-POC*
Text Label 1500 3600 2    50   ~ 0
S100-SLAVE-CLR*
Wire Wire Line
	4100 1850 4100 3150
Wire Wire Line
	4100 3150 3000 3150
Connection ~ 4100 1850
Wire Wire Line
	2100 3150 1500 3150
Wire Wire Line
	1500 3600 2100 3600
Wire Wire Line
	3200 2750 3200 3600
Wire Wire Line
	3000 3600 3950 3600
$Comp
L 74LS04 U8
U 4 1 559C7E50
P 2550 4050
F 0 "U8" H 2750 4250 50  0000 C CNN
F 1 "74LS04" H 2750 4150 50  0000 C CNN
F 2 "~" H 2550 4050 60  0000 C CNN
F 3 "~" H 2550 4050 60  0000 C CNN
	4    2550 4050
	-1   0    0    -1  
$EndComp
$Comp
L 74LS04 U8
U 5 1 559C7E5D
P 3700 4500
F 0 "U8" H 3850 4750 50  0000 C CNN
F 1 "74LS04" H 3850 4650 50  0000 C CNN
F 2 "~" H 3700 4500 60  0000 C CNN
F 3 "~" H 3700 4500 60  0000 C CNN
	5    3700 4500
	-1   0    0    -1  
$EndComp
Text Label 1500 4050 2    50   ~ 0
S100-CLOCK-B*
Text Label 1500 4500 2    50   ~ 0
S100-CLK-B*
Text GLabel 4150 4500 2    50   Input ~ 0
CLK
Wire Wire Line
	3000 4050 3200 4050
Wire Wire Line
	3200 4050 3200 4500
Wire Wire Line
	1500 4500 3250 4500
Connection ~ 3200 4500
Wire Wire Line
	1500 4050 2100 4050
$Comp
L +5V #PWR011
U 1 1 559C858E
P 2600 1250
F 0 "#PWR011" H 2605 1340 50  0001 C CNN
F 1 "+5V" H 2600 1340 50  0000 C CNN
F 2 "~" H 2600 1250 50  0000 C CNN
F 3 "~" H 2600 1250 60  0000 C CNN
	1    2600 1250
	1    0    0    -1  
$EndComp
$Comp
L +5V #PWR012
U 1 1 559C859F
P 9500 1200
F 0 "#PWR012" H 9505 1290 50  0001 C CNN
F 1 "+5V" H 9500 1290 50  0000 C CNN
F 2 "~" H 9500 1200 50  0000 C CNN
F 3 "~" H 9500 1200 60  0000 C CNN
	1    9500 1200
	1    0    0    -1  
$EndComp
Wire Wire Line
	9500 1200 9500 1350
Wire Wire Line
	9500 1250 9100 1250
Wire Wire Line
	9100 1250 9100 1350
Connection ~ 9500 1250
Text Label 7050 2550 2    50   ~ 0
S100-INT*
Text Label 7050 1950 2    50   ~ 0
S100-NMI*
Text GLabel 9750 1950 2    50   Output ~ 0
NMI*
Text GLabel 9750 2550 2    50   Output ~ 0
INT*
$Comp
L R R39
U 1 1 559C8F6B
P 5050 1450
F 0 "R39" H 4850 1400 50  0000 C CNN
F 1 "4.7K" H 4850 1500 50  0000 C CNN
F 2 "~" H 5050 1450 50  0000 C CNN
F 3 "~" H 5050 1450 60  0000 C CNN
	1    5050 1450
	1    0    0    1   
$EndComp
$Comp
L +5V #PWR013
U 1 1 559C8F71
P 5050 1150
F 0 "#PWR013" H 5055 1240 50  0001 C CNN
F 1 "+5V" H 5050 1240 50  0000 C CNN
F 2 "~" H 5050 1150 50  0000 C CNN
F 3 "~" H 5050 1150 60  0000 C CNN
	1    5050 1150
	1    0    0    -1  
$EndComp
$Comp
L CAP_POLARISED C17
U 1 1 559C8F79
P 5050 2150
F 0 "C17" H 5300 2150 50  0000 L CNN
F 1 "33uF TANT" H 5250 2050 50  0000 L CNN
F 2 "~" H 5000 2150 50  0000 C CNN
F 3 "~" H 5050 2150 60  0000 C CNN
	1    5050 2150
	1    0    0    -1  
$EndComp
$Comp
L GND #PWR014
U 1 1 559C8F95
P 5050 2450
F 0 "#PWR014" H 5050 2450 30  0001 C CNN
F 1 "GND" H 5050 2380 30  0001 C CNN
F 2 "~" H 5050 2450 60  0000 C CNN
F 3 "~" H 5050 2450 60  0000 C CNN
	1    5050 2450
	1    0    0    -1  
$EndComp
Wire Wire Line
	5050 1150 5050 1200
Wire Wire Line
	5050 1700 5050 1950
Wire Wire Line
	5050 1850 5000 1850
Connection ~ 5050 1850
Wire Wire Line
	5050 2350 5050 2450
$Comp
L S80-U17-74121 U17
U 1 1 559C98A1
P 4750 3700
F 0 "U17" H 4800 3250 50  0000 C CNN
F 1 "74121" H 4800 3150 50  0000 C CNN
F 2 "~" H 4750 3400 60  0000 C CNN
F 3 "~" H 4750 3400 60  0000 C CNN
	1    4750 3700
	1    0    0    -1  
$EndComp
$Comp
L C C19
U 1 1 559C98AE
P 4650 3100
F 0 "C19" V 4950 3050 50  0000 L CNN
F 1 "0.1uF" V 4850 3000 50  0000 L CNN
F 2 "~" H 4600 3100 50  0000 C CNN
F 3 "~" H 4650 3100 60  0000 C CNN
	1    4650 3100
	0    -1   -1   0   
$EndComp
$Comp
L +5V #PWR015
U 1 1 559C98C8
P 5050 3100
F 0 "#PWR015" H 5055 3190 50  0001 C CNN
F 1 "+5V" H 5050 3190 50  0000 C CNN
F 2 "~" H 5050 3100 50  0000 C CNN
F 3 "~" H 5050 3100 60  0000 C CNN
	1    5050 3100
	1    0    0    -1  
$EndComp
Connection ~ 3200 3600
Wire Wire Line
	3950 3750 3800 3750
Wire Wire Line
	3800 3750 3800 3600
Connection ~ 3800 3600
Text GLabel 5550 3950 2    50   Output ~ 0
MRESET*
Text Label 11000 2550 2    50   ~ 0
S100-NMI*
Text Label 12200 3650 0    50   ~ 0
S100-INT*
Text Label 12200 3850 0    50   ~ 0
S100-RESET*
Text Label 12200 6250 0    50   ~ 0
S100-POC*
Text Label 12200 1750 0    50   ~ 0
S100-SLAVE-CLR*
Text Label 11000 6250 2    50   ~ 0
S100-CLOCK-B*
Text Label 11000 3750 2    50   ~ 0
S100-CLK-B*
Text GLabel 5550 3600 2    50   Output ~ 0
MRESET
NoConn ~ 3950 3950
$Comp
L S80-U11-74LS30 U11
U 1 1 559D0830
P 4950 6300
F 0 "U11" H 4950 6650 50  0000 C CNN
F 1 "74LS30" H 4950 6550 50  0000 C CNN
F 2 "~" H 4950 6300 60  0000 C CNN
F 3 "~" H 4950 6300 60  0000 C CNN
	1    4950 6300
	1    0    0    -1  
$EndComp
$Comp
L S80-74LS00 U14
U 4 1 559D0849
P 3550 5750
F 0 "U14" H 3500 6100 50  0000 C CNN
F 1 "74LS00" H 3500 6000 50  0000 C CNN
F 2 "~" H 3550 5750 60  0000 C CNN
F 3 "~" H 3550 5750 60  0000 C CNN
	4    3550 5750
	1    0    0    -1  
$EndComp
$Comp
L S80-74LS04 U16
U 5 1 559D0886
P 2300 5500
F 0 "U16" H 2500 5750 50  0000 C CNN
F 1 "74LS14" H 2500 5650 50  0000 C CNN
F 2 "~" H 2300 5500 60  0000 C CNN
F 3 "~" H 2300 5500 60  0000 C CNN
	5    2300 5500
	1    0    0    -1  
$EndComp
Wire Wire Line
	2750 5500 2850 5500
Wire Wire Line
	2850 5500 2850 5650
Wire Wire Line
	2850 5650 2950 5650
Wire Wire Line
	1650 5500 1850 5500
Wire Wire Line
	2950 5850 1650 5850
Wire Wire Line
	4150 5750 4250 5750
Wire Wire Line
	4250 5750 4250 5950
Wire Wire Line
	4250 5950 4350 5950
Wire Wire Line
	1650 6050 4350 6050
$Comp
L S80-DIPSW-EFGH SW2
U 1 1 559D0FB0
P 3800 6300
F 0 "SW2" H 3800 6000 50  0000 C CNN
F 1 "4-WAY DIP SWITCH" H 3800 5900 50  0001 C CNN
F 2 "~" V 3800 6300 60  0000 C CNN
F 3 "~" V 3800 6300 60  0000 C CNN
	1    3800 6300
	1    0    0    -1  
$EndComp
Wire Wire Line
	4000 6150 4350 6150
Wire Wire Line
	4000 6250 4350 6250
Wire Wire Line
	4000 6350 4350 6350
Wire Wire Line
	4000 6450 4350 6450
Wire Wire Line
	2950 6050 2950 6150
Wire Wire Line
	2950 6150 3550 6150
Connection ~ 2950 6050
Wire Wire Line
	3550 6250 1650 6250
Wire Wire Line
	1650 6350 3550 6350
Wire Wire Line
	3550 6450 1650 6450
NoConn ~ 4350 6550
NoConn ~ 4350 6650
Text GLabel 1650 5500 0    50   Input ~ 0
IEO
Text Label 1650 5850 2    50   ~ 0
S100-SINTA
Text GLabel 1650 6050 0    50   Input ~ 0
AS/W*
Text GLabel 1650 6250 0    50   Input ~ 0
ROM2*
Text GLabel 1650 6350 0    50   Input ~ 0
ROM1*
Text GLabel 1650 6450 0    50   Input ~ 0
ROM0*
Text Label 5550 6300 0    50   ~ 0
S100-DIN*
$Comp
L S80-U12-81LS95 U12
U 1 1 559D34F7
P 2800 8050
F 0 "U12" H 2800 8650 50  0000 C CNN
F 1 "81LS95" H 2800 8550 50  0000 C CNN
F 2 "~" H 2800 8050 60  0000 C CNN
F 3 "~" H 2800 8050 60  0000 C CNN
	1    2800 8050
	1    0    0    -1  
$EndComp
$Comp
L S80-U4-81LS95 U4
U 1 1 559D6301
P 2800 9800
F 0 "U4" H 2800 10400 50  0000 C CNN
F 1 "81LS95" H 2800 10300 50  0000 C CNN
F 2 "~" H 2800 9750 60  0000 C CNN
F 3 "~" H 2800 9750 60  0000 C CNN
	1    2800 9800
	1    0    0    -1  
$EndComp
$Comp
L GND #PWR016
U 1 1 559D630E
P 2700 8900
F 0 "#PWR016" H 2700 8900 30  0001 C CNN
F 1 "GND" H 2700 8830 30  0001 C CNN
F 2 "~" H 2700 8900 60  0000 C CNN
F 3 "~" H 2700 8900 60  0000 C CNN
	1    2700 8900
	1    0    0    -1  
$EndComp
Wire Wire Line
	2700 8900 2700 8800
Wire Wire Line
	2700 8800 2900 8800
Connection ~ 2700 8800
Text Label 2600 10650 2    50   ~ 0
S100-DIN*
Wire Wire Line
	2700 10650 2700 10550
Wire Wire Line
	2600 10650 2700 10650
Wire Wire Line
	2600 10750 2900 10750
Wire Wire Line
	2900 10750 2900 10550
Wire Bus Line
	1800 10450 1400 10450
Entry Wire Line
	1800 7800 1900 7700
Entry Wire Line
	1800 7900 1900 7800
Entry Wire Line
	1800 8000 1900 7900
Entry Wire Line
	1800 8100 1900 8000
Entry Wire Line
	1800 8200 1900 8100
Entry Wire Line
	1800 8300 1900 8200
Entry Wire Line
	1800 8400 1900 8300
Entry Wire Line
	1800 8500 1900 8400
Wire Bus Line
	1800 7800 1800 10450
Text Label 1900 8400 0    50   ~ 0
D0
Text Label 1900 8300 0    50   ~ 0
D1
Text Label 1900 8200 0    50   ~ 0
D2
Text Label 1900 8100 0    50   ~ 0
D3
Text Label 1900 8000 0    50   ~ 0
D4
Text Label 1900 7900 0    50   ~ 0
D5
Text Label 1900 7800 0    50   ~ 0
D6
Text Label 1900 7700 0    50   ~ 0
D7
Wire Wire Line
	1900 8400 2100 8400
Wire Wire Line
	1900 8300 2100 8300
Wire Wire Line
	1900 8200 2100 8200
Wire Wire Line
	1900 8100 2100 8100
Wire Wire Line
	1900 8000 2100 8000
Wire Wire Line
	1900 7900 2100 7900
Wire Wire Line
	1900 7800 2100 7800
Wire Wire Line
	1900 7700 2100 7700
Text Label 3500 8400 0    50   ~ 0
S100-DO0
Text Label 3500 8300 0    50   ~ 0
S100-DO1
Text Label 3500 8200 0    50   ~ 0
S100-DO2
Text Label 3500 8100 0    50   ~ 0
S100-DO3
Text Label 3500 8000 0    50   ~ 0
S100-DO4
Text Label 3500 7900 0    50   ~ 0
S100-DO5
Text Label 3500 7800 0    50   ~ 0
S100-DO6
Text Label 3500 7700 0    50   ~ 0
S100-DO7
Entry Wire Line
	1800 9550 1900 9450
Entry Wire Line
	1800 9650 1900 9550
Entry Wire Line
	1800 9750 1900 9650
Entry Wire Line
	1800 9850 1900 9750
Entry Wire Line
	1800 9950 1900 9850
Entry Wire Line
	1800 10050 1900 9950
Entry Wire Line
	1800 10150 1900 10050
Entry Wire Line
	1800 10250 1900 10150
Text Label 1900 10150 0    50   ~ 0
D0
Text Label 1900 10050 0    50   ~ 0
D1
Text Label 1900 9950 0    50   ~ 0
D2
Text Label 1900 9850 0    50   ~ 0
D3
Text Label 1900 9750 0    50   ~ 0
D4
Text Label 1900 9650 0    50   ~ 0
D5
Text Label 1900 9550 0    50   ~ 0
D6
Text Label 1900 9450 0    50   ~ 0
D7
Wire Wire Line
	1900 10150 2100 10150
Wire Wire Line
	1900 10050 2100 10050
Wire Wire Line
	1900 9950 2100 9950
Wire Wire Line
	1900 9850 2100 9850
Wire Wire Line
	1900 9750 2100 9750
Wire Wire Line
	1900 9650 2100 9650
Wire Wire Line
	1900 9550 2100 9550
Wire Wire Line
	1900 9450 2100 9450
Text Label 3500 10150 0    50   ~ 0
S100-DI0
Text Label 3500 10050 0    50   ~ 0
S100-DI1
Text Label 3500 9950 0    50   ~ 0
S100-DI2
Text Label 3500 9850 0    50   ~ 0
S100-DI3
Text Label 3500 9750 0    50   ~ 0
S100-DI4
Text Label 3500 9650 0    50   ~ 0
S100-DI5
Text Label 3500 9550 0    50   ~ 0
S100-DI6
Text Label 3500 9450 0    50   ~ 0
S100-DI7
$Comp
L S80-U5-U13-81LS95 U5
U 1 1 559DBC38
P 5900 8050
F 0 "U5" H 5900 8650 50  0000 C CNN
F 1 "81LS95" H 5900 8550 50  0000 C CNN
F 2 "~" H 5900 8000 60  0000 C CNN
F 3 "~" H 5900 8000 60  0000 C CNN
	1    5900 8050
	1    0    0    -1  
$EndComp
$Comp
L S80-U5-U13-81LS95 U13
U 1 1 559DBC47
P 5900 9800
F 0 "U13" H 5900 10400 50  0000 C CNN
F 1 "81LS95" H 5900 10300 50  0000 C CNN
F 2 "~" H 5900 9750 60  0000 C CNN
F 3 "~" H 5900 9750 60  0000 C CNN
	1    5900 9800
	1    0    0    -1  
$EndComp
$Comp
L GND #PWR017
U 1 1 559DBC54
P 5800 8900
F 0 "#PWR017" H 5800 8900 30  0001 C CNN
F 1 "GND" H 5800 8830 30  0001 C CNN
F 2 "~" H 5800 8900 60  0000 C CNN
F 3 "~" H 5800 8900 60  0000 C CNN
	1    5800 8900
	1    0    0    -1  
$EndComp
$Comp
L GND #PWR018
U 1 1 559DBC5A
P 5800 10650
F 0 "#PWR018" H 5800 10650 30  0001 C CNN
F 1 "GND" H 5800 10580 30  0001 C CNN
F 2 "~" H 5800 10650 60  0000 C CNN
F 3 "~" H 5800 10650 60  0000 C CNN
	1    5800 10650
	1    0    0    -1  
$EndComp
Wire Wire Line
	5800 8900 5800 8800
Wire Wire Line
	5800 8800 6000 8800
Wire Wire Line
	5800 10650 5800 10550
Wire Wire Line
	5800 10550 6000 10550
Connection ~ 5800 8800
Connection ~ 5800 10550
Text Label 5000 10150 0    50   ~ 0
A0
Text Label 5000 9550 0    50   ~ 0
A1
Text Label 5000 10050 0    50   ~ 0
A2
Text Label 5000 8400 0    50   ~ 0
A3
Text Label 5000 7700 0    50   ~ 0
A4
Text Label 5000 9450 0    50   ~ 0
A5
Text Label 5000 8300 0    50   ~ 0
A6
Text Label 5000 9650 0    50   ~ 0
A7
Text Label 5000 7900 0    50   ~ 0
A8
Text Label 5000 8200 0    50   ~ 0
A9
Text Label 5000 9750 0    50   ~ 0
A10
Text Label 5000 8000 0    50   ~ 0
A11
Text Label 5000 9950 0    50   ~ 0
A12
Text Label 5000 9850 0    50   ~ 0
A13
Text Label 5000 8100 0    50   ~ 0
A14
Text Label 5000 7800 0    50   ~ 0
A15
Entry Wire Line
	4900 7800 5000 7700
Entry Wire Line
	4900 7900 5000 7800
Entry Wire Line
	4900 8000 5000 7900
Entry Wire Line
	4900 8100 5000 8000
Entry Wire Line
	4900 8200 5000 8100
Entry Wire Line
	4900 8300 5000 8200
Entry Wire Line
	4900 8400 5000 8300
Entry Wire Line
	4900 8500 5000 8400
Wire Bus Line
	4900 7800 4900 10450
Entry Wire Line
	4900 9550 5000 9450
Entry Wire Line
	4900 9650 5000 9550
Entry Wire Line
	4900 9750 5000 9650
Entry Wire Line
	4900 9850 5000 9750
Entry Wire Line
	4900 9950 5000 9850
Entry Wire Line
	4900 10050 5000 9950
Entry Wire Line
	4900 10150 5000 10050
Entry Wire Line
	4900 10250 5000 10150
Wire Wire Line
	5000 10150 5200 10150
Wire Wire Line
	5000 9450 5200 9450
Wire Wire Line
	5000 9550 5200 9550
Wire Wire Line
	5000 9650 5200 9650
Wire Wire Line
	5000 9750 5200 9750
Wire Wire Line
	5000 9850 5200 9850
Wire Wire Line
	5000 9950 5200 9950
Wire Wire Line
	5000 10050 5200 10050
Wire Wire Line
	5000 7700 5200 7700
Wire Wire Line
	5000 7800 5200 7800
Wire Wire Line
	5000 7900 5200 7900
Wire Wire Line
	5000 8000 5200 8000
Wire Wire Line
	5000 8100 5200 8100
Wire Wire Line
	5000 8200 5200 8200
Wire Wire Line
	5000 8300 5200 8300
Wire Wire Line
	5000 8400 5200 8400
Text Label 6600 10150 0    50   ~ 0
S100-A0
Text Label 6600 9550 0    50   ~ 0
S100-A1
Text Label 6600 10050 0    50   ~ 0
S100-A2
Text Label 6600 8400 0    50   ~ 0
S100-A3
Text Label 6600 7700 0    50   ~ 0
S100-A4
Text Label 6600 9450 0    50   ~ 0
S100-A5
Text Label 6600 8300 0    50   ~ 0
S100-A6
Text Label 6600 9650 0    50   ~ 0
S100-A7
Text Label 6600 7900 0    50   ~ 0
S100-A8
Text Label 6600 8200 0    50   ~ 0
S100-A9
Text Label 6600 8000 0    50   ~ 0
S100-A11
Text Label 6600 9950 0    50   ~ 0
S100-A12
Text Label 6600 9850 0    50   ~ 0
S100-A13
Text Label 6600 8100 0    50   ~ 0
S100-A14
Text Label 6600 7800 0    50   ~ 0
S100-A15
Text Notes 2650 6650 0    50   ~ 0
LINK IN ONLY THE CHIPS\nTHAT ARE PRESENT
Text Label 12200 5350 0    50   ~ 0
S100-DO7
Text Label 11000 5350 2    50   ~ 0
S100-DO6
Text Label 11000 5250 2    50   ~ 0
S100-DO5
Text Label 11000 5150 2    50   ~ 0
S100-DO4
Text Label 12200 5250 0    50   ~ 0
S100-DO3
Text Label 12200 5150 0    50   ~ 0
S100-DO2
Text Label 11000 4850 2    50   ~ 0
S100-DO1
Text Label 11000 4950 2    50   ~ 0
S100-DO0
Text Label 11000 5650 2    50   ~ 0
S100-DI7
Text Label 12200 5650 0    50   ~ 0
S100-DI6
Text Label 12200 5550 0    50   ~ 0
S100-DI5
Text Label 12200 5450 0    50   ~ 0
S100-DI4
Text Label 11000 5550 2    50   ~ 0
S100-DI3
Text Label 11000 5450 2    50   ~ 0
S100-DI2
Text Label 12200 5750 0    50   ~ 0
S100-DI1
Text Label 12200 5850 0    50   ~ 0
S100-DI0
Text Label 11000 4550 2    50   ~ 0
S100-A15
Text Label 12200 4950 0    50   ~ 0
S100-A14
Text Label 12200 4850 0    50   ~ 0
S100-A13
Text Label 11000 4650 2    50   ~ 0
S100-A12
Text Label 12200 5050 0    50   ~ 0
S100-A11
Text Label 11000 5050 2    50   ~ 0
S100-A10
Text Label 11000 4750 2    50   ~ 0
S100-A9
Text Label 12200 4750 0    50   ~ 0
S100-A8
Text Label 12200 4650 0    50   ~ 0
S100-A7
Text Label 12200 4550 0    50   ~ 0
S100-A6
Text Label 11000 4250 2    50   ~ 0
S100-A5
Text Label 11000 4350 2    50   ~ 0
S100-A4
Text Label 11000 4450 2    50   ~ 0
S100-A3
Text Label 12200 4450 0    50   ~ 0
S100-A2
Text Label 12200 4350 0    50   ~ 0
S100-A1
Text Label 12200 4250 0    50   ~ 0
S100-A0
Text Notes 1550 2400 0    50   ~ 0
RESET
Text GLabel 1400 10450 0    50   BiDi ~ 0
D[0..7]
Wire Wire Line
	6600 7800 7050 7800
Wire Wire Line
	6600 7900 7050 7900
Wire Wire Line
	6600 8000 7050 8000
Wire Wire Line
	6600 8100 7050 8100
Wire Wire Line
	6600 8200 7050 8200
Wire Wire Line
	6600 8300 7050 8300
Wire Wire Line
	6600 8400 7050 8400
Wire Wire Line
	6600 7700 7050 7700
Wire Wire Line
	6600 9450 7050 9450
Wire Wire Line
	6600 9550 7050 9550
Wire Wire Line
	6600 9650 7050 9650
Wire Wire Line
	6600 9750 7050 9750
Wire Wire Line
	6600 9850 7050 9850
Wire Wire Line
	6600 9950 7050 9950
Wire Wire Line
	6600 10050 7050 10050
Wire Wire Line
	6600 10150 7050 10150
Entry Wire Line
	7050 7700 7150 7800
Entry Wire Line
	7050 7800 7150 7900
Entry Wire Line
	7050 7900 7150 8000
Entry Wire Line
	7050 8000 7150 8100
Entry Wire Line
	7050 8100 7150 8200
Entry Wire Line
	7050 8200 7150 8300
Entry Wire Line
	7050 8300 7150 8400
Entry Wire Line
	7050 8400 7150 8500
Entry Wire Line
	7050 9450 7150 9550
Entry Wire Line
	7050 9550 7150 9650
Entry Wire Line
	7050 9650 7150 9750
Entry Wire Line
	7050 9750 7150 9850
Entry Wire Line
	7050 9850 7150 9950
Entry Wire Line
	7050 9950 7150 10050
Entry Wire Line
	7050 10050 7150 10150
Entry Wire Line
	7050 10150 7150 10250
Wire Bus Line
	7150 7800 7150 10450
Wire Bus Line
	4900 10450 4700 10450
Text GLabel 4700 10450 0    50   BiDi ~ 0
A[0..15]
$Comp
L 74LS02 U78
U 3 1 559FA82A
P 10750 9400
F 0 "U78" H 11000 9050 50  0000 C CNN
F 1 "74LS02" H 11000 9150 50  0000 C CNN
F 2 "~" H 10750 9400 60  0000 C CNN
F 3 "~" H 10750 9400 60  0000 C CNN
	3    10750 9400
	1    0    0    1   
$EndComp
$Comp
L 74LS04 U15
U 3 1 559FA86C
P 11550 9950
F 0 "U15" H 11700 10200 50  0000 C CNN
F 1 "74LS04" H 11700 10100 50  0000 C CNN
F 2 "~" H 11550 9950 60  0000 C CNN
F 3 "~" H 11550 9950 60  0000 C CNN
	3    11550 9950
	-1   0    0    -1  
$EndComp
$Comp
L 74LS04 U15
U 4 1 559FA8AE
P 12250 9400
F 0 "U15" H 12400 9650 50  0000 C CNN
F 1 "74LS04" H 12400 9550 50  0000 C CNN
F 2 "~" H 12250 9400 60  0000 C CNN
F 3 "~" H 12250 9400 60  0000 C CNN
	4    12250 9400
	1    0    0    -1  
$EndComp
$Comp
L 74LS00 U14
U 2 1 559FA8CD
P 13700 9950
F 0 "U14" H 13550 9550 50  0000 C CNN
F 1 "74LS00" H 13600 9650 50  0000 C CNN
F 2 "~" H 13700 9950 60  0000 C CNN
F 3 "~" H 13700 9950 60  0000 C CNN
	2    13700 9950
	-1   0    0    1   
$EndComp
$Comp
L JUMPER JP2
U 1 1 559FA8FD
P 13350 9400
F 0 "JP2" H 13350 9700 50  0000 C CNN
F 1 "JUMPER" H 13350 9600 50  0000 C CNN
F 2 "~" H 13350 9400 60  0000 C CNN
F 3 "~" H 13350 9400 60  0000 C CNN
	1    13350 9400
	-1   0    0    -1  
$EndComp
$Comp
L 74LS74 U6
U 1 1 559FB13B
P 10750 8250
F 0 "U6" H 11050 8700 50  0000 C CNN
F 1 "74LS74" H 11050 8600 50  0000 C CNN
F 2 "~" H 10750 8250 60  0000 C CNN
F 3 "~" H 10750 8250 60  0000 C CNN
	1    10750 8250
	1    0    0    -1  
$EndComp
$Comp
L 74LS74 U6
U 2 1 559FB14A
P 12350 8250
F 0 "U6" H 12650 8700 50  0000 C CNN
F 1 "74LS74" H 12650 8600 50  0000 C CNN
F 2 "~" H 12350 8250 60  0000 C CNN
F 3 "~" H 12350 8250 60  0000 C CNN
	2    12350 8250
	1    0    0    -1  
$EndComp
$Comp
L 74LS02 U78
U 1 1 559FB18A
P 13750 7600
F 0 "U78" H 13800 8000 50  0000 C CNN
F 1 "74LS02" H 13800 7900 50  0000 C CNN
F 2 "~" H 13750 7600 60  0000 C CNN
F 3 "~" H 13750 7600 60  0000 C CNN
	1    13750 7600
	1    0    0    -1  
$EndComp
$Comp
L 74LS00 U14
U 1 1 559FB1CF
P 9450 8650
F 0 "U14" H 9450 9050 50  0000 C CNN
F 1 "74LS00" H 9450 8950 50  0000 C CNN
F 2 "~" H 9450 8650 60  0000 C CNN
F 3 "~" H 9450 8650 60  0000 C CNN
	1    9450 8650
	1    0    0    -1  
$EndComp
Text GLabel 8750 8550 0    50   Input ~ 0
IOREQ-BUFRD*
Text GLabel 8750 8750 0    50   Input ~ 0
MEMREQ-BUFRD*
Wire Wire Line
	8750 8550 8850 8550
Wire Wire Line
	8750 8750 8850 8750
Wire Wire Line
	8850 9300 10150 9300
Connection ~ 8850 8750
Wire Wire Line
	8750 9500 10150 9500
Text GLabel 8750 9500 0    50   Input ~ 0
RFSH*
Wire Wire Line
	11350 9400 11800 9400
Wire Wire Line
	12700 9400 13050 9400
Wire Wire Line
	13650 9400 14350 9400
Text Notes 13150 9550 0    50   ~ 0
PRE-LINK
Wire Wire Line
	14300 9850 14350 9850
Wire Wire Line
	14300 10050 14350 10050
Wire Wire Line
	13100 9950 12000 9950
Wire Wire Line
	11100 9950 8750 9950
Text GLabel 8750 9950 0    50   Output ~ 0
WAIT*
Wire Wire Line
	8850 8750 8850 9300
Text GLabel 8750 8050 0    50   Input ~ 0
RFSH*
Wire Wire Line
	8750 8050 10150 8050
$Comp
L GND #PWR019
U 1 1 559FBF58
P 11650 8150
F 0 "#PWR019" H 11650 8150 30  0001 C CNN
F 1 "GND" H 11650 8080 30  0001 C CNN
F 2 "~" H 11650 8150 60  0000 C CNN
F 3 "~" H 11650 8150 60  0000 C CNN
	1    11650 8150
	1    0    0    -1  
$EndComp
Wire Wire Line
	11650 8150 11650 8050
Wire Wire Line
	11650 8050 11750 8050
Wire Wire Line
	11350 8450 11500 8450
Wire Wire Line
	11500 8450 11500 7700
Wire Wire Line
	11500 7700 12350 7700
Wire Wire Line
	8750 8950 11750 8950
Wire Wire Line
	10750 8950 10750 8800
Wire Wire Line
	11750 8950 11750 8250
Connection ~ 10750 8950
Text GLabel 8750 8950 0    50   Input ~ 0
CLK2
Wire Wire Line
	13150 7700 13050 7700
Wire Wire Line
	13050 7700 13050 8450
Wire Wire Line
	13050 8450 12950 8450
Wire Wire Line
	13150 7500 8750 7500
Text GLabel 8750 7500 0    50   Input ~ 0
CLK
Wire Wire Line
	12950 8050 14350 8050
Text Label 14350 7600 0    50   ~ 0
S100-PSTVAL
Text Label 14350 8050 0    50   ~ 0
S100-PSYNC
Text Label 14350 9400 0    50   ~ 0
S100-PRFSH*
Text Label 14350 9850 0    50   ~ 0
S100-RDY*
Text Label 14350 10050 0    50   ~ 0
S100-XRDY*
Wire Wire Line
	10050 8250 10150 8250
Text Label 11000 3850 2    50   ~ 0
S100-PSTVAL
Text Label 12200 3950 0    50   ~ 0
S100-PSYNC
Text Label 12200 2950 0    50   ~ 0
S100-PRFSH*
Text Label 12200 3550 0    50   ~ 0
S100-RDY*
Text Label 11000 1650 2    50   ~ 0
S100-XRDY*
NoConn ~ 12350 8800
NoConn ~ 11350 8050
NoConn ~ 10750 7700
$Comp
L GND #PWR020
U 1 1 559FFCE6
P 10400 4050
F 0 "#PWR020" H 10400 4050 30  0001 C CNN
F 1 "GND" H 10400 3980 30  0001 C CNN
F 2 "~" H 10400 4050 60  0000 C CNN
F 3 "~" H 10400 4050 60  0000 C CNN
	1    10400 4050
	1    0    0    -1  
$EndComp
Wire Wire Line
	10400 4050 10400 3950
Wire Wire Line
	10400 3950 11000 3950
Text GLabel 14900 3600 2    50   Input ~ 0
WR-BUFRD*
$Comp
L 74LS04 U8
U 2 1 55A4391B
P 14300 4150
F 0 "U8" H 14500 4350 50  0000 C CNN
F 1 "74LS04" H 14500 4250 50  0000 C CNN
F 2 "~" H 14300 4150 60  0000 C CNN
F 3 "~" H 14300 4150 60  0000 C CNN
	2    14300 4150
	-1   0    0    -1  
$EndComp
Wire Wire Line
	12200 4150 13850 4150
Wire Wire Line
	12950 4050 12200 4050
Text Notes 12200 4050 0    50   ~ 0
PWR*
Text Notes 12200 4150 0    50   ~ 0
PDBIN
Text Notes 11000 3950 2    50   ~ 0
PHLDA
Text GLabel 14900 4150 2    50   Input ~ 0
RD-BUFRD*
$Comp
L 74LS02 U78
U 2 1 55A44625
P 13050 3150
F 0 "U78" H 13150 2800 50  0000 C CNN
F 1 "74LS02" H 13150 2900 50  0000 C CNN
F 2 "~" H 13050 3150 60  0000 C CNN
F 3 "~" H 13050 3150 60  0000 C CNN
	2    13050 3150
	-1   0    0    1   
$EndComp
Text Notes 12200 3150 0    50   ~ 0
MWRT
$Comp
L 74LS02 U7
U 1 1 55A44B0B
P 14250 3050
F 0 "U7" H 14450 2700 50  0000 C CNN
F 1 "74LS02" H 14450 2800 50  0000 C CNN
F 2 "~" H 14250 3050 60  0000 C CNN
F 3 "~" H 14250 3050 60  0000 C CNN
	1    14250 3050
	-1   0    0    1   
$EndComp
Wire Wire Line
	12200 3150 12450 3150
Wire Wire Line
	12950 3600 14900 3600
Wire Wire Line
	12950 4050 12950 3600
Wire Wire Line
	13650 3600 13650 3250
Connection ~ 13650 3600
Wire Wire Line
	14850 3150 14850 3450
Wire Wire Line
	14850 3450 13800 3450
Wire Wire Line
	13800 3450 13800 4150
Connection ~ 13800 4150
Text Label 13500 2700 2    50   ~ 0
S100-SOUT
Wire Wire Line
	13500 2700 13650 2700
Wire Wire Line
	13650 2700 13650 3050
Connection ~ 13650 3050
Text Label 11000 5850 2    50   ~ 0
S100-SOUT
Text GLabel 14850 2950 2    50   Input ~ 0
IOREQ-BUFRD*
$Comp
L 74LS04 U8
U 3 1 55A45A64
P 9050 6750
F 0 "U8" H 9250 6950 50  0000 C CNN
F 1 "74LS04" H 9250 6850 50  0000 C CNN
F 2 "~" H 9050 6750 60  0000 C CNN
F 3 "~" H 9050 6750 60  0000 C CNN
	3    9050 6750
	1    0    0    -1  
$EndComp
Text Notes 11000 6150 2    50   ~ 0
SHLTA
Text GLabel 8600 6750 0    50   Input ~ 0
HALT*
$Comp
L S80-74LS00 U14
U 3 1 55A463DE
P 13400 6400
F 0 "U14" H 13350 6750 50  0000 C CNN
F 1 "74LS00" H 13350 6650 50  0000 C CNN
F 2 "~" H 13400 6400 60  0000 C CNN
F 3 "~" H 13400 6400 60  0000 C CNN
	3    13400 6400
	-1   0    0    -1  
$EndComp
Text Notes 12200 6050 0    50   ~ 0
SWO*
Wire Wire Line
	12200 6050 12800 6050
Wire Wire Line
	14750 4150 14900 4150
Wire Wire Line
	14750 4150 14750 6300
Connection ~ 14750 4150
Connection ~ 10050 8250
$Comp
L 74LS02 U7
U 3 1 55A46822
P 9500 6200
F 0 "U7" H 9900 5950 50  0000 C CNN
F 1 "74LS02" H 9900 6050 50  0000 C CNN
F 2 "~" H 9500 6200 60  0000 C CNN
F 3 "~" H 9500 6200 60  0000 C CNN
	3    9500 6200
	1    0    0    1   
$EndComp
Text Notes 11000 6050 2    50   ~ 0
SMEMR
Text GLabel 8900 6300 0    50   Input ~ 0
MEMREQ-BUFRD*
Text GLabel 8800 6100 0    50   Input ~ 0
RD-BUFRD*
Wire Wire Line
	10050 7000 10050 8650
Wire Wire Line
	10300 6150 10300 6750
Wire Wire Line
	10300 6750 9500 6750
Wire Wire Line
	10300 6150 11000 6150
Wire Wire Line
	11000 6050 10200 6050
Wire Wire Line
	10200 6050 10200 6200
Wire Wire Line
	10200 6200 10100 6200
$Comp
L 74LS02 U7
U 2 1 55A47427
P 9500 5650
F 0 "U7" H 9900 5900 50  0000 C CNN
F 1 "74LS02" H 9900 5800 50  0000 C CNN
F 2 "~" H 9500 5650 60  0000 C CNN
F 3 "~" H 9500 5650 60  0000 C CNN
	2    9500 5650
	1    0    0    -1  
$EndComp
Wire Wire Line
	10100 5650 10200 5650
Wire Wire Line
	10200 5650 10200 5950
Wire Wire Line
	10200 5950 11000 5950
Text Notes 11000 5950 2    50   ~ 0
SINP
Wire Wire Line
	8800 6100 8900 6100
Wire Wire Line
	8900 6100 8900 5750
Connection ~ 8900 6100
Text GLabel 8900 5550 0    50   Input ~ 0
IOREQ-BUFRD*
$Comp
L 74LS02 U7
U 4 1 55A483DD
P 13400 5650
F 0 "U7" H 13800 5400 50  0000 C CNN
F 1 "74LS02" H 13800 5500 50  0000 C CNN
F 2 "~" H 13400 5650 60  0000 C CNN
F 3 "~" H 13400 5650 60  0000 C CNN
	4    13400 5650
	-1   0    0    1   
$EndComp
Wire Wire Line
	14750 6300 14000 6300
Wire Wire Line
	12800 6050 12800 6400
Wire Wire Line
	12200 5950 12800 5950
Wire Wire Line
	12800 5950 12800 5650
Text GLabel 14000 5750 2    50   Input ~ 0
IOREQ-BUFRD*
Text GLabel 14000 5550 2    50   Input ~ 0
M1*
Wire Wire Line
	14000 6500 14000 7000
Wire Wire Line
	14000 7000 10050 7000
$Comp
L 74LS04 U22
U 4 1 55A49134
P 9550 5050
F 0 "U22" H 9750 5250 50  0000 C CNN
F 1 "74LS04" H 9750 5150 50  0000 C CNN
F 2 "~" H 9550 5050 60  0000 C CNN
F 3 "~" H 9550 5050 60  0000 C CNN
	4    9550 5050
	1    0    0    -1  
$EndComp
Wire Wire Line
	11000 5750 10300 5750
Wire Wire Line
	10300 5750 10300 5050
Wire Wire Line
	10300 5050 10000 5050
Text Notes 11000 5750 2    50   ~ 0
SM1
Text GLabel 8900 5050 0    50   Input ~ 0
M1*
Wire Wire Line
	8900 5050 9100 5050
NoConn ~ 11000 1750
NoConn ~ 11000 1850
NoConn ~ 11000 1950
NoConn ~ 11000 2050
NoConn ~ 11000 2150
NoConn ~ 11000 2250
NoConn ~ 11000 2350
Text Label 6600 9750 0    50   ~ 0
S100-A10
Wire Bus Line
	7150 10450 7750 10450
Text Label 7750 10450 0    50   ~ 0
S100-A[0..15]
Text GLabel 7750 10600 2    50   Output ~ 0
S100-A[0..15]
Text Notes 3900 6850 2    50   ~ 0
ON A1 SCHEMATIC, 12 COMES DIRECT FROM DECODEF*
Text Notes 3850 6950 2    50   ~ 0
AND AS/W* GOES THROUGH DIPSW E THEN TO U11/4
$Comp
L +8V #PWR021
U 1 1 55BC8F98
P 10850 1400
F 0 "#PWR021" H 10855 1490 50  0001 C CNN
F 1 "+8V" H 10850 1490 50  0000 C CNN
F 2 "~" H 10850 1400 50  0000 C CNN
F 3 "~" H 10850 1400 60  0000 C CNN
	1    10850 1400
	1    0    0    -1  
$EndComp
$Comp
L +8V #PWR022
U 1 1 55BC8FA5
P 12350 1400
F 0 "#PWR022" H 12355 1490 50  0001 C CNN
F 1 "+8V" H 12350 1490 50  0000 C CNN
F 2 "~" H 12350 1400 50  0000 C CNN
F 3 "~" H 12350 1400 60  0000 C CNN
	1    12350 1400
	1    0    0    -1  
$EndComp
Wire Wire Line
	12650 1400 12650 1550
Wire Wire Line
	12650 1550 12200 1550
Wire Wire Line
	12200 1450 12350 1450
Wire Wire Line
	12350 1450 12350 1400
Wire Wire Line
	10850 1400 10850 1450
Wire Wire Line
	10850 1450 11000 1450
Wire Wire Line
	10550 1400 10550 1550
Wire Wire Line
	10550 1550 11000 1550
NoConn ~ 11000 2450
NoConn ~ 11000 2650
NoConn ~ 11000 2750
NoConn ~ 11000 2850
NoConn ~ 11000 2950
NoConn ~ 11000 3050
NoConn ~ 11000 3150
NoConn ~ 11000 3250
NoConn ~ 11000 3350
NoConn ~ 11000 3450
NoConn ~ 11000 3550
NoConn ~ 11000 3650
NoConn ~ 11000 4050
NoConn ~ 11000 4150
NoConn ~ 12200 1850
NoConn ~ 12200 1950
NoConn ~ 12200 2050
NoConn ~ 12200 2150
NoConn ~ 12200 2250
NoConn ~ 12200 2350
NoConn ~ 12200 1650
NoConn ~ 12200 2450
NoConn ~ 12200 2550
NoConn ~ 12200 2650
NoConn ~ 12200 2750
NoConn ~ 12200 2850
NoConn ~ 12200 3050
NoConn ~ 12200 3250
NoConn ~ 12200 3350
NoConn ~ 12200 3450
NoConn ~ 12200 3750
NoConn ~ 12200 6150
Text Label 12200 5950 0    50   ~ 0
S100-SINTA
Text GLabel 2600 10750 0    50   Input ~ 0
RD-BUFRD*
$EndSCHEMATC
