%!PS-Adobe-3.0
%%Creator: PCBNEW
%%CreationDate: Sun Aug 09 12:23:12 2015
%%Title: D:\Documents\Electronics\KiCAD\Super 80 Reproduction\Super 80 Reproduction-Edge_Cuts.ps
%%Pages: 1
%%PageOrder: Ascend
%%BoundingBox: 0 0 1191 1684
%%DocumentMedia: A2 1191 1684 0 () ()
%%Orientation: Landscape
%%EndComments
%%BeginProlog
/line { newpath moveto lineto stroke } bind def
/cir0 { newpath 0 360 arc stroke } bind def
/cir1 { newpath 0 360 arc gsave fill grestore stroke } bind def
/cir2 { newpath 0 360 arc gsave fill grestore stroke } bind def
/arc0 { newpath arc stroke } bind def
/arc1 { newpath 4 index 4 index moveto arc closepath gsave fill
    grestore stroke } bind def
/arc2 { newpath 4 index 4 index moveto arc closepath gsave fill
    grestore stroke } bind def
/poly0 { stroke } bind def
/poly1 { closepath gsave fill grestore stroke } bind def
/poly2 { closepath gsave fill grestore stroke } bind def
/rect0 { rectstroke } bind def
/rect1 { rectfill } bind def
/rect2 { rectfill } bind def
/linemode0 { 0 setlinecap 0 setlinejoin 0 setlinewidth } bind def
/linemode1 { 1 setlinecap 1 setlinejoin } bind def
/dashedline { [200] 100 setdash } bind def
/solidline { [] 0 setdash } bind def
/phantomshow { moveto
    /KicadFont findfont 0.000001 scalefont setfont
    show } bind def
/textshow { gsave
    findfont exch scalefont setfont concat 1 scale 0 0 moveto show
    } bind def
/reencodefont {
  findfont dup length dict begin
  { 1 index /FID ne
    { def }
    { pop pop } ifelse
  } forall
  /Encoding ISOLatin1Encoding def
  currentdict
  end } bind def
/KicadFont /Helvetica reencodefont definefont pop
/KicadFont-Bold /Helvetica-Bold reencodefont definefont pop
/KicadFont-Oblique /Helvetica-Oblique reencodefont definefont pop
/KicadFont-BoldOblique /Helvetica-BoldOblique reencodefont definefont pop
%%EndProlog
%%Page: 1 1
%%BeginPageSetup
gsave
0.0072 0.0072 scale
linemode1
165350 0 translate 90 rotate
59.0551 setlinewidth
%%EndPageSetup
0 0 0 setrgbcolor
0 0 0 setrgbcolor
0 0 0 setrgbcolor
39.3701 setlinewidth
10000 155350 0.655906 cir0
0 0 0 setrgbcolor
newpath
9999.02 155350 moveto
10001 155350 lineto
stroke
0 0 0 setrgbcolor
newpath
10000 155351 moveto
10000 155349 lineto
stroke
0 0 0 setrgbcolor
0 0 0 setrgbcolor
10000 155350 0.655906 cir0
0 0 0 setrgbcolor
newpath
9999.02 155350 moveto
10001 155350 lineto
stroke
0 0 0 setrgbcolor
newpath
10000 155351 moveto
10000 155349 lineto
stroke
0 0 0 setrgbcolor
newpath
10000 155350 moveto
10000 33110 lineto
stroke
0 0 0 setrgbcolor
newpath
10000 33110 moveto
130080 33110 lineto
stroke
0 0 0 setrgbcolor
newpath
130080 155350 moveto
130080 33110 lineto
stroke
0 0 0 setrgbcolor
newpath
10000 155350 moveto
130080 155350 lineto
stroke
0 0 0 setrgbcolor
0 0 0 setrgbcolor
36750 112900 0.655906 cir0
0 0 0 setrgbcolor
newpath
36749 112900 moveto
36751 112900 lineto
stroke
0 0 0 setrgbcolor
newpath
36750 112901 moveto
36750 112899 lineto
stroke
0 0 0 setrgbcolor
0 0 0 setrgbcolor
39750 111400 0.655906 cir0
0 0 0 setrgbcolor
newpath
39749 111400 moveto
39751 111400 lineto
stroke
0 0 0 setrgbcolor
newpath
39750 111401 moveto
39750 111399 lineto
stroke
showpage
grestore
%%EOF
